\relax 
\providecommand\hyper@newdestlabel[2]{}
\providecommand\HyperFirstAtBeginDocument{\AtBeginDocument}
\HyperFirstAtBeginDocument{\ifx\hyper@anchor\@undefined
\global\let\oldcontentsline\contentsline
\gdef\contentsline#1#2#3#4{\oldcontentsline{#1}{#2}{#3}}
\global\let\oldnewlabel\newlabel
\gdef\newlabel#1#2{\newlabelxx{#1}#2}
\gdef\newlabelxx#1#2#3#4#5#6{\oldnewlabel{#1}{{#2}{#3}}}
\AtEndDocument{\ifx\hyper@anchor\@undefined
\let\contentsline\oldcontentsline
\let\newlabel\oldnewlabel
\fi}
\fi}
\global\let\hyper@last\relax 
\gdef\HyperFirstAtBeginDocument#1{#1}
\providecommand\HyField@AuxAddToFields[1]{}
\providecommand\HyField@AuxAddToCoFields[2]{}
\select@language{english}
\@writefile{toc}{\select@language{english}}
\@writefile{lof}{\select@language{english}}
\@writefile{lot}{\select@language{english}}
\@writefile{toc}{\contentsline {subsection}{\numberline {0.0.1}Exercise 2}{1}{subsection.0.0.1}}
\@writefile{lof}{\contentsline {figure}{\numberline {1}{\ignorespaces Zoom at low energies of the total cross section for different values of the electron mass. In red we show the low-energy approximation in the massless limit: we see that the approximation fits perfectly the general expression for $m_e \not =0$.\relax }}{3}{figure.caption.1}}
\providecommand*\caption@xref[2]{\@setref\relax\@undefined{#1}}
\newlabel{fig:Lecross}{{1}{3}{Zoom at low energies of the total cross section for different values of the electron mass. In red we show the low-energy approximation in the massless limit: we see that the approximation fits perfectly the general expression for $m_e \neq 0$.\relax }{figure.caption.1}{}}
\@writefile{lof}{\contentsline {figure}{\numberline {2}{\ignorespaces Plot of the total cross section and comparison with the high-energy and low-energy approximations in the massless limit. Both the general cross-section and the high energy approximation converge to about $4.29\times 10^{-8}$ GeV$^{-1}$.\relax }}{4}{figure.caption.2}}
\newlabel{fig:cross2}{{2}{4}{Plot of the total cross section and comparison with the high-energy and low-energy approximations in the massless limit. Both the general cross-section and the high energy approximation converge to about $4.29\times 10^{-8}$ GeV$^{-1}$.\relax }{figure.caption.2}{}}
\newlabel{eq:crossHE}{{42}{5}{}{equation.0.0.42}{}}
\@writefile{lof}{\contentsline {figure}{\numberline {3}{\ignorespaces Comparison between the general ($m=0.511$ Mev) cross sections of the first two processes.\relax }}{6}{figure.caption.3}}
\newlabel{fig:comparison}{{3}{6}{Comparison between the general ($m=0.511$ Mev) cross sections of the first two processes.\relax }{figure.caption.3}{}}
\newlabel{eq:bellissima}{{54}{8}{}{equation.0.0.54}{}}
\@writefile{lof}{\contentsline {figure}{\numberline {4}{\ignorespaces Comparison between the section computed in the exercise. The $m_e=0$ approximation exploited in the last two is an excellent one.\relax }}{10}{figure.caption.4}}
\newlabel{fig:crosstutte}{{4}{10}{Comparison between the section computed in the exercise. The $m_e=0$ approximation exploited in the last two is an excellent one.\relax }{figure.caption.4}{}}
