%!PS-Adobe-2.0
%%Title: plot.ps (Landscape A 4)
%%Pages: (atend)
%%Creator: HIGZ Version 1.23/07
%%CreationDate: 97/03/06   21.04
%%EndComments
%%BeginProlog
/s {stroke} def /l {lineto} def /m {moveto} def /t {translate} def
/sw {stringwidth} def /r {rotate} def /rl {roll}  def /R {repeat} def
/d {rlineto} def /rm {rmoveto} def /gr {grestore} def /f {eofill} def
/c {setrgbcolor} def /lw {setlinewidth} def /sd {setdash} def
/cl {closepath} def /sf {scalefont setfont} def /black {0 setgray} def
/box {m dup 0 exch d exch 0 d 0 exch neg d cl} def
/NC{systemdict begin initclip end}def/C{NC box clip newpath}def
/bl {box s} def /bf {box f} def /Y { 0 exch d} def /X { 0 d} def 
/mp {newpath /y exch def /x exch def} def
/side {[w .77 mul w .23 mul] .385 w mul sd w 0 l currentpoint t -144 r} def
/mr {mp x y w2 0 360 arc} def /m24 {mr s} def /m20 {mr f} def
/mb {mp x y w2 add m w2 neg 0 d 0 w neg d w 0 d 0 w d cl} def
/mt {mp x y w2 add m w2 neg w neg d w 0 d cl} def
/m21 {mb f} def /m25 {mb s} def /m22 {mt f} def /m26 {mt s} def
/m23 {mp x y w2 sub m w2 w d w neg 0 d cl f} def
/m27 {mp x y w2 add m w3 neg w2 neg d w3 w2 neg d w3  w2 d cl s} def
/m28 {mp x w2 sub y w2 sub w3 add m w3 0 d 0 w3 neg d w3 0 d 0 w3 d w3 0 d
 0 w3 d w3 neg 0 d 0 w3 d w3 neg 0 d
 0 w3 neg d w3 neg 0 d cl s } def
/m29 {mp gsave x w2 sub y w2 add w3 sub m currentpoint t
 4 {side} repeat cl fill gr} def
/m30 {mp gsave x w2 sub y w2 add w3 sub m currentpoint t
 5 {side} repeat s gr} def
/m31 {mp x y w2 sub m 0 w d x w2 sub y m w 0 d
 x w2 sub y w2 add m w w neg d x w2 sub y w2
 sub m w w d s} def
/m2 {mp x y w2 sub m 0 w d x w2 sub y m w 0 d s} def
/m5 {mp x w2 sub y w2 sub m w w d x w2 sub y w2 add m w w neg d s} def
/DP {/PT exch def gsave 47.2 47.2 scale PT 1  eq { 16 16 1 [ 16 0 0 16 neg 0 16
] { < AA AA 55 55 AA AA 55 55 AA AA 55 55 AA AA 55 55 AA AA 55 55 AA AA 55 55
AA AA 55 55 AA AA 55 55 > } image } if PT 2 eq { 16 16 1 [ 16 0 0 16 neg 0 16
] { < BB BB EE EE BB BB EE EE BB BB EE EE BB BB EE EE BB BB EE EE BB BB EE EE
BB BB EE EE BB BB EE EE > } image } if PT 3 eq { 16 16 1 [ 16 0 0 16 neg 0 16
] { < FF FF BB BB FF FF EE EE FF FF BB BB FF FF EE EE FF FF BB BB FF FF EE EE
FF FF BB BB FF FF EE EE > } image } if PT 4 eq { 16 16 1 [ 16 0 0 16 neg 0 16
] { < DF DF BF BF 7F 7F FE FE FD FD FB FB F7 F7 EF EF DF DF BF BF 7F 7F FE FE
FD FD FB FB F7 F7 EF EF > } image } if PT 5 eq { 16 16 1 [ 16 0 0 16 neg 0 16
] { < 7F 7F BF B F DF DF EF EF F7 F7 FB FB FD FD FE FE 7F 7F BF BF DF DF EF
EF F7 F7 FB FB FD FD FE FE > } image } if PT 6 eq { 16 16 1 [ 16 0 0 16 neg 0
16 ] { < BB BB BB BB BB BB BB BB BB BB BB BB BB BB BB BB BB BB BB BB BB BB BB
BB BB BB BB BB BB BB BB BB > } image } if PT 7 eq { 16 16 1 [ 16 0 0 16 neg 0
16 ] { < FF FF FF FF FF FF 00 00 FF FF FF FF FF FF 00 00 FF FF FF FF FF FF 00
00 FF FF FF FF FF FF 00 00 > } image } if PT 8 eq { 16 16 1 [ 16 0 0 16 neg 0
16 ] { < EE EE 47 47 83 83 C5 C5 EE EE 5C 5C 38 38 74 74 EE EE 47 47 83 83 C5
C5 EE EE 5C 5C 38 38 74 74 > } image } if PT 9 eq { 16 16 1 [ 16 0 0 16 neg 0
16 ] { < EF EF EF EF D7 D7 38 38 FE FE FE FE 7D 7D 83 83 EF EF EF EF D7 D7 38
38  FE FE FE FE 7D 7D 83 83 > } image } if PT 10 eq { 16 16 1 [ 16 0 0 16 neg
0 16 ] { <  EF EF EF EF EF EF 00 00 FE FE FE FE FE FE 00 00 EF EF EF EF EF EF
00 00 FE FE FE FE FE FE 00 00 > } image } if PT 11 eq { 16 16 1 [ 16 0 0 16
neg 0 16 ] { < F7 F7 B6 B6 D5 D5 E3 E3 D5 D5 B6 B6 F7 F7 FF FF 7F 7F 6B 6B 5D
5D 3E 3E 5D 5D 6B 6B 7F 7F FF FF > } image } if PT 12 eq { 16 16 1 [ 16 0 0
16 neg 0 16 ] { < E3 E3 DD DD BE BE BE BE BE BE DD DD E3 E3 FF FF 3E 3E DD DD
EB EB EB EB EB EB DD DD 3E 3E FF FF > } image } if PT 13 eq { 16 16 1 [ 16 0
0 16 neg 0 16 ] { <  FE FE 7D 7D BB BB D7 D7 EF EF D7 D7 BB BB 7D 7D FE FE 7D
7D BB BB D7 D7 EF EF D7 D7 BB BB 7D 7D > } image } if PT 14 eq { 16 16 1 [ 16
0 0 16 neg 0 16 ] { < 00 00 EE EF EE EF EE EF 0E E0 EE EE EE EE EE EE 00 EE
FE EE FE EE FE EE 00 00 FE EF FE EF FE EF > } image } if PT 15 eq { 16 16 1 [
16 0 0 16 neg 0 16 ] { < DD DD AA AA DD DD FF FF 77 77 AA AA 77 77 FF FF DD
DD AA AA DD DD FF FF 77 77 AA AA 77 77 FF FF > } image } if PT 16 eq { 16 16
1 [ 16 0 0 16 neg 0 16 ] { <  F1 F1 EE EE 1F 1F FF FF F1 F1 EE EE 1F 1F FF FF
F1 F1 EE EE 1F 1F FF FF F1 F1 EE EE 1F 1F FF FF > } image } if PT 17 eq { 16
16 1 [ 16 0 0 16 neg 0 16 ] { <  EE EE DD DD BB BB FF FF EE EE DD DD BB BB FF
 FF EE EE DD DD BB BB FF FF EE EE DD DD BB BB FF FF > } image } if PT 18 eq {
16 16 1 [ 16 0 0 16 neg 0 16 ] { <  BB BB DD DD EE EE FF FF BB BB DD DD EE EE
FF FF BB BB DD DD EE EE FF FF BB BB DD DD EE EE FF FF > } image } if PT 19 eq
{ 16 16 1 [ 16 0 0 16 neg 0 16 ] { < 1F FC 67 F3 7B EF BD DE BD DE DE BD E6
B3 F8 0F E6 B3 DE BD BD DE BD DE 7B EF 67 F3 1F FC 7F FF > } image } if PT
20 eq { 16 16 1 [ 16 0 0 16 neg 0 16 ] { < DD DD EE EE EE EE EE EE DD DD BB
BB BB BB BB BB DD DD EE EE EE EE EE EE DD DD BB BB BB BB BB BB > } image }
if PT 21 eq { 16 16 1 [ 16 0 0 16 neg 0 16 ] { < 0E 0E EF EF EF EF EF EF E0
E0 FE FE FE FE FE FE 0E 0E EF EF EF EF EF EF E0 E0 FE FE FE FE FE FE > }
image }  if PT 22 eq { 16 16 1 [ 16 0 0 16 neg 0 16 ] { < 70 70 F7 F7 F7 F7 F7
F7 07 07 7F 7F 7F 7F 7F 7F 70 70 F7 F7 F7 F7 F7 F7 07 07 7F 7F 7F 7F 7F 7F >
} image } if PT 23 eq  { 16 16 1 [ 16 0 0 16 neg 0 16 ] { < AA AA 55 55 A9 A9
D1 D1 E1 E1 D1 D1 A9 A9 55 55 AA AA 55 55 A9 A9 D1 D1 E1 E1 D1 D1 A9 A9 55 55
> } image } if PT 24 eq { 16 16 1 [ 16 0 0 16 neg 0 16 ] { < FF FE FF FC EA
A8 D5 54 EA A8 D5 54 E8 28 D4 54 E8 E8 D4 D4 E8 EA 54 D5 A8 EA 54 D5 00 C0 00
80 > } image } if PT 25 eq {  16 16 1 [ 16 0 0 16 neg 0 16 ] { < FF FE FF FC
FF F8 FF F0 F0 00 F0 00 F0 20 F0 60 F0 E0 F1 E0 F3 E0 F0 00 E0 00 C0 00 80 00
00 00 > } image } if gr } def /FA { /PT exch def gsave clip 0 0 translate 1 1
54 { 1 sub 47.2 mul /Xcurr exch def 1 1 74 { 1 sub 47.2 mul /Ycurr exch def
gsave Xcurr Ycurr translate PT DP gr } for } for gr newpath } def
/reencdict 24 dict def /ReEncode {reencdict begin /nco&na exch def
/nfnam exch def /basefontname exch def /basefontdict basefontname findfont def
/newfont basefontdict maxlength dict def basefontdict {exch dup /FID ne
{dup /Encoding eq {exch dup length array copy newfont 3 1 roll put} {exch
newfont 3 1 roll put} ifelse} {pop pop} ifelse } forall newfont
/FontName nfnam put nco&na aload pop nco&na length 2 idiv {newfont
/Encoding get 3 1 roll put} repeat nfnam newfont definefont pop end } def
/accvec [ 176 /agrave 181 /Agrave 190 /acircumflex 192 /Acircumflex
201 /adieresis 204 /Adieresis 209 /ccedilla 210 /Ccedilla 211 /eacute
212 /Eacute 213 /egrave 214 /Egrave 215 /ecircumflex 216 /Ecircumflex
217 /edieresis 218 /Edieresis 219 /icircumflex 220 /Icircumflex
221 /idieresis 222 /Idieresis 223 /ntilde 224 /Ntilde 226 /ocircumflex
228 /Ocircumflex 229 /odieresis 230 /Odieresis 231 /ucircumflex 236 /Ucircumflex
237 /udieresis 238 /Udieresis 239 /aring 242 /Aring 243 /ydieresis
244 /Ydieresis 246 /aacute 247 /Aacute 252 /ugrave 253 /Ugrave] def
/Times-Roman /Times-Roman accvec ReEncode
/Times-Italic /Times-Italic accvec ReEncode
/Times-Bold /Times-Bold accvec ReEncode
/Times-BoldItalic /Times-BoldItalic accvec ReEncode
/Helvetica /Helvetica accvec ReEncode
/Helvetica-Oblique /Helvetica-Oblique accvec ReEncode
/Helvetica-Bold /Helvetica-Bold accvec ReEncode
/Helvetica-BoldOblique /Helvetica-BoldOblique  accvec ReEncode
/Courier /Courier accvec ReEncode
/Courier-Oblique /Courier-Oblique accvec ReEncode
/Courier-Bold /Courier-Bold accvec ReEncode
/Courier-BoldOblique /Courier-BoldOblique accvec ReEncode
/oshow {gsave [] 0 sd true charpath stroke gr} def
/stwn { /fs exch def /fn exch def /text exch def fn findfont fs sf
 text sw pop xs add /xs exch def} def
/stwb { /fs exch def /fn exch def /nbas exch def /textf exch def
textf length /tlen exch def nbas tlen gt {/nbas tlen def} if
fn findfont fs sf textf dup length nbas sub nbas getinterval sw
pop neg xs add /xs exch def} def
/accspe [ 65 /plusminus 66 /bar 67 /existential 68 /universal
69 /exclam 70 /numbersign 71 /greater 72 /question 73 /integral
74 /colon 75 /semicolon 76 /less 77 /bracketleft 78 /bracketright
79 /greaterequal 80 /braceleft 81 /braceright 82 /radical
83 /spade 84 /heart 85 /diamond 86 /club 87 /lessequal
88 /multiply 89 /percent 90 /infinity 48 /circlemultiply 49 /circleplus
50 /emptyset 51 /lozenge 52 /bullet 53 /arrowright 54 /arrowup
55 /arrowleft 56 /arrowdown 57 /arrowboth 48 /degree 44 /comma 43 /plus
 45 /angle 42 /angleleft 47 /divide 61 /notequal 40 /equivalence 41 /second
 97 /approxequal 98 /congruent 99 /perpendicular 100 /partialdiff 101 /florin
 102 /intersection 103 /union 104 /propersuperset 105 /reflexsuperset
 106 /notsubset 107 /propersubset 108 /reflexsubset 109 /element 110 /notelement
 111 /gradient 112 /logicaland 113 /logicalor 114 /arrowdblboth
 115 /arrowdblleft 116 /arrowdblup 117 /arrowdblright 118 /arrowdbldown
 119 /ampersand 120 /omega1 121 /similar 122 /aleph ] def
/Symbol /Special accspe ReEncode
/Zone {/iy exch def /ix exch def  ix 1 sub  3144 mul  1 iy sub  2224
 mul t} def
%%EndProlog
 gsave  90 r 0 -595 t  28 20 t .25 .25 scale  gsave 
%%Page: number 1
 gsave 
 1 1 Zone
 gsave 0 0 t black [] 0 sd 1 lw 4 lw 2269 1662 551 394 bl 2722 2115 211 54 C
 gsave  689 1766
 t   0 r 0 0 m
 /Times-Roman findfont   77 sf 0    0 m 
(BR\(H\))
 show 
 gr 
 gsave  689 1945
 t   0 r 0 0 m
 /Times-Roman findfont   77 sf 0    0 m 
(bb)
 show 
 gr 
 gsave  726 2017
 t   0 r 0 0 m
 /Times-Roman findfont   77 sf 0    0 m 
(_)
 show 
 gr 
 gsave  689 1448
 t   0 r 0 0 m
 /Symbol findfont   77 sf 0    0 m 
(t)
 show 
 currentpoint pop 0 t 
 /Times-Roman findfont   54 sf 0   39 m 
(+)
 show 
 currentpoint pop 0 t 
 /Symbol findfont   77 sf 0    0 m 
(t)
 show 
 currentpoint pop 0 t 
 /Symbol findfont   54 sf 0   39 m 
(-)
 show 
 gr 
 gsave  689 1287
 t   0 r 0 0 m
 /Times-Roman findfont   77 sf 0    0 m 
(cc)
 show 
 gr 
 gsave  721 1345
 t   0 r 0 0 m
 /Times-Roman findfont   77 sf 0    0 m 
(_)
 show 
 gr 
 gsave  689 1089
 t   0 r 0 0 m
 /Times-Roman findfont   77 sf 0    0 m 
(gg)
 show 
 gr 
 gsave  1770 1889
 t   0 r 0 0 m
 /Times-Roman findfont   77 sf 0    0 m 
(WW)
 show 
 gr 
 gsave  1770 1692
 t   0 r 0 0 m
 /Times-Roman findfont   77 sf 0    0 m 
(ZZ)
 show 
 gr 
 gsave  2087 1212
 t   0 r 0 0 m
 /Times-Roman findfont   77 sf 0    0 m 
(tt)
 show 
 gr 
 gsave  2107 1242
 t   0 r 0 0 m
 /Times-Roman findfont   77 sf 0    0 m 
(-)
 show 
 gr 
 gsave  1182 615
 t   0 r 0 0 m
 /Symbol findfont   77 sf 0    0 m 
(gg)
 show 
 gr 
 gsave  1303 642
 t   0 r 0 0 m
 /Times-Roman findfont   77 sf 0    0 m 
(Z)
 show 
 currentpoint pop 0 t 
 /Symbol findfont   77 sf 0    0 m 
(g)
 show 
 gr 
 /xs 0 def 
(M)
 /Times-Roman     77 stwn 
(H)
 /Times-Roman     54 stwn 
(\040)
 /Times-Roman     77 stwn 
(M)
 /Special     77 stwn 
(GeV)
 /Times-Roman     77 stwn 
(N)
 /Special     77 stwn 
 gsave  1685 178
 t   0 r  xs 2 div neg 0 t 0 0 m
 /Times-Roman findfont   77 sf 0    0 m 
(M)
 show 
 currentpoint pop 0 t 
 /Times-Roman findfont   54 sf 0  -26 m 
(H)
 show 
 currentpoint pop 0 t 
 /Times-Roman findfont   77 sf 0    0 m 
(\040)
 show 
 currentpoint pop 0 t 
 /Special findfont   77 sf 0    0 m 
(M)
 show 
 currentpoint pop 0 t 
 /Times-Roman findfont   77 sf 0    0 m 
(GeV)
 show 
 currentpoint pop 0 t 
 /Special findfont   77 sf 0    0 m 
(N)
 show 
 gr 
 /xs 0 def 
(50)
 /Times-Roman     77 stwn 
 gsave  551 286
 t   0 r  xs 2 div neg 0 t 0 0 m
 /Times-Roman findfont   77 sf 0    0 m 
(50)
 show 
 gr 
 /xs 0 def 
(100)
 /Times-Roman     77 stwn 
 gsave  1076 286
 t   0 r  xs 2 div neg 0 t 0 0 m
 /Times-Roman findfont   77 sf 0    0 m 
(100)
 show 
 gr 
 /xs 0 def 
(200)
 /Times-Roman     77 stwn 
 gsave  1601 286
 t   0 r  xs 2 div neg 0 t 0 0 m
 /Times-Roman findfont   77 sf 0    0 m 
(200)
 show 
 gr 
 /xs 0 def 
(500)
 /Times-Roman     77 stwn 
 gsave  2295 286
 t   0 r  xs 2 div neg 0 t 0 0 m
 /Times-Roman findfont   77 sf 0    0 m 
(500)
 show 
 gr 
 /xs 0 def 
(1000)
 /Times-Roman     77 stwn 
 gsave  2820 286
 t   0 r  xs 2 div neg 0 t 0 0 m
 /Times-Roman findfont   77 sf 0    0 m 
(1000)
 show 
 gr  2269 1662 551 394 C NC 1 lw 551 394 m 1662 Y s 4 lw 585 394 m -34 X s
 /xs 0 def 
(10)
 /Times-Roman     77 stwn 
 gsave  435 369
 t   0 r  xs neg 0 t 0 0 m
 /Times-Roman findfont   77 sf 0    0 m 
(10)
 show 
 gr 
 /xs 0 def 
(-3)
 /Times-Roman     62 stwn 
 gsave  512 431
 t   0 r  xs neg 0 t 0 0 m
 /Times-Roman findfont   62 sf 0    0 m 
(-3)
 show 
 gr  568 561 m -17 X s 568 658 m -17 X s 568 728 m -17 X s 568 781 m -17 X s 568
 825 m -17 X s 568 862 m -17 X s 568 894 m -17 X s 568 923 m -17 X s 585 948 m
 -34 X s
 /xs 0 def 
(10)
 /Times-Roman     77 stwn 
 gsave  435 922
 t   0 r  xs neg 0 t 0 0 m
 /Times-Roman findfont   77 sf 0    0 m 
(10)
 show 
 gr 
 /xs 0 def 
(-2)
 /Times-Roman     62 stwn 
 gsave  512 985
 t   0 r  xs neg 0 t 0 0 m
 /Times-Roman findfont   62 sf 0    0 m 
(-2)
 show 
 gr  568 1115 m -17 X s 568 1212 m -17 X s 568 1281 m -17 X s 568 1335 m -17 X s
 568 1379 m -17 X s 568 1416 m -17 X s 568 1448 m -17 X s 568 1477 m -17 X s 585
 1502 m -34 X s
 /xs 0 def 
(10)
 /Times-Roman     77 stwn 
 gsave  435 1476
 t   0 r  xs neg 0 t 0 0 m
 /Times-Roman findfont   77 sf 0    0 m 
(10)
 show 
 gr 
 /xs 0 def 
(-1)
 /Times-Roman     62 stwn 
 gsave  512 1539
 t   0 r  xs neg 0 t 0 0 m
 /Times-Roman findfont   62 sf 0    0 m 
(-1)
 show 
 gr  568 1669 m -17 X s 568 1766 m -17 X s 568 1835 m -17 X s 568 1889 m -17 X s
 568 1933 m -17 X s 568 1970 m -17 X s 568 2002 m -17 X s 568 2030 m -17 X s 585
 2056 m -34 X s
 /xs 0 def 
(1)
 /Times-Roman     77 stwn 
 gsave  460 2030
 t   0 r  xs neg 0 t 0 0 m
 /Times-Roman findfont   77 sf 0    0 m 
(1)
 show 
 gr  1 lw 551 394 m 2269 X s 4 lw 689 411 m -17 Y s 806 411 m -17 Y s 907 411 m
 -17 Y s 996 411 m -17 Y s 1076 428 m -34 Y s
 /xs 0 def 
(10)
 /Times-Roman     77 stwn 
 gsave  1076 -113110
 t   0 r  xs 2 div neg 0 t 0 0 m
 /Times-Roman findfont   77 sf 0    0 m 
(10)
 show 
 gr 
 /xs 0 def 
(2)
 /Times-Roman     62 stwn 
 gsave  1140 -113059
 t   0 r  xs 2 div neg 0 t 0 0 m
 /Times-Roman findfont   62 sf 0    0 m 
(2)
 show 
 gr  1601 411 m -17 Y s 1908 411 m -17 Y s 2126 411 m -17 Y s 2295 411 m -17 Y s
 2433 411 m -17 Y s 2550 411 m -17 Y s 2651 411 m -17 Y s 2740 411 m -17 Y s
 2820 428 m -34 Y s
 /xs 0 def 
(10)
 /Times-Roman     77 stwn 
 gsave  2820 -113110
 t   0 r  xs 2 div neg 0 t 0 0 m
 /Times-Roman findfont   77 sf 0    0 m 
(10)
 show 
 gr 
 /xs 0 def 
(3)
 /Times-Roman     62 stwn 
 gsave  2883 -113059
 t   0 r  xs 2 div neg 0 t 0 0 m
 /Times-Roman findfont   62 sf 0    0 m 
(3)
 show 
 gr  2269 1662 551 394 C NC 1 lw 2820 394 m 1662 Y s 4 lw 2786 394 m 34 X s 2803
 561 m 17 X s 2803 658 m 17 X s 2803 728 m 17 X s 2803 781 m 17 X s 2803 825 m
 17 X s 2803 862 m 17 X s 2803 894 m 17 X s 2803 923 m 17 X s 2786 948 m 34 X s
 2803 1115 m 17 X s 2803 1212 m 17 X s 2803 1281 m 17 X s 2803 1335 m 17 X s
 2803 1379 m 17 X s 2803 1416 m 17 X s 2803 1448 m 17 X s 2803 1477 m 17 X s
 2786 1502 m 34 X s 2803 1669 m 17 X s 2803 1766 m 17 X s 2803 1835 m 17 X s
 2803 1889 m 17 X s 2803 1933 m 17 X s 2803 1970 m 17 X s 2803 2002 m 17 X s
 2803 2030 m 17 X s 2786 2056 m 34 X s 1 lw 551 2056 m 2269 X s 4 lw 689 2039 m
 17 Y s 806 2039 m 17 Y s 907 2039 m 17 Y s 996 2039 m 17 Y s 1076 2022 m 34 Y s
 1601 2039 m 17 Y s 1908 2039 m 17 Y s 2126 2039 m 17 Y s 2295 2039 m 17 Y s
 2433 2039 m 17 Y s 2550 2039 m 17 Y s 2651 2039 m 17 Y s 2740 2039 m 17 Y s
 2820 2022 m 34 Y s 2269 1662 551 394 C 551 2021 m 59 X 13 -1 d 54 X 12 -1 d 37
 X 12 -1 d 35 X 11 -1 d 33 X 10 -1 d 31 X 10 -1 d 30 X 9 -1 d 19 X 9 -1 d 18 X 9
 -1 d 17 X 9 -1 d 17 X 8 -1 d 8 X 8 -1 d 8 X 8 -1 d 8 X 8 -1 d 7 -1 d 8 X 8 -1 d
 7 -1 d 7 -1 d 8 -1 d 7 -1 d 7 -2 d 7 -1 d 7 -2 d 7 -1 d 7 -2 d 7 -2 d 7 -3 d 7
 -2 d 6 -3 d 7 -3 d 6 -3 d 7 -3 d 6 -4 d 7 -4 d 6 -4 d 6 -4 d 7 -5 d 6 -5 d 6 -6
 d 6 -6 d 6 -6 d 6 -7 d 6 -7 d 6 -7 d 6 -8 d 6 -8 d 5 -9 d 6 -9 d 6 -10 d 5 -10
 d 6 -10 d 5 -11 d 6 -12 d 5 -12 d 6 -13 d 5 -13 d 6 -13 d 5 -15 d 5 -15 d 5 -15
 d 6 -17 d 5 -17 d 5 -18 d 5 -19 d 5 -20 d 5 -21 d 5 -24 d 5 -24 d 5 -28 d 5 -29
 d 5 -34 d 5 -38 d 4 -45 d 5 -54 d 5 -67 d 5 -71 d 4 -68 d 5 -59 d 5 -41 d 4 -31
 d 5 -26 d 4 -20 d 5 -18 d 4 -17 d 5 -14 d 4 -13 d 5 -12 d 4 -12 d 4 -11 d 5 -10
 d 4 -10 d 4 -9 d 5 -10 d 4 -9 d 4 -10 d 4 -11 d 5 -11 d 4 -13 d 4 -13 d 4 -13 d
 4 -12 d 4 -11 d 4 -9 d 4 -9 d 4 -8 d 4 -8 d 4 -8 d 4 -7 d 4 -7 d 4 -6 d 4 -7 d
 3 -6 d 4 -6 d 4 -6 d 4 -5 d 4 -6 d 3 -5 d 4 -6 d 4 -5 d 4 -5 d 3 -5 d 4 -5 d 4
 -5 d 3 -5 d 4 -5 d 3 -5 d 4 -4 d 4 -5 d 3 -4 d 4 -5 d 3 -4 d 4 -4 d 3 -5 d 4 -4
 d 3 -4 d 4 -5 d 3 -4 d 3 -4 d 4 -4 d 3 -4 d 3 -4 d 4 -4 d 3 -4 d 3 -3 d 4 -4 d
 3 -4 d 3 -4 d 4 -4 d 3 -3 d 3 -4 d 3 -4 d 3 -3 d 4 -4 d 3 -4 d 3 -3 d 3 -4 d 3
 -3 d 3 -4 d 4 -3 d 3 -3 d 3 -4 d 3 -3 d 3 -3 d 3 -4 d 3 -3 d 3 -3 d 3 -4 d s
 1776 410 m 3 -3 d 3 -3 d 3 -3 d 3 -4 d 3 -3 d 3 -3 d 3 -3 d 3 -3 d 3 -3 d 2 -3
 d 3 -3 d 3 -3 d 3 -3 d 3 -3 d 3 -3 d 3 -3 d 2 -3 d 3 -3 d 3 -3 d 3 -3 d 3 -3 d
 2 -3 d 3 -2 d 3 -3 d 3 -3 d 2 -3 d 3 -3 d 3 -2 d 2 -3 d 3 -3 d 3 -3 d 2 -2 d 3
 -3 d 3 -3 d 2 -2 d 3 -3 d 3 -3 d 2 -2 d 3 -3 d 2 -2 d 3 -3 d 3 -2 d 2 -3 d 3 -3
 d 2 -2 d 3 -3 d 2 -2 d 3 -2 d 2 -3 d 3 -2 d 2 -3 d 3 -2 d 2 -3 d 3 -2 d 2 -3 d
 3 -2 d 2 -2 d 3 -3 d 2 -2 d 3 -2 d 2 -3 d 2 -2 d 3 -2 d 2 -3 d 3 -2 d 2 -2 d 2
 -2 d 3 -3 d 2 -2 d 3 -2 d 2 -2 d 2 -3 d 3 -2 d 2 -2 d 2 -2 d 3 -2 d 2 -2 d 2 -3
 d 2 -2 d 3 -2 d 2 -2 d 2 -2 d 3 -2 d 2 -2 d 2 -2 d 2 -3 d 3 -2 d 2 -2 d 2 -2 d
 2 -2 d 2 -2 d 3 -2 d 2 -2 d 2 -2 d 2 -2 d 2 -2 d 3 -2 d 2 -2 d 2 -3 d 2 -2 d 2
 -3 d 2 -2 d 2 -3 d 3 -3 d 2 -3 d 2 -2 d 2 -3 d 2 -3 d 2 -3 d 2 -2 d 2 -3 d 2 -3
 d 2 -3 d 3 -2 d 2 -3 d 2 -3 d 2 -2 d 2 -3 d 2 -3 d 2 -2 d 2 -3 d 2 -2 d 2 -3 d
 2 -2 d 2 -3 d 2 -3 d 2 -2 d 2 -2 d 2 -3 d 2 -2 d 2 -3 d 2 -2 d 2 -3 d 2 -2 d 2
 -2 d 2 -3 d 2 -2 d 2 -2 d 2 -2 d 1 -3 d 2 -2 d 2 -2 d 2 -2 d 2 -3 d 2 -2 d 2 -2
 d 2 -2 d 2 -2 d 2 -2 d 2 -2 d 1 -2 d 2 -3 d 2 -2 d 2 -2 d 2 -2 d 2 -2 d 2 -2 d
 1 -2 d 2 -2 d 2 -2 d 2 -1 d 2 -2 d 2 -2 d 1 -2 d 2 -2 d 2 -2 d 2 -2 d 2 -2 d 2
 -1 d 1 -2 d 2 -2 d 2 -2 d 2 -2 d 1 -1 d 2 -2 d 2 -2 d 2 -2 d 2 -1 d 1 -2 d 2 -2
 d 2 -2 d 2 -1 d 1 -2 d 2 -2 d 2 -1 d 2 -2 d 1 -2 d 2 -1 d 2 -2 d 1 -1 d 2 -2 d
 2 -2 d 2 -1 d 1 -2 d 2 -1 d 2 -2 d 1 -1 d 2 -2 d 2 -2 d 1 -1 d 2 -2 d 2 -1 d 1
 -2 d s 2223 -59 m 2 -1 d 2 -2 d 1 -1 d 2 -1 d 2 -2 d 1 -1 d 2 -2 d 2 -1 d 1 -2
 d 2 -1 d 1 -2 d 2 -1 d 2 -1 d 1 -2 d 2 -1 d 2 -2 d 1 -1 d 2 -1 d 1 -2 d 2 -1 d
 2 -1 d 1 -2 d 2 -1 d 1 -2 d 2 -1 d 1 -1 d 2 -1 d 2 -2 d 1 -1 d 2 -1 d 1 -2 d 2
 -1 d 1 -1 d 2 -1 d 1 -2 d 2 -1 d 2 -1 d 1 -2 d 2 -1 d 1 -1 d 2 -1 d 1 -2 d 2 -1
 d 1 -1 d 2 -1 d 1 -2 d 2 -1 d 1 -1 d 2 -1 d 1 -1 d 2 -2 d 1 -1 d 2 -1 d 1 -1 d
 2 -1 d 1 -1 d 2 -2 d 1 -1 d 2 -1 d 1 -1 d 2 -1 d 1 -2 d 2 -1 d 1 -1 d 1 -1 d 2
 -1 d 1 -1 d 2 -1 d 1 -2 d 2 -1 d 1 -1 d 2 -1 d 1 -1 d 1 -1 d 2 -1 d 1 -1 d 2 -1
 d 1 -2 d 2 -1 d 1 -1 d 1 -1 d 2 -1 d 1 -1 d 2 -1 d 1 -1 d 1 -1 d 2 -1 d 1 -1 d
 2 -1 d 1 -2 d 1 -1 d 2 -1 d 1 -1 d 2 -1 d 1 -1 d 1 -1 d 2 -1 d 1 -1 d 1 -1 d 2
 -1 d 1 -1 d 2 -1 d 1 -1 d 1 -1 d 2 -1 d 1 -1 d 1 -1 d 2 -1 d 1 -1 d 1 -1 d 2 -1
 d 1 -1 d 1 -1 d 2 -1 d 1 -1 d 1 -1 d 2 -1 d 1 -1 d 1 -1 d 2 -1 d 1 -1 d 1 -1 d
 2 -1 d 1 -1 d 1 -1 d 1 -1 d 2 -1 d 1 -1 d 1 -1 d 2 -1 d 1 -1 d 1 -1 d 2 -1 d 1
 -1 d 1 -1 d 1 -1 d 2 X 1 -1 d 1 -1 d 1 -1 d 2 -1 d 1 -1 d 1 -1 d 2 -1 d 1 -1 d
 1 -1 d 1 -1 d 2 -1 d 1 -1 d 1 -1 d 1 -1 d 2 X 1 -1 d 1 -1 d 1 -1 d 2 -1 d 1 -1
 d 1 -1 d 1 -1 d 2 -1 d 1 -1 d 1 -1 d 1 X 1 -1 d 2 -1 d 1 -1 d 1 -1 d 1 -1 d 2
 -1 d 1 -1 d 1 -1 d 1 X 1 -1 d 2 -1 d 1 -1 d 1 -1 d 1 -1 d 1 -1 d 2 -1 d 1 -1 d
 1 X 1 -1 d 1 -1 d 1 -1 d 2 -1 d 1 -1 d 1 -1 d 1 -1 d 1 X 2 -1 d 1 -1 d 1 -1 d 1
 -1 d 1 -1 d 1 -1 d 2 X 1 -1 d 1 -1 d 1 -1 d 1 -1 d 1 -1 d 2 X 1 -1 d s 2503
 -276 m 1 -1 d 1 -1 d 1 -1 d 1 -1 d 1 X 2 -1 d 1 -1 d 1 -1 d 1 -1 d 1 -1 d 1 -1
 d 1 X 1 -1 d 2 -1 d 1 -1 d 1 -1 d 1 -1 d 1 X 1 -1 d 1 -1 d 1 -1 d 2 -1 d 1 X 1
 -1 d 1 -1 d 1 -1 d 1 -1 d 1 -1 d 1 X 1 -1 d 2 -1 d 1 -1 d 1 -1 d 1 X 1 -1 d 1
 -1 d 1 -1 d 1 -1 d 1 X 1 -1 d 1 -1 d 2 -1 d 1 -1 d 1 X 1 -1 d 1 -1 d 1 -1 d 1
 -1 d 1 X 1 -1 d 1 -1 d 1 -1 d 1 -1 d 1 X 1 -1 d 2 -1 d 1 -1 d 1 -1 d 1 X 1 -1 d
 1 -1 d 1 -1 d 1 X 1 -1 d 1 -1 d 1 -1 d 1 -1 d 1 X 1 -1 d 1 -1 d 1 -1 d 1 X 1 -1
 d 1 -1 d 1 -1 d 1 -1 d 1 X 2 -1 d 1 -1 d 1 -1 d 1 X 1 -1 d 1 -1 d 1 -1 d 1 -1 d
 1 X 1 -1 d 1 -1 d 1 -1 d 1 X 1 -1 d 1 -1 d 1 -1 d 1 X 1 -1 d 1 -1 d 1 -1 d 1 X
 1 -1 d 1 -1 d 1 -1 d 1 -1 d 1 X 1 -1 d 1 -1 d 1 -1 d 1 X 1 -1 d 1 -1 d 1 -1 d 1
 X 1 -1 d 1 -1 d 1 -1 d 1 X 1 -1 d 1 -1 d 1 -1 d 1 X 1 -1 d 1 -1 d -1 Y 1 X 1 -1
 d 1 -1 d 1 -1 d 1 X 1 -1 d 1 -1 d 1 -1 d 1 X 1 -1 d 1 -1 d 1 -1 d 1 X 1 -1 d 1
 -1 d 1 -1 d 1 X 1 -1 d 1 -1 d 1 X 1 -1 d 1 -1 d -1 Y 1 X 1 -1 d 1 -1 d 1 -1 d 1
 X 1 -1 d 1 -1 d 1 -1 d 1 X 1 -1 d 1 -1 d 1 X 1 -1 d 1 -1 d -1 Y 1 X 1 -1 d 1 -1
 d 1 -1 d 1 X 1 -1 d 1 -1 d 1 X 1 -1 d 1 -1 d 1 -1 d 1 X -1 Y 1 -1 d 1 -1 d 1 X
 1 -1 d 1 -1 d 1 X 1 -1 d 1 -1 d 1 -1 d 1 -1 d 1 -1 d 1 -1 d 1 X 1 -1 d 1 -1 d 1
 X 1 -1 d 1 -1 d -1 Y 1 X 1 -1 d 1 -1 d 1 X 1 -1 d 1 -1 d 1 -1 d 1 X -1 Y 1 -1 d
 s 2706 -432 m 1 X 1 -1 d 1 -1 d 1 -1 d 1 X 1 -1 d -1 Y 1 X 1 -1 d 1 -1 d 1 -1 d
 1 X 1 -1 d 1 -1 d 1 -1 d 1 -1 d 1 -1 d 1 X 1 -1 d 1 -1 d 1 -1 d 1 -1 d 1 -1 d 1
 X 1 -1 d 1 -1 d 1 -1 d 1 -1 d 1 -1 d 1 X 1 -1 d -1 Y 1 X 1 -1 d 1 -1 d 1 X 1 -1
 d 1 -1 d -1 Y 1 X 1 -1 d 1 -1 d 1 X 1 -1 d -1 Y 1 -1 d 1 X 1 -1 d 1 -1 d 1 X -1
 Y 1 -1 d 1 -1 d 1 X 1 -1 d -1 Y 1 X 1 -1 d 1 -1 d 1 X 1 -1 d -1 Y 1 -1 d 1 X 1
 -1 d 1 -1 d 1 -1 d 1 -1 d 1 -1 d 1 X 1 -1 d -1 Y 1 X 1 -1 d 1 -1 d 1 X -1 Y 1
 -1 d 1 -1 d 1 X 1 -1 d -1 Y 1 X 1 -1 d 1 -1 d 1 -1 d 1 -1 d 1 -1 d 1 X 1 -1 d
 -1 Y 1 X 1 -1 d 1 -1 d -1 Y 1 X 1 -1 d 1 -1 d 1 X -1 Y 1 -1 d 1 X 1 -1 d 1 -1 d
 -1 Y 1 X 1 -1 d 1 -1 d 1 -1 d 1 -1 d 1 -1 d 1 X -1 Y 1 -1 d 1 X 1 -1 d -1 Y 1 X
 1 -1 d 1 -1 d 1 -1 d 1 -1 d 1 -1 d 1 X -1 Y 1 -1 d 1 X 1 -1 d -1 Y 1 X 1 -1 d 1
 -1 d s 551 1428 m 15 1 d 15 X 14 1 d 15 1 d 13 1 d 14 X 13 1 d 14 1 d 13 X 12 1
 d 13 1 d 12 X 12 1 d 12 X 12 1 d 11 X 12 1 d 11 X 11 1 d 11 X 11 1 d 21 X 10 1
 d 10 X 10 1 d 20 X 10 1 d 19 X 9 1 d 27 X 9 1 d 43 X 8 1 d 40 X 8 -1 d 23 X 7
 -1 d 7 X 8 -1 d 7 -1 d 7 -1 d 7 -1 d 7 -1 d 7 -1 d 7 -1 d 7 -2 d 7 -2 d 7 -2 d
 6 -2 d 7 -3 d 6 -2 d 7 -3 d 6 -4 d 7 -3 d 6 -4 d 6 -4 d 7 -5 d 6 -5 d 6 -5 d 6
 -5 d 6 -6 d 6 -6 d 6 -7 d 6 -7 d 6 -8 d 6 -8 d 5 -8 d 6 -9 d 6 -9 d 5 -10 d 6
 -10 d 5 -11 d 6 -11 d 5 -12 d 6 -12 d 5 -13 d 6 -13 d 5 -14 d 5 -15 d 5 -15 d 6
 -16 d 5 -17 d 5 -18 d 5 -18 d 5 -21 d 5 -20 d 5 -23 d 5 -24 d 5 -28 d 5 -29 d 5
 -33 d 5 -38 d 4 -45 d 5 -54 d 5 -67 d 5 -70 d 4 -68 d 5 -58 d 5 -42 d 4 -31 d 5
 -24 d 4 -21 d 5 -18 d 4 -16 d 5 -14 d 4 -13 d 5 -12 d 4 -11 d 4 -10 d 5 -10 d 4
 -10 d 4 -10 d 5 -9 d 4 -9 d 4 -10 d 4 -10 d 5 -11 d 4 -12 d 4 -13 d 4 -13 d 4
 -12 d 4 -10 d 4 -9 d 4 -9 d 4 -8 d 4 -8 d 4 -7 d 4 -7 d 4 -7 d 4 -6 d 4 -6 d 3
 -6 d 4 -6 d 4 -5 d 4 -6 d 4 -5 d 3 -6 d 4 -5 d 4 -5 d 4 -5 d 3 -5 d 4 -4 d 4 -5
 d 3 -5 d 4 -4 d 3 -5 d 4 -4 d 4 -4 d 3 -5 d 4 -4 d 3 -4 d 4 -4 d 3 -4 d 4 -5 d
 3 -4 d 4 -3 d 3 -4 d 3 -4 d 4 -4 d 3 -4 d 3 -4 d 4 -3 d 3 -4 d 3 -4 d 4 -4 d 3
 -3 d 3 -4 d 4 -3 d 3 -4 d 3 -3 d 3 -4 d 3 -3 d 4 -4 d 3 -3 d 3 -4 d 3 -3 d 3 -3
 d 3 -3 d 4 -4 d 3 -3 d 3 -3 d 3 -3 d 3 -4 d 3 -3 d 3 -3 d 3 -3 d 3 -3 d s 1776
 -108 m 3 -3 d 3 -3 d 3 -3 d 3 -3 d 3 -3 d 3 -3 d 3 -3 d 3 -3 d 3 -3 d 2 -3 d 3
 -3 d 3 -3 d 3 -2 d 3 -3 d 3 -3 d 3 -3 d 2 -3 d 3 -2 d 3 -3 d 3 -3 d 3 -3 d 2 -2
 d 3 -3 d 3 -3 d 3 -2 d 2 -3 d 3 -2 d 3 -3 d 2 -3 d 3 -2 d 3 -3 d 2 -2 d 3 -3 d
 3 -2 d 2 -3 d 3 -2 d 3 -3 d 2 -2 d 3 -3 d 2 -2 d 3 -3 d 3 -2 d 2 -2 d 3 -3 d 2
 -2 d 3 -3 d 2 -2 d 3 -2 d 2 -3 d 3 -2 d 2 -2 d 3 -3 d 2 -2 d 3 -2 d 2 -2 d 3 -3
 d 2 -2 d 3 -2 d 2 -2 d 3 -2 d 2 -3 d 2 -2 d 3 -2 d 2 -2 d 3 -2 d 2 -2 d 2 -3 d
 3 -2 d 2 -2 d 3 -2 d 2 -2 d 2 -2 d 3 -2 d 2 -2 d 2 -2 d 3 -2 d 2 -2 d 2 -2 d 2
 -2 d 3 -2 d 2 -2 d 2 -2 d 3 -2 d 2 -2 d 2 -2 d 2 -2 d 3 -2 d 2 -2 d 2 -2 d 2 -2
 d 2 -2 d 3 -2 d 2 -2 d 2 -2 d 2 -2 d 2 -2 d 3 -2 d 2 -2 d 2 -2 d 2 -2 d 2 -3 d
 2 -2 d 2 -3 d 3 -2 d 2 -3 d 2 -3 d 2 -2 d 2 -3 d 2 -3 d 2 -2 d 2 -3 d 2 -3 d 2
 -2 d 3 -3 d 2 -2 d 2 -3 d 2 -3 d 2 -2 d 2 -3 d 2 -2 d 2 -3 d 2 -2 d 2 -2 d 2 -3
 d 2 -2 d 2 -3 d 2 -2 d 2 -2 d 2 -3 d 2 -2 d 2 -2 d 2 -3 d 2 -2 d 2 -2 d 2 -3 d
 2 -2 d 2 -2 d 2 -2 d 2 -2 d 1 -2 d 2 -3 d 2 -2 d 2 -2 d 2 -2 d 2 -2 d 2 -2 d 2
 -2 d 2 -2 d 2 -2 d 2 -2 d 1 -2 d 2 -2 d 2 -2 d 2 -2 d 2 -2 d 2 -2 d 2 -2 d 1 -2
 d 2 -1 d 2 -2 d 2 -2 d 2 -2 d 2 -2 d 1 -2 d 2 -1 d 2 -2 d 2 -2 d 2 -2 d 2 -1 d
 1 -2 d 2 -2 d 2 -2 d 2 -1 d 1 -2 d 2 -2 d 2 -1 d 2 -2 d 2 -2 d 1 -1 d 2 -2 d 2
 -1 d 2 -2 d 1 -2 d 2 -1 d 2 -2 d 2 -1 d 1 -2 d 2 -1 d 2 -2 d 1 -1 d 2 -2 d 2 -1
 d 2 -2 d 1 -1 d 2 -2 d 2 -1 d 1 -2 d 2 -1 d 2 -2 d 1 -1 d 2 -2 d 2 -1 d 1 -1 d
 s 2223 -552 m 2 -2 d 2 -1 d 1 -2 d 2 -1 d 2 -1 d 1 -2 d 2 -1 d 2 -1 d 1 -2 d 2
 -1 d 1 -1 d 2 -2 d 2 -1 d 1 -1 d 2 -2 d 2 -1 d 1 -1 d 2 -2 d 1 -1 d 2 -1 d 2 -2
 d 1 -1 d 2 -1 d 1 -1 d 2 -2 d 1 -1 d 2 -1 d 2 -1 d 1 -1 d 2 -2 d 1 -1 d 2 -1 d
 1 -1 d 2 -2 d 1 -1 d 2 -1 d 2 -1 d 1 -1 d 2 -2 d 1 -1 d 2 -1 d 1 -1 d 2 -1 d 1
 -1 d 2 -1 d 1 -2 d 2 -1 d 1 -1 d 2 -1 d 1 -1 d 2 -1 d 1 -1 d 2 -1 d 1 -2 d 2 -1
 d 1 -1 d 2 -1 d 1 -1 d 2 -1 d 1 -1 d 2 -1 d 1 -1 d 2 -1 d 1 -1 d 1 -2 d 2 -1 d
 1 -1 d 2 -1 d 1 -1 d 2 -1 d 1 -1 d 2 -1 d 1 -1 d 1 -1 d 2 -1 d 1 -1 d 2 -1 d 1
 -1 d 2 -1 d 1 -1 d 1 -1 d 2 -1 d 1 -1 d 2 -1 d 1 -1 d 1 -1 d 2 -1 d 1 -1 d 2 -1
 d 1 -1 d 1 -1 d 2 -1 d 1 -1 d 2 -1 d 1 -1 d 1 -1 d 2 -1 d 1 -1 d 1 -1 d 2 -1 d
 1 -1 d 2 -1 d 1 -1 d 1 -1 d 2 -1 d 1 -1 d 1 -1 d 2 -1 d 1 -1 d 1 X 2 -1 d 1 -1
 d 1 -1 d 2 -1 d 1 -1 d 1 -1 d 2 -1 d 1 -1 d 1 -1 d 2 -1 d 1 -1 d 1 -1 d 2 X 1
 -1 d 1 -1 d 1 -1 d 2 -1 d 1 -1 d 1 -1 d 2 -1 d 1 -1 d 1 -1 d 2 -1 d 1 X 1 -1 d
 1 -1 d 2 -1 d 1 -1 d 1 -1 d 1 -1 d 2 -1 d 1 -1 d 1 X 2 -1 d 1 -1 d 1 -1 d 1 -1
 d 2 -1 d 1 X 1 -1 d 1 -1 d 2 -1 d 1 -1 d 1 -1 d 1 -1 d 2 -1 d 1 X 1 -1 d 1 -1 d
 2 -1 d 1 -1 d 1 -1 d 1 X 1 -1 d 2 -1 d 1 -1 d 1 -1 d 1 -1 d 2 X 1 -1 d 1 -1 d 1
 -1 d 1 -1 d 2 -1 d 1 X 1 -1 d 1 -1 d 1 -1 d 2 -1 d 1 -1 d 1 X 1 -1 d 1 -1 d 1
 -1 d 2 -1 d 1 X 1 -1 d 1 -1 d 1 -1 d 2 -1 d 1 X 1 -1 d 1 -1 d 1 -1 d 1 -1 d 2 X
 1 -1 d 1 -1 d 1 -1 d 1 -1 d 1 X 2 -1 d 1 -1 d s 2503 -756 m 1 -1 d 1 X 1 -1 d 1
 -1 d 1 -1 d 2 -1 d 1 X 1 -1 d 1 -1 d 1 -1 d 1 -1 d 1 X 1 -1 d 2 -1 d 1 -1 d 1 X
 1 -1 d 1 -1 d 1 -1 d 1 X 1 -1 d 2 -1 d 1 -1 d 1 -1 d 1 X 1 -1 d 1 -1 d 1 -1 d 1
 X 1 -1 d 2 -1 d 1 -1 d 1 X 1 -1 d 1 -1 d 1 -1 d 1 X 1 -1 d 1 -1 d 1 -1 d 1 X 2
 -1 d 1 -1 d 1 -1 d 1 X 1 -1 d 1 -1 d 1 -1 d 1 X 1 -1 d 1 -1 d 1 -1 d 1 X 1 -1 d
 1 -1 d 2 -1 d 1 X 1 -1 d 1 -1 d 1 -1 d 1 X 1 -1 d 1 -1 d 1 X 1 -1 d 1 -1 d 1 -1
 d 1 X 1 -1 d 1 -1 d 1 -1 d 1 X 1 -1 d 1 -1 d 1 X 1 -1 d 1 -1 d 2 -1 d 1 X 1 -1
 d 1 -1 d 1 -1 d 1 X 1 -1 d 1 -1 d 1 X 1 -1 d 1 -1 d 1 -1 d 1 X 1 -1 d 1 -1 d 1
 X 1 -1 d 1 -1 d 1 -1 d 1 X 1 -1 d 1 -1 d 1 X 1 -1 d 1 -1 d 1 -1 d 1 X 1 -1 d 1
 -1 d 1 X 1 -1 d 1 -1 d 1 -1 d 1 X 1 -1 d 1 -1 d 1 X 1 -1 d 1 -1 d 1 X 1 -1 d 1
 -1 d 1 -1 d 1 X -1 Y 1 -1 d 1 X 1 -1 d 1 -1 d 1 X 1 -1 d 1 -1 d 1 -1 d 1 X 1 -1
 d 1 -1 d 1 X 1 -1 d 1 -1 d 1 X 1 -1 d 1 -1 d 1 X 1 -1 d 1 -1 d 1 -1 d 1 X -1 Y
 1 -1 d 1 X 1 -1 d 1 -1 d 1 X 1 -1 d 1 -1 d 1 X 1 -1 d 1 -1 d 1 -1 d 1 X 1 -1 d
 1 -1 d 1 -1 d 1 -1 d 1 X 1 -1 d 1 -1 d 1 X 1 -1 d 1 -1 d 1 X 1 -1 d 1 -1 d 1 -1
 d 1 -1 d 1 -1 d 1 X 1 -1 d 1 -1 d 1 X 1 -1 d 1 -1 d 1 X -1 Y 1 -1 d 1 X 1 -1 d
 1 -1 d 1 X 1 -1 d 1 -1 d 1 X 1 -1 d -1 Y 1 X 1 -1 d 1 -1 d 1 X 1 -1 d 1 -1 d 1
 X 1 -1 d -1 Y 1 -1 d s 2706 -902 m 1 X 1 -1 d 1 -1 d 1 X 1 -1 d 1 -1 d 1 -1 d 1
 -1 d 1 X 1 -1 d 1 -1 d 1 X 1 -1 d -1 Y 1 X 1 -1 d 1 -1 d 1 X 1 -1 d 1 -1 d 1 -1
 d 1 -1 d 1 X 1 -1 d 1 -1 d 1 X -1 Y 1 -1 d 1 X 1 -1 d 1 -1 d 1 X -1 Y 1 -1 d 1
 X 1 -1 d 1 -1 d 1 X 1 -1 d -1 Y 1 X 1 -1 d 1 -1 d 1 X 1 -1 d -1 Y 1 X 1 -1 d 1
 -1 d 1 X 1 -1 d -1 Y 1 X 1 -1 d 1 -1 d 1 X -1 Y 1 -1 d 1 X 1 -1 d 1 -1 d 1 X -1
 Y 1 -1 d 1 X 1 -1 d 1 -1 d 1 -1 d 1 -1 d 1 X 1 -1 d 1 -1 d 1 -1 d 1 -1 d 1 X 1
 -1 d -1 Y 1 X 1 -1 d 1 -1 d 1 X -1 Y 1 -1 d 1 X 1 -1 d 1 -1 d 1 -1 d 1 -1 d 1 X
 1 -1 d -1 Y 1 X 1 -1 d 1 -1 d 1 -1 d 1 -1 d 1 X 1 -1 d -1 Y 1 X 1 -1 d 1 -1 d 1
 X -1 Y 1 -1 d 1 X 1 -1 d -1 Y 1 X 1 -1 d 1 -1 d 1 X -1 Y 1 -1 d 1 X 1 -1 d -1 Y
 1 X 1 -1 d 1 -1 d 1 -1 d 1 -1 d 1 X 1 -1 d -1 Y 1 X 1 -1 d 1 -1 d 1 -1 d 1 -1 d
 1 X s 551 67 m 15 1 d 15 X 14 1 d 15 1 d 13 X 14 1 d 13 1 d 14 X 13 1 d 12 1 d
 13 X 12 1 d 12 X 12 1 d 12 X 11 1 d 12 X 11 1 d 22 X 11 1 d 10 X 11 1 d 20 X 10
 1 d 20 X 10 1 d 19 X 9 1 d 27 X 9 1 d 51 X 8 1 d 16 X 8 -1 d 31 X 8 -1 d 7 X 7
 -1 d 8 X 7 -1 d 7 -1 d 7 -1 d 7 -1 d 7 -1 d 7 -2 d 7 -1 d 7 -2 d 7 -2 d 6 -2 d
 7 -3 d 6 -3 d 7 -3 d 6 -3 d 7 -4 d 6 -3 d 6 -5 d 7 -4 d 6 -5 d 6 -5 d 6 -6 d 6
 -5 d 6 -7 d 6 -7 d 6 -7 d 6 -7 d 6 -8 d 5 -8 d 6 -9 d 6 -10 d 5 -9 d 6 -10 d 5
 -11 d 6 -11 d 5 -12 d 6 -12 d 5 -13 d 6 -14 d 5 -14 d 5 -14 d 5 -16 d 6 -16 d 5
 -16 d 5 -18 d 5 -19 d 5 -20 d 5 -21 d 5 -23 d 5 -24 d 5 -27 d 5 -29 d 5 -34 d 5
 -37 d 4 -45 d 5 -55 d 5 -66 d 5 -71 d 4 -68 d 5 -58 d 5 -41 d 4 -31 d 5 -25 d 4
 -21 d 5 -17 d 4 -16 d 5 -14 d 4 -13 d 5 -12 d 4 -11 d 4 -11 d 5 -10 d 4 -10 d 4
 -9 d 5 -9 d 4 -10 d 4 -9 d 4 -11 d 5 -11 d 4 -12 d 4 -13 d 4 -13 d 4 -12 d 4
 -10 d 4 -9 d 4 -9 d 4 -8 d 4 -7 d 4 -7 d 4 -7 d 4 -7 d 4 -6 d 4 -7 d 3 -6 d 4
 -5 d 4 -6 d 4 -6 d 4 -5 d 3 -5 d 4 -5 d 4 -5 d 4 -5 d 3 -5 d 4 -5 d 4 -5 d 3 -4
 d 4 -5 d 3 -4 d 4 -5 d 4 -4 d 3 -4 d 4 -5 d 3 -4 d 4 -4 d 3 -4 d 4 -4 d 3 -4 d
 4 -4 d 3 -4 d 3 -4 d 4 -4 d 3 -4 d 3 -3 d 4 -4 d 3 -4 d 3 -4 d 4 -3 d 3 -4 d 3
 -3 d 4 -4 d 3 -3 d 3 -4 d 3 -3 d 3 -4 d 4 -3 d 3 -4 d 3 -3 d 3 -3 d 3 -4 d 3 -3
 d 4 -3 d 3 -4 d 3 -3 d 3 -3 d 3 -3 d 3 -3 d 3 -3 d 3 -4 d 3 -3 d s 1776 -1471 m
 3 -3 d 3 -3 d 3 -3 d 3 -3 d 3 -3 d 3 -3 d 3 -3 d 3 -3 d 3 -3 d 2 -2 d 3 -3 d 3
 -3 d 3 -3 d 3 -3 d 3 -3 d 3 -2 d 2 -3 d 3 -3 d 3 -3 d 3 -3 d 3 -2 d 2 -3 d 3 -3
 d 3 -2 d 3 -3 d 2 -2 d 3 -3 d 3 -3 d 2 -2 d 3 -3 d 3 -2 d 2 -3 d 3 -3 d 3 -2 d
 2 -3 d 3 -2 d 3 -3 d 2 -2 d 3 -2 d 2 -3 d 3 -2 d 3 -3 d 2 -2 d 3 -3 d 2 -2 d 3
 -2 d 2 -3 d 3 -2 d 2 -2 d 3 -3 d 2 -2 d 3 -2 d 2 -2 d 3 -3 d 2 -2 d 3 -2 d 2 -3
 d 3 -2 d 2 -2 d 3 -2 d 2 -2 d 2 -2 d 3 -3 d 2 -2 d 3 -2 d 2 -2 d 2 -2 d 3 -2 d
 2 -3 d 3 -2 d 2 -2 d 2 -2 d 3 -2 d 2 -2 d 2 -2 d 3 -2 d 2 -2 d 2 -2 d 2 -2 d 3
 -2 d 2 -2 d 2 -2 d 3 -2 d 2 -2 d 2 -2 d 2 -2 d 3 -2 d 2 -2 d 2 -2 d 2 -2 d 2 -2
 d 3 -2 d 2 -2 d 2 -2 d 2 -2 d 2 -1 d 3 -2 d 2 -3 d 2 -2 d 2 -2 d 2 -2 d 2 -3 d
 2 -2 d 3 -3 d 2 -3 d 2 -2 d 2 -3 d 2 -3 d 2 -2 d 2 -3 d 2 -3 d 2 -2 d 2 -3 d 3
 -3 d 2 -2 d 2 -3 d 2 -2 d 2 -3 d 2 -2 d 2 -3 d 2 -2 d 2 -3 d 2 -2 d 2 -3 d 2 -2
 d 2 -2 d 2 -3 d 2 -2 d 2 -3 d 2 -2 d 2 -2 d 2 -2 d 2 -3 d 2 -2 d 2 -2 d 2 -2 d
 2 -3 d 2 -2 d 2 -2 d 1 -2 d 2 -2 d 2 -2 d 2 -3 d 2 -2 d 2 -2 d 2 -2 d 2 -2 d 2
 -2 d 2 -2 d 2 -2 d 1 -2 d 2 -2 d 2 -2 d 2 -2 d 2 -2 d 2 -1 d 2 -2 d 1 -2 d 2 -2
 d 2 -2 d 2 -2 d 2 -2 d 2 -1 d 1 -2 d 2 -2 d 2 -2 d 2 -2 d 2 -1 d 2 -2 d 1 -2 d
 2 -1 d 2 -2 d 2 -2 d 1 -2 d 2 -1 d 2 -2 d 2 -2 d 2 -1 d 1 -2 d 2 -1 d 2 -2 d 2
 -2 d 1 -1 d 2 -2 d 2 -1 d 2 -2 d 1 -1 d 2 -2 d 2 -2 d 1 -1 d 2 -2 d 2 -1 d 2 -2
 d 1 -1 d 2 -2 d 2 -1 d 1 -1 d 2 -2 d 2 -1 d 1 -2 d 2 -1 d 2 -2 d 1 -1 d s 2223
 -1915 m 2 -1 d 2 -2 d 1 -1 d 2 -2 d 2 -1 d 1 -1 d 2 -2 d 2 -1 d 1 -1 d 2 -2 d 1
 -1 d 2 -1 d 2 -2 d 1 -1 d 2 -1 d 2 -2 d 1 -1 d 2 -1 d 1 -2 d 2 -1 d 2 -1 d 1 -1
 d 2 -2 d 1 -1 d 2 -1 d 1 -1 d 2 -2 d 2 -1 d 1 -1 d 2 -1 d 1 -2 d 2 -1 d 1 -1 d
 2 -1 d 1 -1 d 2 -2 d 2 -1 d 1 -1 d 2 -1 d 1 -1 d 2 -2 d 1 -1 d 2 -1 d 1 -1 d 2
 -1 d 1 -1 d 2 -1 d 1 -2 d 2 -1 d 1 -1 d 2 -1 d 1 -1 d 2 -1 d 1 -1 d 2 -1 d 1 -2
 d 2 -1 d 1 -1 d 2 -1 d 1 -1 d 2 -1 d 1 -1 d 2 -1 d 1 -1 d 1 -1 d 2 -1 d 1 -1 d
 2 -1 d 1 -2 d 2 -1 d 1 -1 d 2 -1 d 1 -1 d 1 -1 d 2 -1 d 1 -1 d 2 -1 d 1 -1 d 2
 -1 d 1 -1 d 1 -1 d 2 -1 d 1 -1 d 2 -1 d 1 -1 d 1 -1 d 2 -1 d 1 -1 d 2 -1 d 1 -1
 d 1 -1 d 2 -1 d 1 -1 d 2 -1 d 1 -1 d 1 -1 d 2 -1 d 1 -1 d 1 -1 d 2 -1 d 1 -1 d
 2 -1 d 1 -1 d 1 -1 d 2 -1 d 1 X 1 -1 d 2 -1 d 1 -1 d 1 -1 d 2 -1 d 1 -1 d 1 -1
 d 2 -1 d 1 -1 d 1 -1 d 2 -1 d 1 -1 d 1 -1 d 2 -1 d 1 X 1 -1 d 2 -1 d 1 -1 d 1
 -1 d 1 -1 d 2 -1 d 1 -1 d 1 -1 d 2 -1 d 1 X 1 -1 d 2 -1 d 1 -1 d 1 -1 d 1 -1 d
 2 -1 d 1 -1 d 1 -1 d 1 X 2 -1 d 1 -1 d 1 -1 d 2 -1 d 1 -1 d 1 -1 d 1 -1 d 2 X 1
 -1 d 1 -1 d 1 -1 d 2 -1 d 1 -1 d 1 -1 d 1 X 2 -1 d 1 -1 d 1 -1 d 1 -1 d 2 -1 d
 1 X 1 -1 d 1 -1 d 1 -1 d 2 -1 d 1 -1 d 1 X 1 -1 d 2 -1 d 1 -1 d 1 -1 d 1 -1 d 1
 X 2 -1 d 1 -1 d 1 -1 d 1 -1 d 1 -1 d 2 X 1 -1 d 1 -1 d 1 -1 d 1 -1 d 1 X 2 -1 d
 1 -1 d 1 -1 d 1 -1 d 1 -1 d 2 X 1 -1 d 1 -1 d 1 -1 d 1 X 1 -1 d 2 -1 d 1 -1 d 1
 -1 d 1 X 1 -1 d 1 -1 d 2 -1 d 1 -1 d s 2503 -2119 m 1 X 1 -1 d 1 -1 d 1 -1 d 1
 -1 d 2 X 1 -1 d 1 -1 d 1 -1 d 1 X 1 -1 d 1 -1 d 1 -1 d 2 -1 d 1 X 1 -1 d 1 -1 d
 1 -1 d 1 X 1 -1 d 1 -1 d 2 -1 d 1 -1 d 1 X 1 -1 d 1 -1 d 1 -1 d 1 X 1 -1 d 1 -1
 d 2 -1 d 1 X 1 -1 d 1 -1 d 1 -1 d 1 X 1 -1 d 1 -1 d 1 -1 d 1 X 1 -1 d 2 -1 d 1
 -1 d 1 X 1 -1 d 1 -1 d 1 -1 d 1 X 1 -1 d 1 -1 d 1 -1 d 1 X 1 -1 d 1 -1 d 1 -1 d
 2 X 1 -1 d 1 -1 d 1 -1 d 1 X 1 -1 d 1 -1 d 1 X 1 -1 d 1 -1 d 1 -1 d 1 X 1 -1 d
 1 -1 d 1 -1 d 1 X 1 -1 d 1 -1 d 1 X 1 -1 d 1 -1 d 1 -1 d 2 X 1 -1 d 1 -1 d 1 -1
 d 1 X 1 -1 d 1 -1 d 1 X 1 -1 d 1 -1 d 1 -1 d 1 X 1 -1 d 1 -1 d 1 X 1 -1 d 1 -1
 d 1 -1 d 1 X 1 -1 d 1 -1 d 1 X 1 -1 d 1 -1 d 1 -1 d 1 X 1 -1 d 1 -1 d 1 X 1 -1
 d 1 -1 d 1 X 1 -1 d 1 -1 d 1 -1 d 1 X 1 -1 d 1 -1 d 1 -1 d 1 X 1 -1 d 1 -1 d 1
 X 1 -1 d -1 Y 1 X 1 -1 d 1 -1 d 1 X 1 -1 d 1 -1 d 1 -1 d 1 X 1 -1 d 1 -1 d 1 X
 1 -1 d 1 -1 d 1 X 1 -1 d 1 -1 d 1 -1 d 1 X 1 -1 d 1 -1 d 1 X 1 -1 d -1 Y 1 X 1
 -1 d 1 -1 d 1 X 1 -1 d 1 -1 d 1 -1 d 1 X 1 -1 d 1 -1 d 1 X 1 -1 d 1 -1 d 1 X -1
 Y 1 -1 d 1 X 1 -1 d 1 -1 d 1 X 1 -1 d 1 -1 d 1 X 1 -1 d 1 -1 d 1 -1 d 1 X -1 Y
 1 -1 d 1 X 1 -1 d 1 -1 d 1 X 1 -1 d 1 -1 d 1 X 1 -1 d -1 Y 1 X 1 -1 d 1 -1 d 1
 X 1 -1 d 1 -1 d 1 X 1 -1 d 1 -1 d -1 Y 1 X 1 -1 d 1 -1 d 1 X 1 -1 d 1 -1 d 1 X
 1 -1 d -1 Y 1 X s 2706 -2264 m 1 -1 d 1 -1 d 1 X 1 -1 d 1 -1 d 1 X -1 Y 1 -1 d
 1 X 1 -1 d 1 -1 d 1 X 1 -1 d 1 -1 d 1 -1 d 1 -1 d 1 X 1 -1 d 1 -1 d 1 X -1 Y 1
 -1 d 1 X 1 -1 d 1 -1 d 1 -1 d 1 X -1 Y 1 X 1 -1 d 1 -1 d 1 X 1 -1 d -1 Y 1 X 1
 -1 d 1 -1 d 1 -1 d 1 X 1 -1 d -1 Y 1 X 1 -1 d 1 X 1 -1 d 1 -1 d -1 Y 1 X 1 -1 d
 1 -1 d 1 X 1 -1 d -1 Y 1 X 1 -1 d 1 X 1 -1 d -1 Y 1 X 1 -1 d 1 -1 d 1 -1 d 1 X
 -1 Y 1 -1 d 1 X 1 -1 d 1 -1 d 1 -1 d 1 X 1 -1 d 1 -1 d 1 -1 d 1 -1 d 1 -1 d 1 X
 1 -1 d 1 -1 d 1 -1 d 1 -1 d 1 X -1 Y 1 X 1 -1 d 1 -1 d 1 X -1 Y 1 -1 d 1 -1 d 1
 X 1 -1 d -1 Y 1 X 1 -1 d 1 -1 d 1 -1 d 1 -1 d 1 X 1 -1 d -1 Y 1 X 1 -1 d 1 X 1
 -1 d -1 Y 1 X 1 -1 d 1 -1 d -1 Y 1 X 1 -1 d 1 X 1 -1 d -1 Y 1 -1 d 1 X 1 -1 d 1
 -1 d 1 -1 d 1 -1 d 1 -1 d 1 -1 d 1 X 1 -1 d 1 -1 d 1 -1 d 1 X -1 Y 1 -1 d 1 X 1
 -1 d s 551 292 m 15 X 15 -1 d 29 X 13 -1 d 27 X 14 -1 d 25 X 13 -1 d 24 X 12 -1
 d 35 X 11 -1 d 22 X 11 -1 d 21 X 10 -1 d 20 X 10 -1 d 20 X 9 -1 d 19 X 9 -1 d
 18 X 9 -1 d 17 X 9 -1 d 8 X 9 -1 d 8 X 8 -1 d 8 X 8 -1 d 8 X 8 -1 d 8 X 7 -1 d
 8 -1 d 8 -1 d 7 -1 d 7 -1 d 8 -1 d 7 -1 d 7 -1 d 7 -2 d 7 -1 d 7 -2 d 7 -2 d 7
 -2 d 7 -2 d 7 -3 d 6 -2 d 7 -3 d 6 -3 d 7 -4 d 6 -3 d 7 -4 d 6 -5 d 6 -4 d 7 -5
 d 6 -5 d 6 -6 d 6 -6 d 6 -6 d 6 -7 d 6 -7 d 6 -7 d 6 -8 d 6 -8 d 5 -9 d 6 -9 d
 6 -10 d 5 -10 d 6 -10 d 5 -11 d 6 -12 d 5 -12 d 6 -13 d 5 -13 d 6 -13 d 5 -15 d
 5 -15 d 5 -15 d 6 -17 d 5 -17 d 5 -18 d 5 -19 d 5 -20 d 5 -21 d 5 -24 d 5 -24 d
 5 -28 d 5 -29 d 5 -34 d 5 -38 d 4 -45 d 5 -54 d 5 -67 d 5 -71 d 4 -68 d 5 -59 d
 5 -41 d 4 -32 d 5 -24 d 4 -21 d 5 -19 d 4 -16 d 5 -14 d 4 -13 d 5 -12 d 4 -12 d
 4 -11 d 5 -10 d 4 -10 d 4 -9 d 5 -10 d 4 -10 d 4 -9 d 4 -11 d 5 -12 d 4 -12 d 4
 -13 d 4 -14 d 4 -11 d 4 -11 d 4 -9 d 4 -9 d 4 -8 d 4 -8 d 4 -8 d 4 -7 d 4 -7 d
 4 -6 d 4 -7 d 3 -6 d 4 -6 d 4 -6 d 4 -6 d 4 -5 d 3 -6 d 4 -5 d 4 -5 d 4 -5 d 3
 -6 d 4 -5 d 4 -4 d 3 -5 d 4 -5 d 3 -5 d 4 -4 d 4 -5 d 3 -4 d 4 -5 d 3 -4 d 4 -5
 d 3 -4 d 4 -4 d 3 -4 d 4 -5 d 3 -4 d 3 -4 d 4 -4 d 3 -4 d 3 -4 d 4 -4 d 3 -4 d
 3 -4 d 4 -4 d 3 -3 d 3 -4 d 4 -4 d 3 -4 d 3 -3 d 3 -4 d 3 -4 d 4 -3 d 3 -4 d 3
 -3 d 3 -4 d 3 -3 d 3 -4 d 4 -3 d 3 -4 d 3 -3 d 3 -3 d 3 -4 d 3 -3 d 3 -3 d 3 -4
 d 3 -3 d s 1776 -1323 m 3 -3 d 3 -3 d 3 -4 d 3 -3 d 3 -3 d 3 -3 d 3 -3 d 3 -3 d
 3 -3 d 2 -4 d 3 -3 d 3 -3 d 3 -3 d 3 -3 d 3 -3 d 3 -3 d 2 -2 d 3 -3 d 3 -3 d 3
 -3 d 3 -3 d 2 -3 d 3 -3 d 3 -3 d 3 -2 d 2 -3 d 3 -3 d 3 -3 d 2 -2 d 3 -3 d 3 -3
 d 2 -3 d 3 -2 d 3 -3 d 2 -3 d 3 -2 d 3 -3 d 2 -2 d 3 -3 d 2 -3 d 3 -2 d 3 -3 d
 2 -2 d 3 -3 d 2 -2 d 3 -3 d 2 -2 d 3 -3 d 2 -2 d 3 -3 d 2 -2 d 3 -3 d 2 -2 d 3
 -2 d 2 -3 d 3 -2 d 2 -3 d 3 -2 d 2 -2 d 3 -3 d 2 -2 d 2 -2 d 3 -3 d 2 -2 d 3 -2
 d 2 -2 d 2 -3 d 3 -2 d 2 -2 d 3 -2 d 2 -3 d 2 -2 d 3 -2 d 2 -2 d 2 -3 d 3 -2 d
 2 -2 d 2 -2 d 2 -2 d 3 -2 d 2 -2 d 2 -3 d 3 -2 d 2 -2 d 2 -2 d 2 -2 d 3 -2 d 2
 -2 d 2 -2 d 2 -2 d 2 -2 d 3 -2 d 2 -2 d 2 -2 d 2 -2 d 2 -3 d 3 -2 d 2 -2 d 2 -2
 d 2 -3 d 2 -2 d 2 -3 d 2 -2 d 3 -3 d 2 -3 d 2 -3 d 2 -3 d 2 -2 d 2 -3 d 2 -3 d
 2 -3 d 2 -2 d 2 -3 d 3 -3 d 2 -2 d 2 -3 d 2 -3 d 2 -2 d 2 -3 d 2 -3 d 2 -2 d 2
 -3 d 2 -2 d 2 -3 d 2 -2 d 2 -3 d 2 -2 d 2 -3 d 2 -2 d 2 -3 d 2 -2 d 2 -3 d 2 -2
 d 2 -2 d 2 -3 d 2 -2 d 2 -2 d 2 -3 d 2 -2 d 1 -2 d 2 -2 d 2 -3 d 2 -2 d 2 -2 d
 2 -2 d 2 -2 d 2 -2 d 2 -3 d 2 -2 d 2 -2 d 1 -2 d 2 -2 d 2 -2 d 2 -2 d 2 -2 d 2
 -2 d 2 -2 d 1 -2 d 2 -2 d 2 -2 d 2 -2 d 2 -2 d 2 -2 d 1 -2 d 2 -1 d 2 -2 d 2 -2
 d 2 -2 d 2 -2 d 1 -2 d 2 -2 d 2 -1 d 2 -2 d 1 -2 d 2 -2 d 2 -1 d 2 -2 d 2 -2 d
 1 -2 d 2 -1 d 2 -2 d 2 -2 d 1 -1 d 2 -2 d 2 -2 d 2 -1 d 1 -2 d 2 -2 d 2 -1 d 1
 -2 d 2 -1 d 2 -2 d 2 -2 d 1 -1 d 2 -2 d 2 -1 d 1 -2 d 2 -1 d 2 -2 d 1 -2 d 2 -1
 d 2 -2 d 1 -1 d s 2223 -1792 m 2 -2 d 2 -1 d 1 -1 d 2 -2 d 2 -1 d 1 -2 d 2 -1 d
 2 -2 d 1 -1 d 2 -2 d 1 -1 d 2 -2 d 2 -1 d 1 -1 d 2 -2 d 2 -1 d 1 -2 d 2 -1 d 1
 -1 d 2 -2 d 2 -1 d 1 -1 d 2 -2 d 1 -1 d 2 -1 d 1 -2 d 2 -1 d 2 -1 d 1 -2 d 2 -1
 d 1 -1 d 2 -1 d 1 -2 d 2 -1 d 1 -1 d 2 -2 d 2 -1 d 1 -1 d 2 -1 d 1 -2 d 2 -1 d
 1 -1 d 2 -1 d 1 -2 d 2 -1 d 1 -1 d 2 -1 d 1 -1 d 2 -2 d 1 -1 d 2 -1 d 1 -1 d 2
 -2 d 1 -1 d 2 -1 d 1 -1 d 2 -1 d 1 -1 d 2 -2 d 1 -1 d 2 -1 d 1 -1 d 2 -1 d 1 -1
 d 1 -2 d 2 -1 d 1 -1 d 2 -1 d 1 -1 d 2 -1 d 1 -1 d 2 -1 d 1 -2 d 1 -1 d 2 -1 d
 1 -1 d 2 -1 d 1 -1 d 2 -1 d 1 -1 d 1 -1 d 2 -1 d 1 -2 d 2 -1 d 1 -1 d 1 -1 d 2
 -1 d 1 -1 d 2 -1 d 1 -1 d 1 -1 d 2 -1 d 1 -1 d 2 -1 d 1 -1 d 1 -1 d 2 -1 d 1 -1
 d 1 -1 d 2 -1 d 1 -2 d 2 -1 d 1 -1 d 1 -1 d 2 -1 d 1 -1 d 1 -1 d 2 -1 d 1 -1 d
 1 -1 d 2 -1 d 1 -1 d 1 -1 d 2 -1 d 1 -1 d 1 -1 d 2 -1 d 1 -1 d 1 -1 d 2 -1 d 1
 -1 d 1 -1 d 2 -1 d 1 -1 d 1 X 1 -1 d 2 -1 d 1 -1 d 1 -1 d 2 -1 d 1 -1 d 1 -1 d
 2 -1 d 1 -1 d 1 -1 d 1 -1 d 2 -1 d 1 -1 d 1 -1 d 1 -1 d 2 -1 d 1 -1 d 1 -1 d 2
 -1 d 1 -1 d 1 X 1 -1 d 2 -1 d 1 -1 d 1 -1 d 1 -1 d 2 -1 d 1 -1 d 1 -1 d 1 -1 d
 2 -1 d 1 -1 d 1 X 1 -1 d 2 -1 d 1 -1 d 1 -1 d 1 -1 d 1 -1 d 2 -1 d 1 -1 d 1 -1
 d 1 X 2 -1 d 1 -1 d 1 -1 d 1 -1 d 1 -1 d 2 -1 d 1 -1 d 1 -1 d 1 X 1 -1 d 2 -1 d
 1 -1 d 1 -1 d 1 -1 d 1 -1 d 1 -1 d 2 X 1 -1 d 1 -1 d 1 -1 d 1 -1 d 2 -1 d 1 -1
 d 1 X 1 -1 d 1 -1 d 1 -1 d 2 -1 d 1 -1 d 1 -1 d 1 X 1 -1 d 1 -1 d 2 -1 d 1 -1 d
 s 2503 -2010 m 1 -1 d 1 -1 d 1 X 1 -1 d 1 -1 d 2 -1 d 1 -1 d 1 -1 d 1 X 1 -1 d
 1 -1 d 1 -1 d 1 -1 d 2 -1 d 1 X 1 -1 d 1 -1 d 1 -1 d 1 -1 d 1 -1 d 1 X 2 -1 d 1
 -1 d 1 -1 d 1 -1 d 1 X 1 -1 d 1 -1 d 1 -1 d 1 -1 d 2 -1 d 1 X 1 -1 d 1 -1 d 1
 -1 d 1 -1 d 1 X 1 -1 d 1 -1 d 1 -1 d 1 -1 d 2 X 1 -1 d 1 -1 d 1 -1 d 1 -1 d 1 X
 1 -1 d 1 -1 d 1 -1 d 1 -1 d 1 X 1 -1 d 1 -1 d 1 -1 d 2 -1 d 1 X 1 -1 d 1 -1 d 1
 -1 d 1 -1 d 1 X 1 -1 d 1 -1 d 1 -1 d 1 X 1 -1 d 1 -1 d 1 -1 d 1 -1 d 1 X 1 -1 d
 1 -1 d 1 -1 d 1 X 1 -1 d 1 -1 d 2 -1 d 1 -1 d 1 X 1 -1 d 1 -1 d 1 -1 d 1 X 1 -1
 d 1 -1 d 1 -1 d 1 X 1 -1 d 1 -1 d 1 -1 d 1 -1 d 1 X 1 -1 d 1 -1 d 1 -1 d 1 X 1
 -1 d 1 -1 d 1 -1 d 1 X 1 -1 d 1 -1 d 1 -1 d 1 X 1 -1 d 1 -1 d 1 -1 d 1 X 1 -1 d
 1 -1 d 1 -1 d 1 X 1 -1 d 1 -1 d 1 -1 d 1 X 1 -1 d 1 -1 d 1 -1 d 1 X -1 Y 1 -1 d
 1 -1 d 1 X 1 -1 d 1 -1 d 1 -1 d 1 X 1 -1 d 1 -1 d 1 -1 d 1 X 1 -1 d 1 -1 d 1 -1
 d 1 X 1 -1 d 1 -1 d 1 -1 d 1 X 1 -1 d 1 -1 d 1 -1 d 1 -1 d 1 -1 d 1 X 1 -1 d 1
 -1 d 1 -1 d 1 X 1 -1 d 1 -1 d 1 -1 d 1 X 1 -1 d 1 -1 d 1 -1 d 1 -1 d 1 -1 d 1 X
 1 -1 d 1 -1 d 1 -1 d 1 X 1 -1 d 1 -1 d 1 -1 d 1 X 1 -1 d -1 Y 1 X 1 -1 d 1 -1 d
 1 -1 d 1 X 1 -1 d 1 -1 d 1 -1 d 1 X -1 Y 1 -1 d 1 X 1 -1 d 1 -1 d 1 -1 d 1 X 1
 -1 d 1 -1 d 1 X -1 Y 1 -1 d 1 -1 d 1 X 1 -1 d 1 -1 d 1 -1 d 1 X 1 -1 d -1 Y 1 X
 s 2706 -2165 m 1 -1 d 1 -1 d 1 -1 d 1 X 1 -1 d 1 -1 d 1 -1 d 1 -1 d 1 -1 d 1 X
 1 -1 d 1 -1 d 1 X -1 Y 1 -1 d 1 -1 d 1 X 1 -1 d 1 -1 d 1 X -1 Y 1 -1 d 1 X 1 -1
 d 1 -1 d 1 -1 d 1 X -1 Y 1 -1 d 1 -1 d 1 X 1 -1 d 1 -1 d 1 -1 d 1 -1 d 1 X 1 -1
 d 1 -1 d 1 -1 d 1 -1 d 1 -1 d 1 X 1 -1 d 1 -1 d 1 -1 d 1 -1 d 1 -1 d 1 X 1 -1 d
 -1 Y 1 -1 d 1 X 1 -1 d 1 -1 d 1 -1 d 1 -1 d 1 X 1 -1 d 1 -1 d -1 Y 1 X 1 -1 d 1
 -1 d 1 X -1 Y 1 -1 d 1 -1 d 1 X 1 -1 d 1 -1 d 1 -1 d 1 -1 d 1 X 1 -1 d -1 Y 1 X
 1 -1 d 1 -1 d 1 -1 d 1 -1 d 1 -1 d 1 -1 d 1 X -1 Y 1 -1 d 1 X 1 -1 d 1 -1 d 1
 -1 d 1 -1 d 1 -1 d 1 -1 d 1 -1 d 1 X 1 -1 d -1 Y 1 X 1 -1 d 1 -1 d 1 -1 d 1 -1
 d 1 -1 d 1 X -1 Y 1 -1 d 1 X 1 -1 d 1 -1 d -1 Y 1 X 1 -1 d 1 -1 d 1 -1 d 1 -1 d
 1 X -1 Y 1 -1 d 1 X 1 -1 d 1 -1 d -1 Y 1 X 1 -1 d 1 -1 d 1 -1 d 1 -1 d 1 X s
 551 1282 m 15 X 15 -1 d 29 X 13 -1 d 27 X 14 -1 d 25 X 13 -1 d 24 X 12 -1 d 23
 X 12 -1 d 22 X 11 -1 d 21 X 11 -1 d 20 X 10 -1 d 20 X 10 -1 d 19 X 9 -1 d 18 X
 9 -1 d 9 X 9 -1 d 17 X 8 -1 d 9 X 8 -1 d 8 X 8 -1 d 8 X 8 -1 d 8 X 8 -1 d 7 -1
 d 8 X 8 -1 d 7 -1 d 7 -1 d 8 -1 d 7 -1 d 7 -2 d 7 -1 d 7 -2 d 7 -2 d 7 -1 d 7
 -3 d 7 -2 d 7 -2 d 6 -3 d 7 -3 d 6 -3 d 7 -3 d 6 -4 d 7 -4 d 6 -4 d 6 -5 d 7 -5
 d 6 -5 d 6 -5 d 6 -6 d 6 -7 d 6 -6 d 6 -7 d 6 -8 d 6 -8 d 6 -8 d 5 -9 d 6 -9 d
 6 -9 d 5 -11 d 6 -10 d 5 -11 d 6 -12 d 5 -12 d 6 -12 d 5 -13 d 6 -14 d 5 -14 d
 5 -15 d 5 -16 d 6 -16 d 5 -18 d 5 -18 d 5 -19 d 5 -20 d 5 -21 d 5 -24 d 5 -24 d
 5 -27 d 5 -30 d 5 -33 d 5 -38 d 4 -45 d 5 -55 d 5 -67 d 5 -71 d 4 -68 d 5 -58 d
 5 -42 d 4 -31 d 5 -25 d 4 -21 d 5 -18 d 4 -16 d 5 -15 d 4 -13 d 5 -12 d 4 -12 d
 4 -11 d 5 -10 d 4 -10 d 4 -9 d 5 -10 d 4 -9 d 4 -10 d 4 -11 d 5 -11 d 4 -13 d 4
 -13 d 4 -13 d 4 -12 d 4 -11 d 4 -9 d 4 -9 d 4 -8 d 4 -8 d 4 -8 d 4 -7 d 4 -7 d
 4 -6 d 4 -7 d 3 -6 d 4 -6 d 4 -6 d 4 -6 d 4 -5 d 3 -6 d 4 -5 d 4 -5 d 4 -5 d 3
 -5 d 4 -6 d 4 -4 d 3 -5 d 4 -5 d 3 -5 d 4 -4 d 4 -5 d 3 -4 d 4 -5 d 3 -4 d 4 -5
 d 3 -4 d 4 -4 d 3 -4 d 4 -5 d 3 -4 d 3 -4 d 4 -4 d 3 -4 d 3 -4 d 4 -4 d 3 -4 d
 3 -4 d 4 -4 d 3 -3 d 3 -4 d 4 -4 d 3 -4 d 3 -3 d 3 -4 d 3 -4 d 4 -3 d 3 -4 d 3
 -3 d 3 -4 d 3 -3 d 3 -4 d 4 -3 d 3 -4 d 3 -3 d 3 -4 d 3 -3 d 3 -3 d 3 -4 d 3 -3
 d 3 -3 d s 1776 -334 m 3 -3 d 3 -4 d 3 -3 d 3 -3 d 3 -3 d 3 -3 d 3 -3 d 3 -3 d
 3 -4 d 2 -3 d 3 -3 d 3 -3 d 3 -3 d 3 -3 d 3 -3 d 3 -3 d 2 -3 d 3 -2 d 3 -3 d 3
 -3 d 3 -3 d 2 -3 d 3 -3 d 3 -3 d 3 -2 d 2 -3 d 3 -3 d 3 -3 d 2 -3 d 3 -2 d 3 -3
 d 2 -3 d 3 -2 d 3 -3 d 2 -3 d 3 -2 d 3 -3 d 2 -3 d 3 -2 d 2 -3 d 3 -2 d 3 -3 d
 2 -2 d 3 -3 d 2 -2 d 3 -3 d 2 -2 d 3 -3 d 2 -2 d 3 -3 d 2 -2 d 3 -3 d 2 -2 d 3
 -3 d 2 -2 d 3 -2 d 2 -3 d 3 -2 d 2 -2 d 3 -3 d 2 -2 d 2 -2 d 3 -3 d 2 -2 d 3 -2
 d 2 -3 d 2 -2 d 3 -2 d 2 -2 d 3 -3 d 2 -2 d 2 -2 d 3 -2 d 2 -2 d 2 -3 d 3 -2 d
 2 -2 d 2 -2 d 2 -2 d 3 -3 d 2 -2 d 2 -2 d 3 -2 d 2 -2 d 2 -2 d 2 -2 d 3 -2 d 2
 -2 d 2 -2 d 2 -2 d 2 -3 d 3 -1 d 2 -3 d 2 -2 d 2 -2 d 2 -2 d 3 -2 d 2 -2 d 2 -2
 d 2 -3 d 2 -2 d 2 -3 d 2 -3 d 3 -2 d 2 -3 d 2 -3 d 2 -3 d 2 -3 d 2 -2 d 2 -3 d
 2 -3 d 2 -2 d 2 -3 d 3 -3 d 2 -3 d 2 -2 d 2 -3 d 2 -3 d 2 -2 d 2 -3 d 2 -2 d 2
 -3 d 2 -3 d 2 -2 d 2 -3 d 2 -2 d 2 -3 d 2 -2 d 2 -3 d 2 -2 d 2 -2 d 2 -3 d 2 -2
 d 2 -3 d 2 -2 d 2 -2 d 2 -2 d 2 -3 d 2 -2 d 1 -2 d 2 -3 d 2 -2 d 2 -2 d 2 -2 d
 2 -2 d 2 -3 d 2 -2 d 2 -2 d 2 -2 d 2 -2 d 1 -2 d 2 -2 d 2 -2 d 2 -2 d 2 -2 d 2
 -2 d 2 -2 d 1 -2 d 2 -2 d 2 -2 d 2 -2 d 2 -2 d 2 -2 d 1 -2 d 2 -2 d 2 -2 d 2 -2
 d 2 -1 d 2 -2 d 1 -2 d 2 -2 d 2 -2 d 2 -1 d 1 -2 d 2 -2 d 2 -2 d 2 -1 d 2 -2 d
 1 -2 d 2 -2 d 2 -1 d 2 -2 d 1 -2 d 2 -1 d 2 -2 d 2 -2 d 1 -1 d 2 -2 d 2 -2 d 1
 -1 d 2 -2 d 2 -1 d 2 -2 d 1 -2 d 2 -1 d 2 -2 d 1 -1 d 2 -2 d 2 -1 d 1 -2 d 2 -1
 d 2 -2 d 1 -1 d s 2223 -803 m 2 -2 d 2 -1 d 1 -2 d 2 -1 d 2 -2 d 1 -1 d 2 -2 d
 2 -1 d 1 -2 d 2 -1 d 1 -1 d 2 -2 d 2 -1 d 1 -2 d 2 -1 d 2 -1 d 1 -2 d 2 -1 d 1
 -2 d 2 -1 d 2 -1 d 1 -2 d 2 -1 d 1 -1 d 2 -2 d 1 -1 d 2 -1 d 2 -2 d 1 -1 d 2 -1
 d 1 -1 d 2 -2 d 1 -1 d 2 -1 d 1 -2 d 2 -1 d 2 -1 d 1 -1 d 2 -2 d 1 -1 d 2 -1 d
 1 -1 d 2 -2 d 1 -1 d 2 -1 d 1 -1 d 2 -2 d 1 -1 d 2 -1 d 1 -1 d 2 -1 d 1 -2 d 2
 -1 d 1 -1 d 2 -1 d 1 -1 d 2 -2 d 1 -1 d 2 -1 d 1 -1 d 2 -1 d 1 -1 d 2 -2 d 1 -1
 d 1 -1 d 2 -1 d 1 -1 d 2 -1 d 1 -1 d 2 -2 d 1 -1 d 2 -1 d 1 -1 d 1 -1 d 2 -1 d
 1 -1 d 2 -1 d 1 -1 d 2 -2 d 1 -1 d 1 -1 d 2 -1 d 1 -1 d 2 -1 d 1 -1 d 1 -1 d 2
 -1 d 1 -1 d 2 -1 d 1 -1 d 1 -1 d 2 -2 d 1 -1 d 2 -1 d 1 -1 d 1 -1 d 2 -1 d 1 -1
 d 1 -1 d 2 -1 d 1 -1 d 2 -1 d 1 -1 d 1 -1 d 2 -1 d 1 -1 d 1 -1 d 2 -1 d 1 -1 d
 1 -1 d 2 -1 d 1 -1 d 1 -1 d 2 -1 d 1 -1 d 1 -1 d 2 -1 d 1 -1 d 1 -1 d 2 -1 d 1
 -1 d 1 -1 d 2 -1 d 1 -1 d 1 -1 d 1 -1 d 2 -1 d 1 -1 d 1 -1 d 2 -1 d 1 -1 d 1 -1
 d 2 -1 d 1 -1 d 1 X 1 -1 d 2 -1 d 1 -1 d 1 -1 d 1 -1 d 2 -1 d 1 -1 d 1 -1 d 2
 -1 d 1 -1 d 1 -1 d 1 -1 d 2 -1 d 1 -1 d 1 -1 d 1 -1 d 2 X 1 -1 d 1 -1 d 1 -1 d
 2 -1 d 1 -1 d 1 -1 d 1 -1 d 2 -1 d 1 -1 d 1 -1 d 1 X 1 -1 d 2 -1 d 1 -1 d 1 -1
 d 1 -1 d 2 -1 d 1 -1 d 1 -1 d 1 X 1 -1 d 2 -1 d 1 -1 d 1 -1 d 1 -1 d 1 -1 d 2
 -1 d 1 -1 d 1 X 1 -1 d 1 -1 d 1 -1 d 2 -1 d 1 -1 d 1 -1 d 1 X 1 -1 d 2 -1 d 1
 -1 d 1 -1 d 1 -1 d 1 -1 d 1 -1 d 2 X 1 -1 d 1 -1 d 1 -1 d 1 -1 d 1 -1 d 2 X 1
 -1 d s 2503 -1021 m 1 -1 d 1 -1 d 1 -1 d 1 -1 d 1 -1 d 2 X 1 -1 d 1 -1 d 1 -1 d
 1 -1 d 1 -1 d 1 X 1 -1 d 2 -1 d 1 -1 d 1 -1 d 1 -1 d 1 X 1 -1 d 1 -1 d 1 -1 d 2
 -1 d 1 -1 d 1 X 1 -1 d 1 -1 d 1 -1 d 1 -1 d 1 X 1 -1 d 2 -1 d 1 -1 d 1 -1 d 1 X
 1 -1 d 1 -1 d 1 -1 d 1 -1 d 1 X 1 -1 d 1 -1 d 2 -1 d 1 -1 d 1 X 1 -1 d 1 -1 d 1
 -1 d 1 -1 d 1 -1 d 1 X 1 -1 d 1 -1 d 1 -1 d 1 X 1 -1 d 2 -1 d 1 -1 d 1 -1 d 1 X
 1 -1 d 1 -1 d 1 -1 d 1 -1 d 1 X 1 -1 d 1 -1 d 1 -1 d 1 X 1 -1 d 1 -1 d 1 -1 d 1
 -1 d 1 X 1 -1 d 1 -1 d 1 -1 d 1 X 2 -1 d 1 -1 d 1 -1 d 1 -1 d 1 X 1 -1 d 1 -1 d
 1 -1 d 1 X 1 -1 d 1 -1 d 1 -1 d 1 -1 d 1 X 1 -1 d 1 -1 d 1 -1 d 1 X 1 -1 d 1 -1
 d 1 -1 d 1 X 1 -1 d 1 -1 d 1 -1 d 1 X 1 -1 d 1 -1 d 1 -1 d 1 X 1 -1 d 1 -1 d 1
 -1 d 1 X 1 -1 d 1 -1 d 1 -1 d 1 X 1 -1 d 1 -1 d 1 -1 d 1 X 1 -1 d 1 -1 d -1 Y 1
 X 1 -1 d 1 -1 d 1 -1 d 1 X 1 -1 d 1 -1 d 1 -1 d 1 X 1 -1 d 1 -1 d 1 -1 d 1 X 1
 -1 d 1 -1 d 1 -1 d 1 X 1 -1 d 1 -1 d 1 -1 d 1 X 1 -1 d -1 Y 1 X 1 -1 d 1 -1 d 1
 -1 d 1 X 1 -1 d 1 -1 d 1 -1 d 1 X 1 -1 d 1 -1 d 1 -1 d 1 X 1 -1 d -1 Y 1 -1 d 1
 X 1 -1 d 1 -1 d 1 X 1 -1 d 1 -1 d 1 -1 d 1 X 1 -1 d 1 -1 d 1 -1 d 1 -1 d 1 -1 d
 1 X 1 -1 d 1 -1 d 1 -1 d 1 X 1 -1 d 1 -1 d -1 Y 1 X 1 -1 d 1 -1 d 1 X 1 -1 d 1
 -1 d 1 -1 d 1 X 1 -1 d -1 Y 1 X 1 -1 d 1 -1 d 1 -1 d 1 X 1 -1 d 1 -1 d 1 X -1 Y
 1 -1 d s 2706 -1177 m 1 -1 d 1 X 1 -1 d 1 -1 d 1 -1 d 1 X -1 Y 1 -1 d 1 X 1 -1
 d 1 -1 d 1 X 1 -1 d 1 -1 d -1 Y 1 X 1 -1 d 1 -1 d 1 -1 d 1 X 1 -1 d -1 Y 1 X 1
 -1 d 1 -1 d 1 X 1 -1 d 1 -1 d -1 Y 1 X 1 -1 d 1 -1 d 1 X 1 -1 d -1 Y 1 -1 d 1 X
 1 -1 d 1 -1 d 1 X 1 -1 d -1 Y 1 -1 d 1 X 1 -1 d 1 -1 d 1 X -1 Y 1 -1 d 1 -1 d 1
 X 1 -1 d 1 -1 d 1 -1 d 1 -1 d 1 X 1 -1 d -1 Y 1 -1 d 1 X 1 -1 d 1 -1 d 1 X -1 Y
 1 -1 d 1 -1 d 1 X 1 -1 d -1 Y 1 X 1 -1 d 1 -1 d 1 X 1 -1 d -1 Y 1 -1 d 1 X 1 -1
 d 1 -1 d 1 -1 d 1 -1 d 1 -1 d 1 X -1 Y 1 -1 d 1 X 1 -1 d 1 -1 d 1 -1 d 1 -1 d 1
 -1 d 1 X -1 Y 1 -1 d 1 X 1 -1 d -1 Y 1 -1 d 1 X 1 -1 d 1 -1 d 1 -1 d 1 -1 d 1 X
 1 -1 d -1 Y 1 X 1 -1 d 1 -1 d -1 Y 1 X 1 -1 d 1 -1 d 1 X -1 Y 1 -1 d 1 X 1 -1 d
 -1 Y 1 -1 d 1 X 1 -1 d -1 Y 1 X 1 -1 d 1 -1 d 1 -1 d 1 -1 d 1 -1 d 1 X -1 Y 1
 -1 d 1 X 1 -1 d s 551 394 m 1225 X s 1776 394 m 21 X 3 -4359 d 3 1492 d 2 346 d
 3 214 d 3 157 d 3 125 d 3 105 d 3 89 d 3 80 d 2 70 d 3 64 d 3 58 d 3 54 d 3 50
 d 2 46 d 3 44 d 3 41 d 3 39 d 2 36 d 3 35 d 3 33 d 2 32 d 3 31 d 3 29 d 2 28 d
 3 27 d 3 27 d 2 25 d 3 25 d 3 23 d 2 24 d 3 22 d 2 22 d 3 22 d 3 21 d 2 20 d 3
 20 d 2 20 d 3 19 d 2 19 d 3 18 d 2 18 d 3 18 d 2 18 d 3 17 d 2 18 d 3 16 d 2 17
 d 3 17 d 2 16 d 3 16 d 2 16 d 3 16 d 2 16 d 2 16 d 3 15 d 2 16 d 3 15 d 2 15 d
 2 16 d 3 15 d 2 15 d 3 15 d 2 16 d 2 15 d 3 15 d 2 15 d 2 16 d 3 15 d 2 16 d 2
 15 d 2 16 d 3 16 d 2 16 d 2 17 d 3 16 d 2 17 d 2 17 d 2 18 d 3 18 d 2 19 d 2 19
 d 2 20 d 2 21 d 3 23 d 2 24 d 2 26 d 2 29 d 2 47 d 3 61 d 2 70 d 2 77 d 2 78 d
 2 77 d 2 71 d 2 62 d 3 50 d 2 41 d 2 36 d 2 31 d 2 28 d 2 25 d 2 22 d 2 21 d 2
 18 d 2 17 d 3 16 d 2 15 d 2 14 d 2 12 d 2 12 d 2 12 d 2 10 d 2 10 d 2 9 d 2 9 d
 2 9 d 2 8 d 2 7 d 2 8 d 2 6 d 2 7 d 2 6 d 2 6 d 2 6 d 2 5 d 2 6 d 2 5 d 2 4 d 2
 5 d 2 4 d 2 5 d 1 4 d 2 4 d 2 4 d 2 3 d 2 4 d 2 3 d 2 3 d 2 4 d 2 3 d 2 3 d 2 2
 d 1 3 d 2 3 d 2 2 d 2 3 d 2 2 d 2 3 d 2 2 d 1 2 d 2 2 d 2 2 d 2 2 d 2 2 d 2 2 d
 1 1 d 2 2 d 2 2 d 2 1 d 2 2 d 2 1 d 1 2 d 2 1 d 2 2 d 2 1 d 1 1 d 2 1 d 2 2 d 2
 1 d 2 1 d 1 1 d 2 1 d 2 1 d 2 1 d 1 1 d 2 1 d 2 1 d 2 1 d 1 1 d 2 X 2 1 d 1 1 d
 2 1 d 2 X 2 1 d 1 1 d 2 X 2 1 d 1 1 d 2 X 2 1 d 1 X 2 1 d 2 X 1 1 d s 2223 1654
 m 2 X 2 1 d 3 X 2 1 d 1 X 2 1 d 3 X 2 1 d 5 X 1 1 d 7 X 1 1 d 8 X 2 1 d 37 X 1
 -1 d 11 X 1 -1 d 8 X 1 -1 d 7 X 2 -1 d 4 X 1 -1 d 5 X 1 -1 d 4 X 2 -1 d 4 X 1
 -1 d 3 X 2 -1 d 4 X 1 -1 d 3 X 1 -1 d 3 X 1 -1 d 3 X 2 -1 d 2 X 2 -1 d 2 X 2 -1
 d 2 X 2 -1 d 2 X 2 -1 d 2 X 2 -1 d 1 X 1 -1 d 3 X 1 -1 d 2 X 1 -1 d 2 X 2 -1 d
 1 X 1 -1 d 3 X 1 -1 d 2 X 1 -1 d 2 X 2 -1 d 1 X 1 -1 d 3 X 1 -1 d 1 X 2 -1 d 1
 X 1 -1 d 1 X 2 -1 d 2 X 1 -1 d 2 X 1 -1 d 1 X 1 -1 d 3 X 1 -1 d 1 X 2 -1 d 1 X
 1 -1 d 1 X 1 -1 d 2 X 1 -1 d 2 X 2 -1 d 1 X 1 -1 d 1 X 1 -1 d 2 X 1 -1 d 1 X 1
 -1 d 1 X 2 -1 d 1 X 1 -1 d 1 X 1 -1 d 1 X 2 -1 d 2 X 1 -1 d 1 X 2 -1 d 1 X 1 -1
 d 1 X 1 -1 d 1 X 2 -1 d 1 X 1 -1 d 1 X 1 -1 d 1 X 2 -1 d 1 X s 2503 1605 m 1 -1
 d 1 X 1 -1 d 1 X 1 -1 d 2 X 1 -1 d 1 X 1 -1 d 1 X 1 -1 d 1 -1 d 1 X 2 -1 d 1 X
 1 -1 d 1 X 1 -1 d 1 X 1 -1 d 1 X 2 -1 d 1 X 1 -1 d 1 X 1 -1 d 1 X 1 -1 d 1 X 1
 -1 d 2 X 1 -1 d 1 X 1 -1 d 1 X 1 -1 d 1 X 1 -1 d 1 X 1 -1 d 1 -1 d 2 X 1 -1 d 1
 X 1 -1 d 1 X 1 -1 d 1 X 1 -1 d 1 X 1 -1 d 1 -1 d 1 X 1 -1 d 1 X 2 -1 d 1 X 1 -1
 d 1 X 1 -1 d 1 X 1 -1 d 1 X 1 -1 d 1 -1 d 1 X 1 -1 d 1 X 1 -1 d 1 X 1 -1 d 1 X
 1 -1 d 1 X 1 -1 d 1 -1 d 1 X 2 -1 d 1 X 1 -1 d 1 X 1 -1 d 1 -1 d 2 X 1 -1 d 1
 -1 d 1 X 1 -1 d 1 X 1 -1 d 1 X 1 -1 d 1 -1 d 1 X 1 -1 d 1 X 1 -1 d 1 X 1 -1 d 1
 -1 d 1 X 1 -1 d 1 X 1 -1 d 1 X 1 -1 d 1 X 1 -1 d 1 X 1 -1 d 1 -1 d 1 X 1 -1 d 1
 X 1 -1 d 1 -1 d 1 X 1 -1 d 1 X 1 -1 d 1 -1 d 1 X 1 -1 d 1 -1 d 1 X 1 -1 d 1 X 1
 -1 d 1 X 1 -1 d 1 -1 d 1 X 1 -1 d 1 X 1 -1 d 1 X 1 -1 d 1 -1 d 1 X 1 -1 d 1 X 1
 -1 d -1 Y 1 X 1 -1 d 1 X 1 -1 d 1 X 1 -1 d 1 -1 d 1 X 1 -1 d 1 X 1 -1 d 1 X 1
 -1 d 1 -1 d 1 -1 d 1 X 1 -1 d 1 X 1 -1 d 1 -1 d 1 X 1 -1 d 1 X 1 -1 d 1 -1 d 1
 X -1 Y 1 X 1 -1 d 1 X 1 -1 d 1 -1 d 1 X 1 -1 d 1 -1 d 1 X 1 -1 d 1 -1 d 1 X 1
 -1 d 1 -1 d 1 X 1 -1 d 1 X 1 -1 d 1 -1 d 1 -1 d 1 X 1 -1 d 1 X 1 -1 d 1 -1 d 1
 X -1 Y 1 X s 2706 1492 m 1 -1 d 1 -1 d 1 X 1 -1 d 1 X 1 -1 d -1 Y 1 X 1 -1 d 1
 X 1 -1 d 1 X 1 -1 d 1 -1 d 1 -1 d 1 X 1 -1 d 1 -1 d 1 X 1 -1 d 1 -1 d 1 -1 d 1
 X 1 -1 d 1 X 1 -1 d -1 Y 1 X 1 -1 d 1 X 1 -1 d 1 -1 d 1 -1 d 1 X 1 -1 d 1 -1 d
 1 X 1 -1 d 1 -1 d 1 -1 d 1 X 1 -1 d 1 X -1 Y 1 -1 d 1 X 1 -1 d 1 -1 d 1 X -1 Y
 1 X 1 -1 d 1 -1 d 1 X -1 Y 1 X 1 -1 d 1 -1 d 1 X 1 -1 d 1 -1 d 1 -1 d 1 X 1 -1
 d 1 -1 d 1 -1 d 1 X 1 -1 d 1 X -1 Y 1 -1 d 1 X 1 -1 d 1 -1 d 1 -1 d 1 X 1 -1 d
 1 -1 d 1 -1 d 1 X 1 -1 d 1 -1 d 1 -1 d 1 -1 d 1 X 1 -1 d 1 -1 d 1 -1 d 1 X -1 Y
 1 X 1 -1 d 1 -1 d 1 X -1 Y 1 -1 d 1 X 1 -1 d 1 X -1 Y 1 -1 d 1 X 1 -1 d -1 Y 1
 X 1 -1 d 1 X 1 -1 d -1 Y 1 X 1 -1 d 1 X -1 Y 1 -1 d 1 X 1 -1 d -1 Y 1 X 1 -1 d
 1 X 1 -1 d -1 Y 1 X 1 -1 d 1 -1 d 1 -1 d 1 -1 d 1 X s [12 12] 0 sd 551 1093 m
 15 7 d 15 6 d 14 6 d 15 6 d 13 7 d 14 6 d 13 6 d 14 6 d 13 7 d 12 6 d 13 6 d 12
 6 d 12 7 d 12 6 d 12 6 d 11 6 d 12 6 d 11 6 d 11 6 d 11 6 d 11 6 d 10 6 d 11 6
 d 10 6 d 10 5 d 10 6 d 10 6 d 10 5 d 10 6 d 9 5 d 10 6 d 9 5 d 9 5 d 9 5 d 9 6
 d 9 5 d 9 5 d 8 5 d 9 5 d 8 5 d 9 5 d 8 5 d 8 4 d 8 5 d 8 5 d 8 4 d 8 4 d 8 5 d
 7 4 d 8 4 d 8 4 d 7 4 d 7 4 d 8 3 d 7 4 d 7 3 d 7 3 d 7 3 d 7 3 d 7 3 d 7 2 d 7
 3 d 7 1 d 6 2 d 7 2 d 6 1 d 7 1 d 6 X 7 1 d 6 X 6 -1 d 7 -1 d 6 -1 d 6 -1 d 6
 -2 d 6 -2 d 6 -3 d 6 -3 d 6 -4 d 6 -3 d 6 -5 d 5 -5 d 6 -5 d 6 -6 d 5 -6 d 6 -7
 d 5 -7 d 6 -8 d 5 -8 d 6 -9 d 5 -10 d 6 -10 d 5 -11 d 5 -11 d 5 -12 d 6 -13 d 5
 -13 d 5 -15 d 5 -15 d 5 -17 d 5 -18 d 5 -20 d 5 -21 d 5 -24 d 5 -26 d 5 -30 d 5
 -35 d 4 -42 d 5 -51 d 5 -64 d 5 -68 d 4 -65 d 5 -54 d 5 -39 d 4 -28 d 5 -22 d 4
 -17 d 5 -15 d 4 -13 d 5 -12 d 4 -10 d 5 -9 d 4 -8 d 4 -8 d 5 -7 d 4 -7 d 4 -6 d
 5 -7 d 4 -6 d 4 -7 d 4 -8 d 5 -8 d 4 -10 d 4 -10 d 4 -10 d 4 -9 d 4 -8 d 4 -6 d
 4 -6 d 4 -5 d 4 -5 d 4 -5 d 4 -4 d 4 -4 d 4 -4 d 4 -4 d 3 -3 d 4 -3 d 4 -3 d 4
 -3 d 4 -3 d 3 -2 d 4 -3 d 4 -3 d 4 -2 d 3 -2 d 4 -2 d 4 -3 d 3 -2 d 4 -2 d 3 -2
 d 4 -2 d 4 -1 d 3 -2 d 4 -2 d 3 -2 d 4 -1 d 3 -2 d 4 -2 d 3 -1 d 4 -2 d 3 -1 d
 3 -2 d 4 -1 d 3 -1 d 3 -2 d 4 -1 d 3 -1 d 3 -2 d 4 -1 d 3 -1 d 3 -1 d 4 -1 d 3
 -2 d 3 -1 d 3 -1 d 3 -1 d 4 -1 d 3 -1 d 3 -1 d 3 -1 d 3 -1 d 3 X 4 -1 d 3 -1 d
 3 -1 d 3 -1 d 3 -1 d 3 -1 d 3 X 3 -1 d 3 -1 d s 1776 271 m 3 X 3 -1 d 3 -1 d 3
 X 3 -1 d 3 -1 d 3 X 3 -1 d 3 X 2 -1 d 3 X 3 -1 d 3 X 3 -1 d 3 X 3 -1 d 2 X 3 -1
 d 6 X 3 -1 d 5 X 3 -1 d 8 X 3 -1 d 16 X 2 -1 d 26 X 3 1 d 12 X 3 1 d 7 X 3 1 d
 5 X 2 1 d 5 X 2 1 d 3 X 2 1 d 3 X 2 1 d 2 X 3 1 d 2 1 d 3 X 2 1 d 2 1 d 3 X 2 1
 d 2 1 d 3 1 d 2 1 d 2 X 2 1 d 3 1 d 2 1 d 2 1 d 3 1 d 2 2 d 2 1 d 2 1 d 3 1 d 2
 2 d 2 1 d 2 2 d 2 1 d 3 2 d 2 1 d 2 2 d 2 2 d 2 2 d 3 3 d 2 2 d 2 3 d 2 3 d 2 3
 d 2 2 d 2 2 d 3 1 d 2 2 d 2 1 d 2 2 d 2 1 d 2 1 d 2 1 d 2 1 d 2 1 d 2 1 d 3 1 d
 2 X 2 1 d 2 X 2 1 d 2 X 2 1 d 8 X 2 1 d 10 X 2 -1 d 8 X 2 -1 d 6 X 1 -1 d 4 X 2
 -1 d 2 X 2 -1 d 2 X 2 -1 d 2 X 2 -1 d 2 X 1 -1 d 2 X 2 -1 d 2 X 2 -1 d 2 X 2 -1
 d 1 X 2 -1 d 2 -1 d 2 X 2 -1 d 2 -1 d 1 X 2 -1 d 2 X 2 -1 d 2 -1 d 2 X 1 -1 d 2
 -1 d 2 -1 d 2 X 1 -1 d 2 -1 d 2 X 2 -1 d 2 -1 d 1 -1 d 2 X 2 -1 d 2 -1 d 1 -1 d
 2 X 2 -1 d 2 -1 d 1 -1 d 2 X 2 -1 d 1 -1 d 2 -1 d 2 -1 d 2 X 1 -1 d 2 -1 d 2 -1
 d 1 -1 d 2 X 2 -1 d 1 -1 d 2 -1 d 2 -1 d 1 X s 2223 288 m 2 -1 d 2 -1 d 1 -1 d
 2 -1 d 2 -1 d 1 X 2 -1 d 2 -1 d 1 -1 d 2 -1 d 1 -1 d 2 X 2 -1 d 1 -1 d 2 -1 d 2
 -1 d 1 -1 d 2 X 1 -1 d 2 -1 d 2 -1 d 1 -1 d 2 -1 d 1 -1 d 2 X 1 -1 d 2 -1 d 2
 -1 d 1 -1 d 2 -1 d 1 -1 d 2 X 1 -1 d 2 -1 d 1 -1 d 2 -1 d 2 -1 d 1 -1 d 2 -1 d
 1 X 2 -1 d 1 -1 d 2 -1 d 1 -1 d 2 -1 d 1 -1 d 2 X 1 -1 d 2 -1 d 1 -1 d 2 -1 d 1
 -1 d 2 -1 d 1 -1 d 2 X 1 -1 d 2 -1 d 1 -1 d 2 -1 d 1 -1 d 2 -1 d 1 -1 d 2 X 1
 -1 d 1 -1 d 2 -1 d 1 -1 d 2 -1 d 1 -1 d 2 -1 d 1 -1 d 2 X 1 -1 d 1 -1 d 2 -1 d
 1 -1 d 2 -1 d 1 -1 d 2 -1 d 1 X 1 -1 d 2 -1 d 1 -1 d 2 -1 d 1 -1 d 1 -1 d 2 -1
 d 1 -1 d 2 X 1 -1 d 1 -1 d 2 -1 d 1 -1 d 2 -1 d 1 -1 d 1 -1 d 2 X 1 -1 d 1 -1 d
 2 -1 d 1 -1 d 2 -1 d 1 -1 d 1 -1 d 2 X 1 -1 d 1 -1 d 2 -1 d 1 -1 d 1 -1 d 2 -1
 d 1 -1 d 1 -1 d 2 X 1 -1 d 1 -1 d 2 -1 d 1 -1 d 1 -1 d 2 -1 d 1 -1 d 1 X 2 -1 d
 1 -1 d 1 -1 d 1 -1 d 2 -1 d 1 -1 d 1 -1 d 2 X 1 -1 d 1 -1 d 2 -1 d 1 -1 d 1 -1
 d 1 -1 d 2 -1 d 1 X 1 -1 d 1 -1 d 2 -1 d 1 -1 d 1 -1 d 2 -1 d 1 -1 d 1 X 1 -1 d
 2 -1 d 1 -1 d 1 -1 d 1 -1 d 2 -1 d 1 -1 d 1 -1 d 1 X 2 -1 d 1 -1 d 1 -1 d 1 -1
 d 2 -1 d 1 -1 d 1 X 1 -1 d 1 -1 d 2 -1 d 1 -1 d 1 -1 d 1 -1 d 2 -1 d 1 X 1 -1 d
 1 -1 d 1 -1 d 2 -1 d 1 -1 d 1 -1 d 1 X 1 -1 d 2 -1 d 1 -1 d 1 -1 d 1 -1 d 1 -1
 d 1 -1 d 2 X 1 -1 d 1 -1 d 1 -1 d 1 -1 d 2 -1 d 1 -1 d 1 X 1 -1 d 1 -1 d 1 -1 d
 2 -1 d 1 -1 d 1 -1 d 1 -1 d 1 X 1 -1 d 2 -1 d 1 -1 d s 2503 111 m 1 -1 d 1 -1 d
 1 -1 d 1 X 1 -1 d 2 -1 d 1 -1 d 1 -1 d 1 -1 d 1 -1 d 1 X 1 -1 d 1 -1 d 2 -1 d 1
 -1 d 1 -1 d 1 -1 d 1 X 1 -1 d 1 -1 d 1 -1 d 2 -1 d 1 -1 d 1 -1 d 1 X 1 -1 d 1
 -1 d 1 -1 d 1 -1 d 1 -1 d 2 -1 d 1 X 1 -1 d 1 -1 d 1 -1 d 1 -1 d 1 -1 d 1 -1 d
 1 X 1 -1 d 1 -1 d 2 -1 d 1 -1 d 1 -1 d 1 X 1 -1 d 1 -1 d 1 -1 d 1 -1 d 1 -1 d 1
 -1 d 1 X 1 -1 d 1 -1 d 1 -1 d 2 -1 d 1 -1 d 1 -1 d 1 X 1 -1 d 1 -1 d 1 -1 d 1
 -1 d 1 -1 d 1 X 1 -1 d 1 -1 d 1 -1 d 1 -1 d 1 -1 d 1 -1 d 1 X 1 -1 d 1 -1 d 1
 -1 d 1 -1 d 1 -1 d 2 X 1 -1 d 1 -1 d 1 -1 d 1 -1 d 1 -1 d 1 X 1 -1 d 1 -1 d 1
 -1 d 1 -1 d 1 -1 d 1 -1 d 1 X 1 -1 d 1 -1 d 1 -1 d 1 -1 d 1 -1 d 1 X 1 -1 d 1
 -1 d 1 -1 d 1 -1 d 1 X 1 -1 d 1 -1 d 1 -1 d 1 -1 d 1 -1 d 1 -1 d 1 X 1 -1 d 1
 -1 d 1 -1 d 1 -1 d 1 -1 d 1 X 1 -1 d 1 -1 d 1 -1 d 1 -1 d 1 X 1 -1 d -1 Y 1 -1
 d 1 -1 d 1 -1 d 1 -1 d 1 X 1 -1 d 1 -1 d 1 -1 d 1 -1 d 1 X 1 -1 d 1 -1 d 1 -1 d
 1 -1 d 1 -1 d 1 X 1 -1 d 1 -1 d 1 -1 d 1 -1 d 1 -1 d 1 X -1 Y 1 -1 d 1 -1 d 1
 -1 d 1 -1 d 1 X 1 -1 d 1 -1 d 1 -1 d 1 -1 d 1 X 1 -1 d 1 -1 d 1 -1 d 1 -1 d 1
 -1 d 1 -1 d 1 -1 d 1 -1 d 1 -1 d 1 X 1 -1 d 1 -1 d 1 -1 d 1 -1 d 1 -1 d 1 X -1
 Y 1 -1 d 1 -1 d 1 -1 d 1 X 1 -1 d 1 -1 d 1 -1 d 1 -1 d 1 X -1 Y 1 -1 d 1 -1 d 1
 -1 d 1 -1 d 1 X 1 -1 d 1 -1 d 1 -1 d 1 -1 d 1 -1 d 1 -1 d 1 -1 d 1 -1 d 1 -1 d
 1 X 1 -1 d 1 -1 d -1 Y 1 -1 d s 2706 -59 m 1 X 1 -1 d 1 -1 d 1 -1 d 1 -1 d 1 X
 -1 Y 1 -1 d 1 -1 d 1 -1 d 1 -1 d 1 X 1 -1 d 1 -1 d -1 Y 1 -1 d 1 X 1 -1 d 1 -1
 d 1 -1 d 1 -1 d 1 -1 d 1 -1 d 1 -1 d 1 -1 d 1 -1 d 1 X -1 Y 1 -1 d 1 -1 d 1 -1
 d 1 X 1 -1 d -1 Y 1 -1 d 1 X 1 -1 d 1 -1 d 1 -1 d 1 -1 d -1 Y 1 X 1 -1 d 1 -1 d
 1 -1 d 1 -1 d 1 -1 d 1 -1 d 1 -1 d 1 -1 d 1 X -1 Y 1 -1 d 1 -1 d 1 -1 d 1 X -1
 Y 1 -1 d 1 -1 d 1 -1 d 1 X 1 -1 d -1 Y 1 -1 d 1 X 1 -1 d 1 -1 d -1 Y 1 -1 d 1
 -1 d 1 X 1 -1 d 1 -1 d -1 Y 1 -1 d 1 X 1 -1 d 1 -1 d -1 Y 1 -1 d 1 X 1 -1 d 1
 -1 d -1 Y 1 -1 d 1 X 1 -1 d 1 -1 d -1 Y 1 X 1 -1 d 1 -1 d 1 -1 d -1 Y 1 -1 d 1
 X 1 -1 d -1 Y 1 -1 d 1 -1 d 1 X 1 -1 d -1 Y 1 -1 d 1 X 1 -1 d 1 -1 d -1 Y 1 -1
 d 1 X 1 -1 d -1 Y 1 -1 d 1 -1 d 1 X 1 -1 d -1 Y 1 -1 d 1 X 1 -1 d -1 Y 1 -1 d 1
 -1 d 1 X -1 Y 1 -1 d 1 -1 d 1 -1 d 1 X -1 Y 1 -1 d 1 -1 d 1 -1 d 1 -1 d 1 -1 d
 1 -1 d s 551 111 m 15 10 d 15 10 d 14 11 d 15 9 d 13 10 d 14 10 d 13 9 d 14 10
 d 13 9 d 12 9 d 13 9 d 12 9 d 12 8 d 12 9 d 12 8 d 11 9 d 12 8 d 11 8 d 11 8 d
 11 8 d 11 8 d 10 8 d 11 7 d 10 8 d 10 7 d 10 8 d 10 7 d 10 7 d 10 8 d 9 7 d 10
 7 d 9 7 d 9 7 d 9 7 d 9 6 d 9 7 d 9 7 d 8 7 d 9 6 d 8 7 d 9 6 d 8 7 d 8 6 d 8 7
 d 8 6 d 8 6 d 8 6 d 8 6 d 7 6 d 8 6 d 8 5 d 7 6 d 7 6 d 8 5 d 7 5 d 7 6 d 7 5 d
 7 4 d 7 5 d 7 5 d 7 4 d 7 4 d 7 4 d 6 4 d 7 4 d 6 3 d 7 3 d 6 3 d 7 2 d 6 2 d 6
 2 d 7 2 d 6 1 d 6 1 d 6 1 d 12 X 6 -1 d 6 X 6 -2 d 6 -1 d 5 -2 d 6 -2 d 6 -3 d
 5 -3 d 6 -4 d 5 -4 d 6 -4 d 5 -5 d 6 -5 d 5 -6 d 6 -6 d 5 -7 d 5 -7 d 5 -7 d 6
 -8 d 5 -9 d 5 -10 d 5 -10 d 5 -11 d 5 -12 d 5 -14 d 5 -13 d 5 -17 d 5 -18 d 5
 -21 d 5 -24 d 4 -30 d 5 -36 d 5 -43 d 5 -30 d 4 -66 d 5 -56 d 5 -40 d 4 -29 d 5
 -24 d 4 -19 d 5 -16 d 4 -15 d 5 -12 d 4 -12 d 5 -11 d 4 -10 d 4 -9 d 5 -9 d 4
 -9 d 4 -8 d 5 -8 d 4 -9 d 4 -8 d 4 -10 d 5 -10 d 4 -12 d 4 -12 d 4 -12 d 4 -11
 d 4 -9 d 4 -9 d 4 -8 d 4 -7 d 4 -7 d 4 -7 d 4 -6 d 4 -6 d 4 -6 d 4 -6 d 3 -6 d
 4 -5 d 4 -5 d 4 -5 d 4 -5 d 3 -5 d 4 -5 d 4 -4 d 4 -5 d 3 -5 d 4 -4 d 4 -5 d 3
 -4 d 4 -4 d 3 -4 d 4 -5 d 4 -4 d 3 -4 d 4 -4 d 3 -4 d 4 -4 d 3 -4 d 4 -4 d 3 -4
 d 4 -4 d 3 -3 d 3 -4 d 4 -4 d 3 -4 d 3 -4 d 4 -3 d 3 -4 d 3 -4 d 4 -3 d 3 -4 d
 3 -3 d 4 -4 d 3 -3 d 3 -4 d 3 -3 d 3 -4 d 4 -3 d 3 -4 d 3 -3 d 3 -4 d 3 -3 d 3
 -3 d 4 -4 d 3 -3 d 3 -3 d 3 -4 d 3 -3 d 3 -3 d 3 -3 d 3 -4 d 3 -3 d s 1776 -514
 m 3 -3 d 3 -3 d 3 -3 d 3 -4 d 3 -3 d 3 -3 d 3 -3 d 3 -3 d 3 -3 d 2 -3 d 3 -3 d
 3 -3 d 3 -3 d 3 -3 d 3 -3 d 3 -3 d 2 -3 d 3 -3 d 3 -3 d 3 -3 d 3 -3 d 2 -3 d 3
 -3 d 3 -3 d 3 -3 d 2 -3 d 3 -2 d 3 -3 d 2 -3 d 3 -3 d 3 -3 d 2 -2 d 3 -3 d 3 -3
 d 2 -3 d 3 -2 d 3 -3 d 2 -3 d 3 -3 d 2 -2 d 3 -3 d 3 -3 d 2 -2 d 3 -3 d 2 -3 d
 3 -2 d 2 -3 d 3 -3 d 2 -2 d 3 -3 d 2 -2 d 3 -3 d 2 -3 d 3 -2 d 2 -3 d 3 -2 d 2
 -3 d 3 -2 d 2 -3 d 3 -2 d 2 -3 d 2 -2 d 3 -3 d 2 -2 d 3 -3 d 2 -2 d 2 -2 d 3 -3
 d 2 -2 d 3 -3 d 2 -2 d 2 -3 d 3 -2 d 2 -2 d 2 -3 d 3 -2 d 2 -2 d 2 -3 d 2 -2 d
 3 -2 d 2 -3 d 2 -2 d 3 -2 d 2 -3 d 2 -2 d 2 -2 d 3 -2 d 2 -3 d 2 -2 d 2 -2 d 2
 -2 d 3 -3 d 2 -2 d 2 -2 d 2 -2 d 2 -2 d 3 -3 d 2 -2 d 2 -3 d 2 -3 d 2 -4 d 2 -3
 d 2 -4 d 3 -4 d 2 -4 d 2 -4 d 2 -5 d 2 -4 d 2 -4 d 2 -4 d 2 -5 d 2 -4 d 2 -4 d
 3 -5 d 2 -4 d 2 -5 d 2 -4 d 2 -5 d 2 -4 d 2 -5 d 2 -4 d 2 -5 d 2 -4 d 2 -5 d 2
 -4 d 2 -5 d 2 -4 d 2 -5 d 2 -4 d 2 -5 d 2 -4 d 2 -5 d 2 -4 d 2 -5 d 2 -4 d 2 -5
 d 2 -4 d 2 -5 d 2 -4 d 1 -5 d 2 -4 d 2 -5 d 2 -4 d 2 -4 d 2 -5 d 2 -4 d 2 -5 d
 2 -4 d 2 -5 d 2 -4 d 1 -5 d 2 -4 d 2 -5 d 2 -4 d 2 -4 d 2 -5 d 2 -4 d 1 -5 d 2
 -4 d 2 -5 d 2 -4 d 2 -4 d 2 -5 d 1 -4 d 2 -5 d 2 -4 d 2 -4 d 2 -5 d 2 -4 d 1 -5
 d 2 -4 d 2 -4 d 2 -5 d 1 -4 d 2 -5 d 2 -4 d 2 -4 d 2 -5 d 1 -4 d 2 -5 d 2 -4 d
 2 -4 d 1 -5 d 2 -4 d 2 -5 d 2 -4 d 1 -4 d 2 -5 d 2 -4 d 1 -5 d 2 -4 d 2 -4 d 2
 -5 d 1 -4 d 2 -5 d 2 -4 d 1 -5 d 2 -4 d 2 -4 d 1 -5 d 2 -4 d 2 -5 d 1 -4 d s
 2223 -1231 m 2 -5 d 2 -4 d 1 -5 d 2 -4 d 2 -4 d 1 -5 d 2 -4 d 2 -5 d 1 -4 d 2
 -5 d 1 -5 d 2 -4 d 2 -5 d 1 -4 d 2 -5 d 2 -4 d 1 -5 d 2 -4 d 1 -5 d 2 -4 d 2 -5
 d 1 -5 d 2 -4 d 1 -5 d 2 -4 d 1 -5 d 2 -5 d 2 -4 d 1 -5 d 2 -5 d 1 -4 d 2 -5 d
 1 -5 d 2 -5 d 1 -4 d 2 -5 d 2 -5 d 1 -4 d 2 -5 d 1 -5 d 2 -5 d 1 -5 d 2 -4 d 1
 -5 d 2 -5 d 1 -5 d 2 -5 d 1 -5 d 2 -5 d 1 -5 d 2 -5 d 1 -5 d 2 -4 d 1 -5 d 2 -5
 d 1 -6 d 2 -5 d 1 -5 d 2 -5 d 1 -5 d 2 -5 d 1 -5 d 2 -5 d 1 -5 d 1 -5 d 2 -6 d
 1 -5 d 2 -5 d 1 -5 d 2 -6 d 1 -5 d 2 -5 d 1 -6 d 1 -5 d 2 -5 d 1 -6 d 2 -5 d 1
 -6 d 2 -5 d 1 -6 d 1 -5 d 2 -6 d 1 -5 d 2 -6 d 1 -5 d 1 -6 d 2 -6 d 1 -5 d 2 -6
 d 1 -6 d 1 -6 d 2 -5 d 1 -6 d 2 -6 d 1 -6 d 1 -6 d 2 -6 d 1 -6 d 1 -6 d 2 -6 d
 1 -6 d 2 -6 d 1 -6 d 1 -6 d 2 -6 d 1 -7 d 1 -6 d 2 -6 d 1 -6 d 1 -7 d 2 -6 d 1
 -6 d 1 -7 d 2 -6 d 1 -7 d 1 -6 d 2 -7 d 1 -6 d 1 -7 d 2 -6 d 1 -7 d 1 -7 d 2 -7
 d 1 -6 d 1 -7 d 1 -7 d 2 -7 d 1 -7 d 1 -6 d 2 -7 d 1 -7 d 1 -7 d 2 -7 d 1 -7 d
 1 -7 d 1 -7 d 2 -7 d 1 -7 d 1 -7 d 1 -7 d 2 -7 d 1 -8 d 1 -7 d 2 -7 d 1 -7 d 1
 -7 d 1 -7 d 2 -7 d 1 -7 d 1 -7 d 1 -7 d 2 -7 d 1 -6 d 1 -7 d 1 -7 d 2 -7 d 1 -6
 d 1 -7 d 1 -6 d 2 -6 d 1 -7 d 1 -6 d 1 -6 d 1 -5 d 2 -6 d 1 -6 d 1 -5 d 1 -5 d
 2 -5 d 1 -5 d 1 -5 d 1 -4 d 1 -4 d 2 -5 d 1 -3 d 1 -4 d 1 -3 d 1 -3 d 2 -3 d 1
 -3 d 1 -2 d 1 -2 d 1 -1 d 1 -2 d 2 -1 d 1 -1 d 1 -1 d 4 X 1 1 d 1 X 1 1 d 1 2 d
 1 1 d 2 2 d 1 2 d 1 2 d 1 2 d 1 2 d 1 3 d 2 3 d 1 3 d s 2503 -2215 m 1 3 d 1 3
 d 1 4 d 1 3 d 1 4 d 2 4 d 1 4 d 1 4 d 1 4 d 1 4 d 1 4 d 1 4 d 1 5 d 2 4 d 1 4 d
 1 5 d 1 4 d 1 5 d 1 4 d 1 5 d 1 5 d 2 4 d 1 5 d 1 4 d 1 5 d 1 4 d 1 5 d 1 5 d 1
 4 d 1 5 d 2 4 d 1 5 d 1 4 d 1 5 d 1 4 d 1 5 d 1 4 d 1 4 d 1 5 d 1 4 d 1 4 d 2 4
 d 1 5 d 1 4 d 1 4 d 1 4 d 1 4 d 1 4 d 1 4 d 1 4 d 1 4 d 1 4 d 1 4 d 1 4 d 1 4 d
 2 4 d 1 4 d 1 3 d 1 4 d 1 4 d 1 3 d 1 4 d 1 3 d 1 4 d 1 4 d 1 3 d 1 3 d 1 4 d 1
 3 d 1 4 d 1 3 d 1 3 d 1 4 d 1 3 d 1 3 d 1 3 d 1 3 d 2 3 d 1 4 d 1 3 d 1 3 d 1 3
 d 1 3 d 1 3 d 1 3 d 1 3 d 1 2 d 1 3 d 1 3 d 1 3 d 1 3 d 1 2 d 1 3 d 1 3 d 1 3 d
 1 2 d 1 3 d 1 2 d 1 3 d 1 3 d 1 2 d 1 3 d 1 2 d 1 3 d 1 2 d 1 3 d 1 2 d 1 2 d 1
 3 d 1 2 d 1 2 d 1 3 d 1 2 d 1 2 d 1 2 d 1 3 d 1 2 d 1 2 d 1 2 d 1 3 d 1 2 d 2 Y
 1 2 d 1 2 d 1 2 d 1 2 d 1 2 d 1 2 d 1 2 d 1 2 d 1 2 d 1 2 d 1 2 d 1 2 d 1 2 d 1
 2 d 1 2 d 1 2 d 1 1 d 1 2 d 1 2 d 1 2 d 1 2 d 1 1 d 2 Y 1 2 d 1 2 d 1 1 d 1 2 d
 1 2 d 1 2 d 1 1 d 1 2 d 1 2 d 1 1 d 1 2 d 1 1 d 1 2 d 1 2 d 1 Y 1 2 d 1 1 d 1 2
 d 1 1 d 1 2 d 1 1 d 1 2 d 1 1 d 1 2 d 1 1 d 1 2 d 1 1 d 2 Y 1 1 d 1 1 d 1 2 d 1
 1 d 1 2 d 1 1 d 1 1 d 1 2 d 1 1 d 1 Y 1 2 d 1 1 d 1 1 d 1 2 d 1 1 d 1 1 d 1 1 d
 1 2 d 1 1 d 1 Y 1 1 d 1 2 d 1 1 d 1 1 d 1 1 d 1 1 d 1 2 d 1 1 d 1 Y 1 1 d s
 2706 -1663 m 1 1 d 1 1 d 1 2 d 1 1 d 1 1 d 1 1 d 1 Y 1 1 d 1 1 d 1 1 d 1 1 d 1
 1 d 1 1 d 1 1 d 1 Y 1 1 d 1 2 d 1 1 d 1 1 d 1 1 d 1 1 d 1 Y 1 1 d 1 1 d 1 X 1 1
 d 1 1 d 1 1 d 1 Y 1 1 d 1 1 d 1 1 d 1 1 d 1 1 d 1 Y 1 1 d 1 1 d 1 1 d 1 X 1 1 d
 1 1 d 1 Y 1 1 d 1 1 d 1 1 d 1 1 d 1 X 1 Y 1 1 d 1 1 d 1 1 d 1 X 1 1 d 1 Y 1 1 d
 1 1 d 1 X 1 1 d 1 Y 1 1 d 1 1 d 1 X 1 1 d 1 1 d 1 Y 1 X 1 1 d 1 1 d 1 1 d 1 1 d
 1 1 d 1 X 1 1 d 1 1 d 1 1 d 1 1 d 1 X 1 1 d 1 Y 1 1 d 1 X 1 1 d 1 1 d 1 1 d 1 X
 1 1 d 1 1 d 1 1 d 1 1 d 1 X 1 1 d 1 1 d 1 1 d 1 X 1 Y 1 X 1 1 d 1 1 d 1 X 1 Y 1
 X 1 1 d 1 X 1 1 d 1 Y 1 X 1 1 d 1 X 1 Y 1 X 1 1 d 1 X 1 1 d 1 1 d 1 X 1 1 d 1 1
 d 1 X 1 1 d 1 Y 2 X 1 1 d 1 X 1 Y 1 X 1 1 d 1 X 1 Y 1 X 1 1 d 1 X s 551 394 m
 454 X 8 -2419 d 8 574 d 8 312 d 8 214 d 8 164 d 8 131 d 8 110 d 7 94 d 8 82 d 8
 73 d 7 66 d 7 59 d 8 54 d 7 50 d 7 46 d 7 42 d 7 40 d 7 37 d 7 34 d 7 33 d 7 30
 d 7 29 d 6 27 d 7 26 d 6 24 d 7 23 d 6 22 d 7 20 d 6 20 d 6 18 d 7 17 d 6 16 d
 6 15 d 6 15 d 6 13 d 6 13 d 6 12 d 6 11 d 6 10 d 6 9 d 5 9 d 6 7 d 6 8 d 5 6 d
 6 6 d 5 5 d 6 4 d 5 3 d 6 3 d 5 3 d 6 1 d 5 1 d 10 X 6 -1 d 5 -2 d 5 -3 d 5 -4
 d 5 -5 d 5 -5 d 5 -8 d 5 -7 d 5 -11 d 5 -12 d 5 -15 d 5 -18 d 4 -24 d 5 -30 d 5
 -34 d 5 -21 d 4 -62 d 5 -53 d 5 -36 d 4 -26 d 5 -20 d 4 -16 d 5 -13 d 4 -12 d 5
 -10 d 4 -8 d 5 -8 d 4 -8 d 4 -7 d 5 -6 d 4 -6 d 4 -6 d 5 -6 d 4 -6 d 4 -7 d 4
 -7 d 5 -8 d 4 -10 d 4 -10 d 4 -10 d 4 -9 d 4 -8 d 4 -7 d 4 -6 d 4 -6 d 4 -5 d 4
 -5 d 4 -5 d 4 -5 d 4 -4 d 4 -4 d 3 -4 d 4 -4 d 4 -4 d 4 -4 d 4 -3 d 3 -4 d 4 -4
 d 4 -3 d 4 -3 d 3 -4 d 4 -3 d 4 -3 d 3 -3 d 4 -4 d 3 -3 d 4 -3 d 4 -3 d 3 -3 d
 4 -3 d 3 -3 d 4 -3 d 3 -3 d 4 -3 d 3 -3 d 4 -3 d 3 -3 d 3 -3 d 4 -3 d 3 -3 d 3
 -3 d 4 -2 d 3 -3 d 3 -3 d 4 -3 d 3 -3 d 3 -3 d 4 -2 d 3 -3 d 3 -3 d 3 -3 d 3 -2
 d 4 -3 d 3 -3 d 3 -3 d 3 -2 d 3 -3 d 3 -3 d 4 -3 d 3 -2 d 3 -3 d 3 -3 d 3 -2 d
 3 -3 d 3 -3 d 3 -2 d 3 -3 d s 1776 -178 m 3 -3 d 3 -2 d 3 -3 d 3 -2 d 3 -3 d 3
 -3 d 3 -2 d 3 -3 d 3 -2 d 2 -3 d 3 -3 d 3 -2 d 3 -3 d 3 -2 d 3 -3 d 3 -2 d 2 -3
 d 3 -2 d 3 -3 d 3 -2 d 3 -3 d 2 -2 d 3 -3 d 3 -2 d 3 -3 d 2 -2 d 3 -2 d 3 -3 d
 2 -2 d 3 -3 d 3 -2 d 2 -3 d 3 -2 d 3 -2 d 2 -3 d 3 -2 d 3 -3 d 2 -2 d 3 -2 d 2
 -3 d 3 -2 d 3 -2 d 2 -3 d 3 -2 d 2 -2 d 3 -3 d 2 -2 d 3 -2 d 2 -3 d 3 -2 d 2 -2
 d 3 -2 d 2 -3 d 3 -2 d 2 -2 d 3 -2 d 2 -3 d 3 -2 d 2 -2 d 3 -2 d 2 -3 d 2 -2 d
 3 -2 d 2 -2 d 3 -2 d 2 -3 d 2 -2 d 3 -2 d 2 -2 d 3 -2 d 2 -3 d 2 -2 d 3 -2 d 2
 -2 d 2 -2 d 3 -2 d 2 -2 d 2 -3 d 2 -2 d 3 -2 d 2 -2 d 2 -2 d 3 -2 d 2 -2 d 2 -2
 d 2 -2 d 3 -2 d 2 -3 d 2 -2 d 2 -2 d 2 -2 d 3 -2 d 2 -2 d 2 -2 d 2 -2 d 2 -2 d
 3 -2 d 2 -3 d 2 -2 d 2 -3 d 2 -3 d 2 -2 d 2 -4 d 3 -3 d 2 -3 d 2 -3 d 2 -3 d 2
 -3 d 2 -4 d 2 -3 d 2 -3 d 2 -3 d 2 -3 d 3 -3 d 2 -4 d 2 -3 d 2 -3 d 2 -3 d 2 -3
 d 2 -3 d 2 -4 d 2 -3 d 2 -3 d 2 -3 d 2 -3 d 2 -3 d 2 -3 d 2 -3 d 2 -3 d 2 -3 d
 2 -3 d 2 -3 d 2 -3 d 2 -3 d 2 -3 d 2 -3 d 2 -3 d 2 -3 d 2 -3 d 1 -2 d 2 -3 d 2
 -3 d 2 -3 d 2 -3 d 2 -3 d 2 -2 d 2 -3 d 2 -3 d 2 -3 d 2 -2 d 1 -3 d 2 -3 d 2 -2
 d 2 -3 d 2 -3 d 2 -2 d 2 -3 d 1 -2 d 2 -3 d 2 -3 d 2 -2 d 2 -3 d 2 -2 d 1 -3 d
 2 -2 d 2 -3 d 2 -2 d 2 -3 d 2 -2 d 1 -3 d 2 -2 d 2 -3 d 2 -2 d 1 -3 d 2 -2 d 2
 -3 d 2 -2 d 2 -2 d 1 -3 d 2 -2 d 2 -2 d 2 -3 d 1 -2 d 2 -2 d 2 -3 d 2 -2 d 1 -2
 d 2 -3 d 2 -2 d 1 -2 d 2 -2 d 2 -3 d 2 -2 d 1 -2 d 2 -2 d 2 -2 d 1 -3 d 2 -2 d
 2 -2 d 1 -2 d 2 -2 d 2 -2 d 1 -3 d s 2223 -688 m 2 -2 d 2 -2 d 1 -2 d 2 -2 d 2
 -2 d 1 -2 d 2 -3 d 2 -2 d 1 -2 d 2 -2 d 1 -2 d 2 -2 d 2 -2 d 1 -2 d 2 -2 d 2 -2
 d 1 -2 d 2 -2 d 1 -2 d 2 -2 d 2 -2 d 1 -2 d 2 -2 d 1 -2 d 2 -2 d 1 -2 d 2 -2 d
 2 -2 d 1 -2 d 2 -2 d 1 -2 d 2 -2 d 1 -2 d 2 -2 d 1 -2 d 2 -2 d 2 -1 d 1 -2 d 2
 -2 d 1 -2 d 2 -2 d 1 -2 d 2 -2 d 1 -2 d 2 -2 d 1 -1 d 2 -2 d 1 -2 d 2 -2 d 1 -2
 d 2 -2 d 1 -1 d 2 -2 d 1 -2 d 2 -2 d 1 -2 d 2 -2 d 1 -1 d 2 -2 d 1 -2 d 2 -2 d
 1 -2 d 2 -1 d 1 -2 d 1 -2 d 2 -2 d 1 -1 d 2 -2 d 1 -2 d 2 -2 d 1 -1 d 2 -2 d 1
 -2 d 1 -2 d 2 -1 d 1 -2 d 2 -2 d 1 -2 d 2 -1 d 1 -2 d 1 -2 d 2 -1 d 1 -2 d 2 -2
 d 1 -1 d 1 -2 d 2 -2 d 1 -1 d 2 -2 d 1 -2 d 1 -1 d 2 -2 d 1 -2 d 2 -2 d 1 -1 d
 1 -2 d 2 -1 d 1 -2 d 1 -2 d 2 -1 d 1 -2 d 2 -2 d 1 -1 d 1 -2 d 2 -2 d 1 -1 d 1
 -2 d 2 -1 d 1 -2 d 1 -2 d 2 -1 d 1 -2 d 1 -1 d 2 -2 d 1 -2 d 1 -1 d 2 -2 d 1 -1
 d 1 -2 d 2 -2 d 1 -1 d 1 -2 d 2 -1 d 1 -2 d 1 -1 d 1 -2 d 2 -1 d 1 -2 d 1 -2 d
 2 -1 d 1 -2 d 1 -1 d 2 -2 d 1 -1 d 1 -2 d 1 -1 d 2 -2 d 1 -1 d 1 -2 d 1 -1 d 2
 -2 d 1 -1 d 1 -2 d 2 -2 d 1 -1 d 1 -2 d 1 -1 d 2 -2 d 1 -1 d 1 -2 d 1 -1 d 2 -2
 d 1 -1 d 1 -1 d 1 -2 d 2 -1 d 1 -2 d 1 -1 d 1 -2 d 2 -1 d 1 -2 d 1 -1 d 1 -2 d
 1 -1 d 2 -2 d 1 -1 d 1 -2 d 1 -1 d 2 -1 d 1 -2 d 1 -1 d 1 -2 d 1 -1 d 2 -2 d 1
 -1 d 1 -2 d 1 -1 d 1 -1 d 2 -2 d 1 -1 d 1 -2 d 1 -1 d 1 -2 d 1 -1 d 2 -1 d 1 -2
 d 1 -1 d 1 -2 d 1 -1 d 2 -1 d 1 -2 d 1 -1 d 1 -2 d 1 -1 d 1 -1 d 2 -2 d 1 -1 d
 1 -1 d 1 -2 d 1 -1 d 1 -2 d 2 -1 d 1 -1 d s 2503 -1027 m 1 -2 d 1 -1 d 1 -2 d 1
 -1 d 1 -1 d 2 -2 d 1 -1 d 1 -1 d 1 -2 d 1 -1 d 1 -1 d 1 -2 d 1 -1 d 2 -1 d 1 -2
 d 1 -1 d 1 -2 d 1 -1 d 1 -1 d 1 -1 d 1 -2 d 2 -1 d 1 -1 d 1 -2 d 1 -1 d 1 -2 d
 1 -1 d 1 -1 d 1 -1 d 1 -2 d 2 -1 d 1 -1 d 1 -2 d 1 -1 d 1 -1 d 1 -2 d 1 -1 d 1
 -1 d 1 -2 d 1 -1 d 1 -1 d 2 -1 d 1 -2 d 1 -1 d 1 -1 d 1 -2 d 1 -1 d 1 -1 d 1 -1
 d 1 -2 d 1 -1 d 1 -1 d 1 -2 d 1 -1 d 1 -1 d 2 -1 d 1 -2 d 1 -1 d 1 -1 d 1 -1 d
 1 -2 d 1 -1 d 1 -1 d 1 -2 d 1 -1 d 1 -1 d 1 -1 d 1 -2 d 1 -1 d 1 -1 d 1 -1 d 1
 -2 d 1 -1 d 1 -1 d 1 -1 d 1 -1 d 1 -2 d 2 -1 d 1 -1 d 1 -1 d 1 -2 d 1 -1 d 1 -1
 d 1 -1 d 1 -2 d 1 -1 d 1 -1 d 1 -1 d 1 -1 d 1 -2 d 1 -1 d 1 -1 d 1 -1 d 1 -1 d
 1 -2 d 1 -1 d 1 -1 d 1 -1 d 1 -1 d 1 -2 d 1 -1 d 1 -1 d 1 -1 d 1 -1 d 1 -2 d 1
 -1 d 1 -1 d 1 -1 d 1 -1 d 1 -2 d 1 -1 d 1 -1 d 1 -1 d 1 -1 d 1 -1 d 1 -2 d 1 -1
 d 1 -1 d 1 -1 d 1 -1 d 1 -1 d -2 Y 1 -1 d 1 -1 d 1 -1 d 1 -1 d 1 -1 d 1 -1 d 1
 -2 d 1 -1 d 1 -1 d 1 -1 d 1 -1 d 1 -1 d 1 -2 d 1 -1 d 1 -1 d 1 -1 d 1 -1 d 1 -1
 d 1 -1 d 1 -2 d 1 -1 d 1 -1 d -1 Y 1 -1 d 1 -1 d 1 -1 d 1 -1 d 1 -1 d 1 -2 d 1
 -1 d 1 -1 d 1 -1 d 1 -1 d 1 -1 d 1 -1 d 1 -1 d 1 -1 d -1 Y 1 -2 d 1 -1 d 1 -1 d
 1 -1 d 1 -1 d 1 -1 d 1 -1 d 1 -1 d 1 -1 d 1 -1 d 1 -2 d 1 -1 d -1 Y 1 -1 d 1 -1
 d 1 -1 d 1 -1 d 1 -1 d 1 -1 d 1 -1 d 1 -1 d 1 -1 d -1 Y 1 -2 d 1 X 1 -2 d 1 -1
 d 1 -1 d 1 -1 d 1 -1 d 1 -1 d 1 -1 d -1 Y 1 -1 d 1 -1 d 1 -1 d 1 -1 d 1 -1 d 1
 -1 d 1 -1 d 1 -1 d -1 Y 1 -1 d s 2706 -1270 m 1 -1 d 1 -1 d 1 -1 d 1 -1 d 1 -1
 d 1 -1 d -1 Y 1 -1 d 1 -1 d 1 -2 d 1 -1 d 1 -1 d 1 -1 d 1 -1 d -1 Y 1 -1 d 1 -1
 d 1 -1 d 1 -1 d 1 -1 d 1 -1 d -1 Y 1 -1 d 1 -1 d 1 -1 d 1 -1 d 1 -1 d 1 -1 d -1
 Y 1 X 1 -1 d 1 -1 d 1 -1 d 1 -1 d -1 Y 1 -1 d 1 -1 d 1 -1 d 1 -1 d 1 -1 d 1 -1
 d -1 Y 1 -1 d 1 -1 d 1 -1 d 1 -1 d 1 -1 d -1 Y 1 -1 d 1 -1 d 1 -1 d 1 -1 d 1 -1
 d -1 Y 1 -1 d 1 -1 d 1 X 1 -1 d -1 Y 1 -1 d 1 -1 d 1 -1 d 1 -1 d 1 -1 d -1 Y 1
 -1 d 1 -1 d 1 -1 d 1 -1 d -1 Y 1 X 1 -1 d 1 -1 d 1 -1 d 1 -1 d -1 Y 1 -1 d 1 -1
 d 1 -1 d 1 -1 d -1 Y 1 -1 d 1 X 1 -1 d 1 -1 d -1 Y 1 -1 d 1 -1 d 1 -1 d 1 -1 d
 -1 Y 1 X 1 -1 d 1 -1 d 1 -1 d -1 Y 1 -1 d 1 -1 d 1 -1 d 1 -1 d 1 -1 d 1 -1 d 1
 -1 d -1 Y 1 -1 d 1 -1 d 1 X 1 -1 d -1 Y 1 -1 d 1 -1 d 1 -1 d 1 -1 d 1 -1 d 1 -1
 d 1 -1 d -1 Y 1 -1 d 1 X 1 -1 d -1 Y 1 -1 d 1 -1 d 1 -1 d 1 -1 d 1 -1 d 1 -1 d
 1 -1 d -1 Y 1 X 1 -1 d 1 -1 d -1 Y 1 -1 d 1 X 1 -1 d s 551 -556 m 15 32 d 15 31
 d 14 31 d 15 31 d 13 30 d 14 30 d 13 29 d 14 29 d 13 29 d 12 28 d 13 28 d 12 27
 d 12 28 d 12 27 d 12 27 d 11 26 d 12 27 d 11 26 d 11 26 d 11 26 d 11 25 d 10 26
 d 11 25 d 10 25 d 10 25 d 10 26 d 10 25 d 10 25 d 10 25 d 9 25 d 10 25 d 9 25 d
 9 26 d 9 26 d 9 27 d 9 29 d 9 29 d 8 32 d 9 33 d 8 35 d 9 37 d 8 39 d 8 39 d 8
 41 d 8 41 d 8 42 d 8 41 d 8 42 d 7 41 d 8 40 d 8 39 d 7 39 d 7 38 d 8 37 d 7 36
 d 7 35 d 7 34 d 7 33 d 7 32 d 7 31 d 7 30 d 7 30 d 7 28 d 6 28 d 7 26 d 6 26 d
 7 25 d 6 24 d 7 24 d 6 22 d 6 22 d 7 21 d 6 20 d 6 20 d 6 19 d 6 18 d 6 18 d 6
 17 d 6 16 d 6 15 d 6 15 d 5 15 d 6 14 d 6 13 d 5 12 d 6 13 d 5 11 d 6 11 d 5 11
 d 6 10 d 5 10 d 6 10 d 5 8 d 5 9 d 5 8 d 6 8 d 5 8 d 5 8 d 5 7 d 5 7 d 5 6 d 5
 7 d 5 7 d 5 6 d 5 7 d 5 7 d 5 6 d 4 7 d 5 7 d 5 7 d 5 5 d 4 4 d 5 3 d 5 2 d 4 X
 5 1 d 31 X 4 -1 d 5 X 4 -1 d 4 -1 d 5 -1 d 4 -1 d 4 -3 d 4 -3 d 5 -4 d 4 -6 d 4
 -6 d 4 -7 d 4 -5 d 4 -4 d 4 -4 d 4 -3 d 4 -2 d 4 -2 d 4 -2 d 4 -2 d 4 -1 d 4 -2
 d 4 -1 d 3 -1 d 4 -1 d 4 -1 d 4 X 4 -1 d 3 -1 d 4 X 4 -1 d 4 X 3 -1 d 4 X 4 -1
 d 7 X 3 -1 d 8 X 3 -1 d 7 X 4 -1 d 14 X 3 -1 d 17 X 3 -1 d 23 X 3 -1 d 29 X 3
 -1 d 18 X s 1776 1970 m 15 X 3 -1 d 40 X 3 -1 d 43 X 2 -1 d 46 X 2 -1 d 48 X 2
 -1 d 38 X 2 -1 d 7 X 2 -1 d 2 X 2 -1 d 2 -1 d 3 -1 d 2 -1 d 2 -1 d 2 X 2 -1 d 2
 -1 d 2 -1 d 2 -1 d 2 -1 d 2 -1 d 3 -1 d 2 -1 d 2 X 2 -1 d 2 -1 d 2 -1 d 2 -1 d
 2 -1 d 2 X 2 -1 d 2 -1 d 2 -1 d 2 -1 d 2 X 2 -1 d 2 -1 d 2 -1 d 2 X 2 -1 d 2 -1
 d 2 X 2 -1 d 2 -1 d 2 X 2 -1 d 2 X 1 -1 d 2 -1 d 2 X 2 -1 d 2 X 2 -1 d 2 X 2 -1
 d 2 X 2 -1 d 2 X 1 -1 d 2 X 2 -1 d 2 X 2 -1 d 4 X 1 -1 d 2 X 2 -1 d 4 X 2 -1 d
 3 X 2 -1 d 4 X 2 -1 d 3 X 2 -1 d 3 X 2 -1 d 6 X 1 -1 d 6 X 1 -1 d 7 X 2 -1 d 9
 X 1 -1 d 9 X 1 -1 d 5 X s 2223 1912 m 7 X 2 -1 d 18 X 1 -1 d 88 X 1 1 d 26 X 1
 1 d 19 X 1 1 d 18 X 1 1 d 15 X 2 1 d 14 X 1 1 d 14 X 1 1 d 13 X 1 1 d 13 X 2 1
 d 11 X 2 1 d 8 X s 2503 1920 m 4 X 1 1 d 13 X 1 1 d 12 X 1 1 d 12 X 1 1 d 12 X
 1 1 d 13 X 1 1 d 11 X 2 1 d 12 X 1 1 d 13 X 1 1 d 12 X 1 1 d 13 X 1 1 d 12 X 1
 1 d 13 X 1 1 d 14 X 1 1 d 13 X 1 1 d 8 X s 2706 1935 m 6 X 1 Y 14 X 1 1 d 15 X
 1 Y 15 X 1 1 d 15 X 1 1 d 15 X 1 Y 17 X 1 1 d 13 X s 551 -834 m 15 31 d 15 31 d
 14 30 d 15 30 d 13 29 d 14 30 d 13 28 d 14 28 d 13 28 d 12 27 d 13 27 d 12 27 d
 12 26 d 12 26 d 12 26 d 11 25 d 12 25 d 11 25 d 11 25 d 11 24 d 11 24 d 10 24 d
 11 24 d 10 24 d 10 23 d 10 23 d 10 23 d 10 23 d 10 23 d 9 22 d 10 23 d 9 22 d 9
 22 d 9 22 d 9 22 d 9 22 d 9 22 d 8 22 d 9 22 d 8 22 d 9 22 d 8 22 d 8 22 d 8 23
 d 8 22 d 8 24 d 8 24 d 8 25 d 7 26 d 8 27 d 8 29 d 7 29 d 7 31 d 8 33 d 7 33 d
 7 33 d 7 35 d 7 35 d 7 34 d 7 35 d 7 35 d 7 34 d 7 33 d 6 33 d 7 32 d 6 31 d 7
 30 d 6 30 d 7 29 d 6 27 d 6 27 d 7 26 d 6 25 d 6 23 d 6 23 d 6 22 d 6 21 d 6 21
 d 6 19 d 6 18 d 6 17 d 5 17 d 6 15 d 6 15 d 5 14 d 6 13 d 5 12 d 6 12 d 5 10 d
 6 10 d 5 9 d 6 8 d 5 7 d 5 7 d 5 5 d 6 5 d 5 3 d 5 3 d 5 1 d 5 X 5 -1 d 5 -4 d
 5 -3 d 5 -8 d 5 -9 d 5 -14 d 5 -18 d 4 -26 d 5 -34 d 5 -47 d 5 -51 d 4 -48 d 5
 -37 d 5 -21 d 4 -10 d 5 -3 d 4 1 d 5 4 d 4 7 d 5 10 d 4 11 d 5 13 d 4 16 d 4 16
 d 5 21 d 4 21 d 4 26 d 5 29 d 4 33 d 4 40 d 4 47 d 5 52 d 4 52 d 4 48 d 4 41 d
 4 27 d 4 20 d 4 14 d 4 11 d 4 10 d 4 7 d 4 7 d 4 5 d 4 5 d 4 4 d 4 4 d 3 3 d 4
 3 d 4 2 d 4 3 d 4 2 d 3 2 d 4 1 d 4 2 d 4 1 d 3 2 d 4 1 d 4 1 d 3 1 d 4 1 d 3 1
 d 4 1 d 4 1 d 3 1 d 4 X 3 1 d 4 1 d 3 X 4 1 d 3 X 4 1 d 3 X 3 1 d 4 X 3 1 d 3 X
 4 1 d 6 X 4 1 d 6 X 4 1 d 6 X 3 1 d 7 X 3 1 d 12 X 4 1 d 9 X 3 1 d 9 X 3 1 d s
 1776 1765 m 12 X 3 1 d 14 X 3 1 d 15 X 2 1 d 14 X 3 1 d 16 X 3 1 d 16 X 3 1 d
 18 X 2 1 d 18 X 2 1 d 22 X 3 1 d 21 X 3 1 d 25 X 2 1 d 31 X 2 -1 d 2 X 2 -1 d 2
 X 3 -1 d 2 -1 d 2 -1 d 2 -1 d 2 X 2 -1 d 2 -1 d 2 -1 d 2 X 2 -1 d 3 -1 d 2 -1 d
 2 -1 d 2 X 2 -1 d 2 -1 d 2 -1 d 2 X 2 -1 d 2 -1 d 2 X 2 -1 d 2 -1 d 2 X 2 -1 d
 2 -1 d 2 X 2 -1 d 2 X 2 -1 d 2 -1 d 2 X 2 -1 d 2 X 2 -1 d 2 X 1 -1 d 2 X 2 -1 d
 2 X 2 -1 d 2 X 2 -1 d 2 X 2 -1 d 4 X 1 -1 d 2 X 2 -1 d 4 X 2 -1 d 3 X 2 -1 d 4
 X 2 -1 d 5 X 2 -1 d 6 X 1 -1 d 6 X 1 -1 d 8 X 1 -1 d 9 X 2 -1 d 10 X 2 -1 d 18
 X s 2223 1733 m 2 -1 d 74 X 2 1 d 23 X 2 1 d 17 X 2 1 d 14 X 1 1 d 14 X 1 1 d
 12 X 2 1 d 12 X 1 1 d 12 X 1 1 d 10 X 1 1 d 12 X 1 1 d 10 X 1 1 d 10 X 1 1 d 11
 X 1 1 d 10 X 1 1 d 9 X 2 1 d 8 X s 2503 1747 m 2 X 1 1 d 11 X 2 1 d 9 X 1 1 d
 10 X 1 1 d 11 X 1 1 d 8 X 1 1 d 11 X 1 1 d 10 X 1 1 d 11 X 1 1 d 10 X 1 1 d 11
 X 1 1 d 11 X 1 1 d 10 X 1 1 d 11 X 1 Y 12 X 1 1 d 12 X 1 1 d 11 X 1 1 d 11 X 1
 1 d 3 X s 2706 1765 m 10 X 1 1 d 11 X 1 1 d 13 X 1 1 d 13 X 1 Y 14 X 1 Y 15 X 1
 1 d 12 X 1 1 d 15 X 1 Y 6 X s gr 
showpage
 gr 
%%Trailer
%%Pages: 1
 gr  gr 
%%EOF
