This is LuaTeX, Version 0.95.0 (TeX Live 2016/Debian)  (format=lualatex 2019.3.19)  6 MAY 2019 18:33
 restricted system commands enabled.
**osc.tex
(./osc.tex
LaTeX2e <2016/03/31>
Babel <3.9r> and hyphenation patterns for 1 language(s) loaded.
\gptboxheight=\skip41
\gptboxwidth=\skip42
\gptboxtext=\box26
LaTeX Font Info:    External font `cmex10' loaded for size
(Font)              <7> on input line 109.
LaTeX Font Info:    External font `cmex10' loaded for size
(Font)              <5> on input line 109.

! Package graphicx or graphics not loaded.

See the gnuplot documentation for explanation.
Type  H <return>  for immediate help.
 ...                                              
                                                  
l.110     \put(0,0){\includegraphics{osc}}
                                        %
The gnuplot epslatex terminal needs graphicx.sty or graphics.sty.

! Extra }, or forgotten $.
\@imakepicbox ...t@ #1\unitlength {\mb@l #4\mb@r }
                                                  \mb@b \kern \z@ }
l.111     \gplfronttext
                     
I've deleted a group-closing symbol because it seems to be
spurious, as in `$x}$'. But perhaps the } is legitimate and
you forgot something else, as in `\hbox{$x}'. In such cases
the way to recover is to insert both the forgotten and the
deleted material, e.g., by typing `I$}'.

! Missing $ inserted.
<inserted text> 
$
l.111     \gplfronttext
                     
I've inserted a begin-math/end-math symbol since I think
you left one out. Proceed, with fingers crossed.

! Missing } inserted.
<inserted text> 
}
l.111     \gplfronttext
                     
I've inserted something that you may have forgotten.
(See the <inserted text> above.)
With luck, this will get me unwedged. But if you
really didn't forget anything, try typing `2' now; then
my insertion and my current dilemma will both disappear.


! LaTeX Error: Missing \begin{document}.

See the LaTeX manual or LaTeX Companion for explanation.
Type  H <return>  for immediate help.
 ...                                              
                                                  
l.112   \end{picture}
                   %
You're in trouble here.  Try typing  <return>  to proceed.
If that doesn't work, type  X <return>  to quit.

)
! Emergency stop.
<*> osc.tex
        
*** (job aborted, no legal \end found)



Here is how much of LuaTeX's memory you used:
 40 strings out of 495119
 100000,89155 words of node,token memory allocated 2672 words of node memory still in use:
   60 hlist, 19 vlist, 2 rule, 1 local_par, 1 dir, 34 math, 111 glue, 45 kern, 7
8 glyph, 32 glue_spec, 1 temp nodes
   avail lists: 2:15,3:35,4:1,5:6,7:1,8:28
 3694 multiletter control sequences out of 65536+600000
 25 fonts using 1045927 bytes
 22i,7n,19p,122b,166s stack positions out of 5000i,500n,10000p,200000b,100000s
!  ==> Fatal error occurred, no output PDF file produced!
