\relax 
\providecommand\hyper@newdestlabel[2]{}
\providecommand\HyperFirstAtBeginDocument{\AtBeginDocument}
\HyperFirstAtBeginDocument{\ifx\hyper@anchor\@undefined
\global\let\oldcontentsline\contentsline
\gdef\contentsline#1#2#3#4{\oldcontentsline{#1}{#2}{#3}}
\global\let\oldnewlabel\newlabel
\gdef\newlabel#1#2{\newlabelxx{#1}#2}
\gdef\newlabelxx#1#2#3#4#5#6{\oldnewlabel{#1}{{#2}{#3}}}
\AtEndDocument{\ifx\hyper@anchor\@undefined
\let\contentsline\oldcontentsline
\let\newlabel\oldnewlabel
\fi}
\fi}
\global\let\hyper@last\relax 
\gdef\HyperFirstAtBeginDocument#1{#1}
\providecommand\HyField@AuxAddToFields[1]{}
\providecommand\HyField@AuxAddToCoFields[2]{}
\select@language{english}
\@writefile{toc}{\select@language{english}}
\@writefile{lof}{\select@language{english}}
\@writefile{lot}{\select@language{english}}
\@writefile{toc}{\contentsline {chapter}{\numberline {1}The Standard Model Lagrangian}{11}{chapter.1}}
\@writefile{lof}{\addvspace {10\p@ }}
\@writefile{lot}{\addvspace {10\p@ }}
\newlabel{ch:physicsofflavor}{{1}{11}{The Standard Model Lagrangian}{chapter.1}{}}
\@writefile{toc}{\contentsline {section}{\numberline {1.1}The bosonic sector}{12}{section.1.1}}
\@writefile{toc}{\contentsline {section}{\numberline {1.2}The fermionic sector}{14}{section.1.2}}
\newlabel{eq:EWlagr}{{1.28}{14}{The fermionic sector}{equation.1.2.28}{}}
\newlabel{eq:Zcoupling}{{1.29}{15}{The fermionic sector}{equation.1.2.29}{}}
\@writefile{toc}{\contentsline {section}{\numberline {1.3}The CKM matrix}{16}{section.1.3}}
\@writefile{toc}{\contentsline {chapter}{\numberline {2}Discrete symmetries }{19}{chapter.2}}
\@writefile{lof}{\addvspace {10\p@ }}
\@writefile{lot}{\addvspace {10\p@ }}
\@writefile{toc}{\contentsline {section}{\numberline {2.1}$C$, $P$ and $T$ symmetries}{19}{section.2.1}}
\@writefile{toc}{\contentsline {section}{\numberline {2.2}$C$, $P$ and $T$ in the Standard Model}{20}{section.2.2}}
\@writefile{toc}{\contentsline {section}{\numberline {2.3}Sakharov conditions}{22}{section.2.3}}
\@writefile{toc}{\contentsline {chapter}{\numberline {3}Neutrino physics}{25}{chapter.3}}
\@writefile{lof}{\addvspace {10\p@ }}
\@writefile{lot}{\addvspace {10\p@ }}
\@writefile{toc}{\contentsline {section}{\numberline {3.1}Neutrino masses}{25}{section.3.1}}
\@writefile{toc}{\contentsline {section}{\numberline {3.2}The see-saw mechanism}{26}{section.3.2}}
\@writefile{toc}{\contentsline {section}{\numberline {3.3}The PMNS matrix}{27}{section.3.3}}
\@writefile{toc}{\contentsline {section}{\numberline {3.4}The Standard Model flavor group}{28}{section.3.4}}
\@writefile{toc}{\contentsline {section}{\numberline {3.5}Phenomenology of massive neutrinos}{30}{section.3.5}}
\@writefile{toc}{\contentsline {subsection}{\numberline {3.5.1}Lepton flavor violation}{30}{subsection.3.5.1}}
\@writefile{toc}{\contentsline {subsection}{\numberline {3.5.2}Neutrinoless double beta decay}{31}{subsection.3.5.2}}
\@writefile{toc}{\contentsline {section}{\numberline {3.6}Neutrino oscillation}{32}{section.3.6}}
\@writefile{toc}{\contentsline {subsection}{\numberline {3.6.1}Oscillation in the vacuum}{33}{subsection.3.6.1}}
\newlabel{eq:nuosc}{{3.68}{34}{}{equation.3.6.68}{}}
\@writefile{lof}{\contentsline {figure}{\numberline {3.1}{\ignorespaces Probability to find an electronic neutrino from a source of electronic neutrinos as a function of the distance travelled in kilometers. I have chosen $\Delta m^2= 1$ eV$^2$, $E=1$ GeV, $\theta =1$. Notice that on great distances we can average the dependence on the distance and we are sensitive to the angle $\theta $ only: the expected mean probability at great distance is reported dot-dashed.\relax }}{35}{figure.caption.7}}
\providecommand*\caption@xref[2]{\@setref\relax\@undefined{#1}}
\newlabel{fig:nuosc}{{3.1}{35}{Probability to find an electronic neutrino from a source of electronic neutrinos as a function of the distance travelled in kilometers. I have chosen $\Delta m^2= 1$ eV$^2$, $E=1$ GeV, $\theta =1$. Notice that on great distances we can average the dependence on the distance and we are sensitive to the angle $\theta $ only: the expected mean probability at great distance is reported dot-dashed.\relax }{figure.caption.7}{}}
\newlabel{eq:oscprob1}{{3.75}{36}{}{equation.3.6.75}{}}
\newlabel{eq:sum||||}{{3.78}{36}{}{equation.3.6.78}{}}
\@writefile{toc}{\contentsline {subsection}{\numberline {3.6.2}Oscillation in the matter and the MSW effect}{38}{subsection.3.6.2}}
\@writefile{lof}{\contentsline {figure}{\numberline {3.2}{\ignorespaces The solar neutrinos expected flux spectrum. We show the neutrino flux spectra for different nuclear reaction producing electronic neutrinos, together with their uncertainties. On the top we show the energy range of neutrino experiments (Homestake -- Chlorine, Gallex -- Gallium, SNO, Super Kamiokande).\relax }}{39}{figure.caption.9}}
\newlabel{fig:solarnu}{{3.2}{39}{The solar neutrinos expected flux spectrum. We show the neutrino flux spectra for different nuclear reaction producing electronic neutrinos, together with their uncertainties. On the top we show the energy range of neutrino experiments (Homestake -- Chlorine, Gallex -- Gallium, SNO, Super Kamiokande).\relax }{figure.caption.9}{}}
\newlabel{eq:oscprobmatter}{{3.139}{44}{Oscillation in the matter and the MSW effect}{equation.3.6.139}{}}
\newlabel{eq:cos2thetam}{{3.142}{44}{Oscillation in the matter and the MSW effect}{equation.3.6.142}{}}
\@writefile{toc}{\contentsline {chapter}{\numberline {4}Determination of the CKM matrix elements}{47}{chapter.4}}
\@writefile{lof}{\addvspace {10\p@ }}
\@writefile{lot}{\addvspace {10\p@ }}
\@writefile{toc}{\contentsline {section}{\numberline {4.1}Chiral symmetries of QCD }{47}{section.4.1}}
\@writefile{toc}{\contentsline {section}{\numberline {4.2}$|V_{ud}|$ from superallowed $\beta $-decays}{50}{section.4.2}}
\@writefile{toc}{\contentsline {section}{\numberline {4.3}$|V_{us}|$ from semileptonic kaon decays}{52}{section.4.3}}
\@writefile{toc}{\contentsline {section}{\numberline {4.4}$|V_{cb}|$ and $|V_{ub}|$ from semileptonic $B$ meson decays}{53}{section.4.4}}
\@writefile{toc}{\contentsline {section}{\numberline {4.5}$|V_{td}|$ and $|V_{ts}|$ from $B$-$\mkern 1.5mu\overline  {\mkern -1.5muB\mkern -1.5mu}\mkern 1.5mu$ oscillation}{54}{section.4.5}}
\@writefile{toc}{\contentsline {section}{\numberline {4.6}Unitarity triangle and $CP$ violation}{54}{section.4.6}}
\newlabel{eq:VCKM}{{4.63}{55}{Unitarity triangle and $CP$ violation}{equation.4.6.63}{}}
\newlabel{eq:triangle}{{4.70}{56}{Unitarity triangle and $CP$ violation}{equation.4.6.70}{}}
\@writefile{lof}{\contentsline {figure}{\numberline {4.1}{\ignorespaces Level sets of $S_{\psi k_{s}}$ varying the value of $\beta $.\relax }}{58}{figure.caption.13}}
\newlabel{fig:S}{{4.1}{58}{Level sets of $S_{\psi k_{s}}$ varying the value of $\beta $.\relax }{figure.caption.13}{}}
\@writefile{lof}{\contentsline {figure}{\numberline {4.2}{\ignorespaces Qualitative plot of precision consistency check of $V_{\mathrm  {CKM}}$ parameters.\relax }}{58}{figure.caption.14}}
\newlabel{fig:flavor}{{4.2}{58}{Qualitative plot of precision consistency check of $V\ut {CKM}$ parameters.\relax }{figure.caption.14}{}}
\@writefile{toc}{\contentsline {chapter}{\numberline {5}Lepton flavor universality }{59}{chapter.5}}
\@writefile{lof}{\addvspace {10\p@ }}
\@writefile{lot}{\addvspace {10\p@ }}
\newlabel{ch:lfu}{{5}{59}{Lepton flavor universality}{chapter.5}{}}
\@writefile{toc}{\contentsline {section}{\numberline {5.1}Pion decay $\pi \DOTSB \relbar \joinrel \rightarrow \ell \nu _\ell $}{59}{section.5.1}}
\newlabel{eq:piondecayconstant}{{5.4}{59}{Pion decay $\pi \longrightarrow \ell \nu _\ell $}{equation.5.1.4}{}}
\newlabel{eq:piondecay}{{5.24}{61}{Pion decay $\pi \longrightarrow \ell \nu _\ell $}{equation.5.1.24}{}}
\@writefile{toc}{\contentsline {section}{\numberline {5.2}Radiative corrections for $\pi \DOTSB \relbar \joinrel \rightarrow \ell \nu _\ell $ }{61}{section.5.2}}
\newlabel{eq:ratioGammaemu}{{5.25}{61}{Radiative corrections for $\pi \longrightarrow \ell \nu _\ell $ }{equation.5.2.25}{}}
\@writefile{toc}{\contentsline {chapter}{\numberline {6}Effective Field Theories}{65}{chapter.6}}
\@writefile{lof}{\addvspace {10\p@ }}
\@writefile{lot}{\addvspace {10\p@ }}
\newlabel{ch:EWgaugetheory}{{6}{65}{Effective Field Theories}{chapter.6}{}}
\@writefile{toc}{\contentsline {section}{\numberline {6.1}General construction}{65}{section.6.1}}
\newlabel{sec:EFT}{{6.1}{65}{General construction}{section.6.1}{}}
\@writefile{toc}{\contentsline {section}{\numberline {6.2}$\psi -\phi $ Yukawa toy model}{65}{section.6.2}}
\@writefile{toc}{\contentsline {section}{\numberline {6.3}Fermi theory}{67}{section.6.3}}
\newlabel{eq:LWeff}{{6.14}{67}{Fermi theory}{equation.6.3.14}{}}
\newlabel{eq:Weff}{{6.18}{67}{Fermi theory}{equation.6.3.18}{}}
\newlabel{eq:LWeffFin}{{6.19}{68}{Fermi theory}{equation.6.3.19}{}}
\newlabel{eq:Zeff}{{6.21}{68}{Fermi theory}{equation.6.3.21}{}}
\newlabel{eq:LZeffFin}{{6.22}{68}{Fermi theory}{equation.6.3.22}{}}
\newlabel{eq:GFMW}{{6.31}{68}{Fermi theory}{equation.6.3.31}{}}
\@writefile{toc}{\contentsline {section}{\numberline {6.4}The Weinberg operator}{69}{section.6.4}}
\@writefile{toc}{\contentsline {section}{\numberline {6.5}Partial wave unitarity bounds}{69}{section.6.5}}
\newlabel{sec:unitaritybounds}{{6.5}{69}{Partial wave unitarity bounds}{section.6.5}{}}
\newlabel{eq:partialwavedecomposition}{{6.40}{70}{Partial wave unitarity bounds}{equation.6.5.40}{}}
\newlabel{eq:opt_unitarybounds}{{6.46}{70}{Partial wave unitarity bounds}{equation.6.5.46}{}}
\newlabel{eq:unitarityconstraints}{{6.50}{71}{Partial wave unitarity bounds}{equation.6.5.50}{}}
\@writefile{toc}{\contentsline {chapter}{\numberline {7}The Standard Model before LEP and the weak NC discovery}{73}{chapter.7}}
\@writefile{lof}{\addvspace {10\p@ }}
\@writefile{lot}{\addvspace {10\p@ }}
\@writefile{toc}{\contentsline {section}{\numberline {7.1}\lowercase {$\nu _\mu e^- \rightarrow \nu _\mu e^- $} and \lowercase {$\mkern 1.5mu\overline  {\mkern -1.5mu\nu \mkern -1.5mu}\mkern 1.5mu_\mu e^- \rightarrow \mkern 1.5mu\overline  {\mkern -1.5mu\nu \mkern -1.5mu}\mkern 1.5mu_\mu e^- $}}{73}{section.7.1}}
\newlabel{sec:NCgVgA}{{7.1}{73}{\lowercase {$\nu _\mu e^- \rightarrow \nu _\mu e^- $} and \lowercase {$\obar {\nu }_\mu e^- \rightarrow \obar {\nu }_\mu e^- $}}{section.7.1}{}}
\newlabel{eq:unpolamp_nue}{{7.11}{74}{\lowercase {$\nu _\mu e^- \rightarrow \nu _\mu e^- $} and \lowercase {$\obar {\nu }_\mu e^- \rightarrow \obar {\nu }_\mu e^- $}}{equation.7.1.11}{}}
\newlabel{eq:crossnumue}{{7.20}{75}{\lowercase {$\nu _\mu e^- \rightarrow \nu _\mu e^- $} and \lowercase {$\obar {\nu }_\mu e^- \rightarrow \obar {\nu }_\mu e^- $}}{equation.7.1.20}{}}
\newlabel{eq:crossantinumue}{{7.25}{75}{\lowercase {$\nu _\mu e^- \rightarrow \nu _\mu e^- $} and \lowercase {$\obar {\nu }_\mu e^- \rightarrow \obar {\nu }_\mu e^- $}}{equation.7.1.25}{}}
\@writefile{toc}{\contentsline {section}{\numberline {7.2} \lowercase {$ {\nu }_e e^- \rightarrow {\nu }_e e^-$} and \lowercase {$\mkern 1.5mu\overline  {\mkern -1.5mu\nu \mkern -1.5mu}\mkern 1.5mu_e e^- \rightarrow \mkern 1.5mu\overline  {\mkern -1.5mu\nu \mkern -1.5mu}\mkern 1.5mu_e e^-$}}{76}{section.7.2}}
\newlabel{eq:MCC}{{7.28}{76}{ \lowercase {$ {\nu }_e e^- \rightarrow {\nu }_e e^-$} and \lowercase {$\obar {\nu }_e e^- \rightarrow \obar {\nu }_e e^-$}}{equation.7.2.28}{}}
\newlabel{eq:crossantinuee}{{7.31}{76}{ \lowercase {$ {\nu }_e e^- \rightarrow {\nu }_e e^-$} and \lowercase {$\obar {\nu }_e e^- \rightarrow \obar {\nu }_e e^-$}}{equation.7.2.31}{}}
\@writefile{lof}{\contentsline {figure}{\numberline {7.1}{\ignorespaces Qualitative plot of consistency check of the NC sector of EW theory.\relax }}{77}{figure.caption.15}}
\newlabel{fig:flavor}{{7.1}{77}{Qualitative plot of consistency check of the NC sector of EW theory.\relax }{figure.caption.15}{}}
\@writefile{toc}{\contentsline {section}{\numberline {7.3} \lowercase {$e^+ e^- \rightarrow \mu ^+\mu ^-$} cross section and forward-backeard asymmetry }{77}{section.7.3}}
\newlabel{sec:e+e-mu+mu-}{{7.3}{77}{ \lowercase {$e^+ e^- \rightarrow \mu ^+\mu ^-$} cross section and forward-backeard asymmetry }{section.7.3}{}}
\newlabel{eq:e+e-mu+mu-_Fermi}{{7.42}{78}{ \lowercase {$e^+ e^- \rightarrow \mu ^+\mu ^-$} cross section and forward-backeard asymmetry }{equation.7.3.42}{}}
\newlabel{eq:defABe+e-mu+mu-}{{7.53}{79}{ \lowercase {$e^+ e^- \rightarrow \mu ^+\mu ^-$} cross section and forward-backeard asymmetry }{equation.7.3.53}{}}
\@writefile{toc}{\contentsline {chapter}{\numberline {8}The Standard Model at LEP}{81}{chapter.8}}
\@writefile{lof}{\addvspace {10\p@ }}
\@writefile{lot}{\addvspace {10\p@ }}
\@writefile{toc}{\contentsline {section}{\numberline {8.1}The optical theorem and the $Z$ boson propagator}{81}{section.8.1}}
\newlabel{eq:opt1}{{8.7}{81}{The optical theorem and the $Z$ boson propagator}{equation.8.1.7}{}}
\newlabel{eq:opt2}{{8.10}{82}{The optical theorem and the $Z$ boson propagator}{equation.8.1.10}{}}
\newlabel{eq:genopt}{{8.11}{82}{The optical theorem and the $Z$ boson propagator}{equation.8.1.11}{}}
\newlabel{eq:ImTZZ}{{8.14}{82}{The optical theorem and the $Z$ boson propagator}{equation.8.1.14}{}}
\@writefile{toc}{\contentsline {section}{\numberline {8.2}\lowercase {$e^+e^- \rightarrow \mu ^+\mu ^-$} cross-section and forward-backward asymmetry}{83}{section.8.2}}
\newlabel{eq:crossZpole}{{8.31}{84}{\lowercase {$e^+e^- \rightarrow \mu ^+\mu ^-$} cross-section and forward-backward asymmetry}{equation.8.2.31}{}}
\@writefile{toc}{\contentsline {section}{\numberline {8.3}The determination of $M_Z$, $\Gamma _Z$ and the neutrino number $N_\nu $}{84}{section.8.3}}
\newlabel{eq:decayZff}{{8.34}{84}{The determination of $M_Z$, $\Gamma _Z$ and the neutrino number $N_\nu $}{equation.8.3.34}{}}
\@writefile{lof}{\contentsline {figure}{\numberline {8.1}{\ignorespaces Qualitative plot of the cross section for the $e^+e^-\rightarrow \mu ^+\mu ^-$ process near the $Z$ pole.\relax }}{85}{figure.caption.16}}
\newlabel{fig:crossZpole}{{8.1}{85}{Qualitative plot of the cross section for the $e^+e^-\rightarrow \mu ^+\mu ^-$ process near the $Z$ pole.\relax }{figure.caption.16}{}}
\newlabel{eq:gammaZ}{{8.36}{85}{The determination of $M_Z$, $\Gamma _Z$ and the neutrino number $N_\nu $}{equation.8.3.36}{}}
\@writefile{toc}{\contentsline {section}{\numberline {8.4}The non abelian structure of the Standard Model: \lowercase {$e^+e^- \rightarrow $}$ W^+W^- $}{85}{section.8.4}}
\newlabel{sec:nonabelianity}{{8.4}{85}{The non abelian structure of the Standard Model: \lowercase {$e^+e^- \rightarrow $}$ W^+W^- $}{section.8.4}{}}
\@writefile{lof}{\contentsline {figure}{\numberline {8.2}{\ignorespaces Measurements of the hadron production cross-section around the Z resonance. The curves indicate the predicted cross-section for two, three and four neutrino species with SM couplings and negligible mass. Figure from \url  {https://arxiv.org/abs/hep-ex/0509008}.\relax }}{86}{figure.caption.17}}
\newlabel{fig:Nnu}{{8.2}{86}{Measurements of the hadron production cross-section around the Z resonance. The curves indicate the predicted cross-section for two, three and four neutrino species with SM couplings and negligible mass. Figure from \url {https://arxiv.org/abs/hep-ex/0509008}.\relax }{figure.caption.17}{}}
\newlabel{eq:highenergypol}{{8.44}{87}{The non abelian structure of the Standard Model: \lowercase {$e^+e^- \rightarrow $}$ W^+W^- $}{equation.8.4.44}{}}
\newlabel{diag:rules_egamma_eZ}{{8.46}{87}{The non abelian structure of the Standard Model: \lowercase {$e^+e^- \rightarrow $}$ W^+W^- $}{equation.8.4.46}{}}
\@writefile{toc}{\contentsline {subsubsection}{Amplitude for $e_R^-$}{88}{subsubsection*.18}}
\newlabel{eq:eR-}{{8.49}{88}{Amplitude for $e_R^-$}{equation.8.4.49}{}}
\newlabel{eq:eL-s}{{8.53}{89}{}{equation.8.4.53}{}}
\newlabel{eq:badb}{{8.54}{89}{}{equation.8.4.54}{}}
\@writefile{toc}{\contentsline {section}{\numberline {8.5}The Goldstone boson equivalence theorem}{90}{section.8.5}}
\newlabel{sec:GBET}{{8.5}{90}{The Goldstone boson equivalence theorem}{section.8.5}{}}
\@writefile{lof}{\contentsline {figure}{\numberline {8.3}{\ignorespaces Plot of the experimental cross section $\sigma (e^+e^- \rightarrow W^+ W^-)$ obtained at LEP2 (figure from \url  {https://arxiv.org/abs/hep-ph/0004103})\relax }}{91}{figure.caption.19}}
\newlabel{fig:LEPeeWW}{{8.3}{91}{Plot of the experimental cross section $\sigma (e^+e^- \rightarrow W^+ W^-)$ obtained at LEP2 (figure from \url {https://arxiv.org/abs/hep-ph/0004103})\relax }{figure.caption.19}{}}
\@writefile{toc}{\contentsline {subsection}{\numberline {8.5.1}${e^+e^- \rightarrow W^+ W^-}$}{92}{subsection.8.5.1}}
\newlabel{eq:Lcase}{{8.70}{93}{${e^+e^- \rightarrow W^+ W^-}$}{equation.8.5.70}{}}
\@writefile{toc}{\contentsline {subsection}{\numberline {8.5.2}${t\rightarrow W^+ b}$}{93}{subsection.8.5.2}}
\newlabel{eq:GammatWb}{{8.76}{94}{${t\rightarrow W^+ b}$}{equation.8.5.76}{}}
\@writefile{toc}{\contentsline {subsection}{\numberline {8.5.3}$W^+W^-\rightarrow W^+ W^-$ and the no-lose-Higgs theorem}{95}{subsection.8.5.3}}
\@writefile{toc}{\contentsline {chapter}{\numberline {9}Renormalization}{99}{chapter.9}}
\@writefile{lof}{\addvspace {10\p@ }}
\@writefile{lot}{\addvspace {10\p@ }}
\newlabel{ch:loop}{{9}{99}{Renormalization}{chapter.9}{}}
\@writefile{toc}{\contentsline {section}{\numberline {9.1}Dimensional regularization and subtraction schemes}{100}{section.9.1}}
\newlabel{sec:renormalization}{{9.1}{100}{Dimensional regularization and subtraction schemes}{section.9.1}{}}
\newlabel{eq:divdiagQED}{{9.5}{101}{Dimensional regularization and subtraction schemes}{equation.9.1.5}{}}
\newlabel{eq:renLagQED}{{9.16}{102}{}{equation.9.1.16}{}}
\newlabel{eq:counterterms}{{9.17}{102}{}{equation.9.1.17}{}}
\newlabel{eq:Z}{{9.18}{103}{}{equation.9.1.18}{}}
\newlabel{eq:loopint}{{9.22}{103}{}{equation.9.1.22}{}}
\newlabel{eq:tensormaster}{{9.33}{104}{}{equation.9.1.33}{}}
\newlabel{eq:Irmpoles}{{9.34}{104}{}{equation.9.1.34}{}}
\@writefile{toc}{\contentsline {section}{\numberline {9.2}Vacuum polarization}{106}{section.9.2}}
\newlabel{sec:vacuum}{{9.2}{106}{Vacuum polarization}{section.9.2}{}}
\newlabel{eq:renField}{{9.46}{106}{Vacuum polarization}{equation.9.2.46}{}}
\newlabel{eq:muM}{{9.60}{107}{Vacuum polarization}{equation.9.2.60}{}}
\newlabel{eq:effch}{{9.72}{109}{Vacuum polarization}{equation.9.2.72}{}}
\@writefile{lof}{\contentsline {figure}{\numberline {9.1}{\ignorespaces Sketch of the vacuum polarization effect: virtual $e^+e^-$ pairs are effectively dipoles of length $\sim 1/m$ which screen the bare charge of the electron.\relax }}{110}{figure.caption.20}}
\newlabel{fig:vacpol}{{9.1}{110}{Sketch of the vacuum polarization effect: virtual $e^+e^-$ pairs are effectively dipoles of length $\sim 1/m$ which screen the bare charge of the electron.\relax }{figure.caption.20}{}}
\@writefile{lof}{\contentsline {figure}{\numberline {9.2}{\ignorespaces Plot of the behavior of coupling constants of the SM fundamental interactions (strong, electromagnetic, weak) as a function of the energy scale of physical processes. Note how the lines intersecate at the GUT scales.\relax }}{110}{figure.caption.21}}
\newlabel{fig:coupling}{{9.2}{110}{Plot of the behavior of coupling constants of the SM fundamental interactions (strong, electromagnetic, weak) as a function of the energy scale of physical processes. Note how the lines intersecate at the GUT scales.\relax }{figure.caption.21}{}}
\@writefile{toc}{\contentsline {section}{\numberline {9.3}Electron self-energy}{111}{section.9.3}}
\@writefile{toc}{\contentsline {section}{\numberline {9.4}Vertex correction}{112}{section.9.4}}
\newlabel{sec:vertex}{{9.4}{112}{Vertex correction}{section.9.4}{}}
\@writefile{toc}{\contentsline {section}{\numberline {9.5}The anomalous magnetic moment $g-2$}{114}{section.9.5}}
\newlabel{eq:KGlike}{{9.125}{116}{The anomalous magnetic moment $g-2$}{equation.9.5.125}{}}
\newlabel{eq:HamAnomalous}{{9.127}{116}{The anomalous magnetic moment $g-2$}{equation.9.5.127}{}}
\@writefile{toc}{\contentsline {section}{\numberline {9.6}Ward identity of QED}{117}{section.9.6}}
\@writefile{toc}{\contentsline {chapter}{\numberline {10}Electro-Weak Precision Tests}{123}{chapter.10}}
\@writefile{lof}{\addvspace {10\p@ }}
\@writefile{lot}{\addvspace {10\p@ }}
\newlabel{sec:EWPT}{{10}{123}{Electro-Weak Precision Tests}{chapter.10}{}}
\@writefile{toc}{\contentsline {section}{\numberline {10.1}Oblique corrections}{125}{section.10.1}}
\newlabel{eq:doubleblob}{{10.18}{126}{}{equation.10.1.18}{}}
\newlabel{eq:G1loop}{{10.27}{127}{}{equation.10.1.27}{}}
\newlabel{eq:Pi'}{{10.38}{129}{}{equation.10.1.38}{}}
\newlabel{eq:alpha1loop}{{10.39}{129}{}{equation.10.1.39}{}}
\newlabel{eq:GF1loop}{{10.40}{129}{}{equation.10.1.40}{}}
\newlabel{eq:M1loop}{{10.41}{129}{}{equation.10.1.41}{}}
\@writefile{toc}{\contentsline {section}{\numberline {10.2}Computation of EW vacuum polarization loops}{130}{section.10.2}}
\@writefile{toc}{\contentsline {section}{\numberline {10.3}Custodial $SU(2)_C$ symmetry}{133}{section.10.3}}
\@writefile{toc}{\contentsline {section}{\numberline {10.4}Corrections to the $\rho $ - parameter}{136}{section.10.4}}
\@writefile{toc}{\contentsline {subsection}{\numberline {10.4.1}Top-quark contribution }{136}{subsection.10.4.1}}
\@writefile{toc}{\contentsline {subsection}{\numberline {10.4.2}Higgs-boson contribution}{137}{subsection.10.4.2}}
\@writefile{toc}{\contentsline {section}{\numberline {10.5}Corrections to the $Z$ boson partial decay widths*}{140}{section.10.5}}
\newlabel{eq:GammaZff1loop}{{10.115}{140}{}{equation.10.5.115}{}}
\@writefile{toc}{\contentsline {section}{\numberline {10.6}Corrections in the \textit  {gaugeless limit}* }{144}{section.10.6}}
\newlabel{eq:Zbblag}{{10.143}{145}{Corrections in the \textit {gaugeless limit}* }{equation.10.6.143}{}}
\newlabel{eq:ZbbFrules}{{10.144}{145}{Corrections in the \textit {gaugeless limit}* }{equation.10.6.144}{}}
\newlabel{eq:ZbbLeff}{{10.145}{145}{Corrections in the \textit {gaugeless limit}* }{equation.10.6.145}{}}
\@writefile{toc}{\contentsline {subsection}{\numberline {10.6.1}Corrections to the $\rho $ - parameter}{146}{subsection.10.6.1}}
\@writefile{toc}{\contentsline {subsection}{\numberline {10.6.2}Correction to the $Z \rightarrow \mkern 1.5mu\overline  {\mkern -1.5mub\mkern -1.5mu}\mkern 1.5mub$ decay rate}{149}{subsection.10.6.2}}
\@writefile{toc}{\contentsline {section}{\numberline {10.7}The $\mathcal  {S}$, $\mathcal  {T}$ and $\mathcal  {U}$ parameters*}{151}{section.10.7}}
\newlabel{STUparams}{{10.188}{151}{The $\mathcal {S}$, $\mathcal {T}$ and $\mathcal {U}$ parameters*}{equation.10.7.188}{}}
\@writefile{lof}{\contentsline {figure}{\numberline {10.1}{\ignorespaces Contours of 68\%, 95\%, and 99\% CL in the $\mathcal  {TS}$-plane. The dark region shows the prediction within the SM. $M_h$=120 GeV and $m_t$=173.1 GeV defines the reference point at which all oblique parameters vanish. Contours from fits to the EW precision data, predictions within the SM, and predictions from various new physics models are compared ($M_h$ and new physics parameters are floating parameters). Figure from the GFitter collaboration \url  {http://gfitter.desy.de/Oblique_Parameters/2011_08_19_index.html}.\relax }}{152}{figure.caption.23}}
\newlabel{fig:STU}{{10.1}{152}{Contours of 68\%, 95\%, and 99\% CL in the $\mathcal {TS}$-plane. The dark region shows the prediction within the SM. $M_h$=120 GeV and $m_t$=173.1 GeV defines the reference point at which all oblique parameters vanish. Contours from fits to the EW precision data, predictions within the SM, and predictions from various new physics models are compared ($M_h$ and new physics parameters are floating parameters). Figure from the GFitter collaboration \url {http://gfitter.desy.de/Oblique_Parameters/2011_08_19_index.html}.\relax }{figure.caption.23}{}}
\@writefile{toc}{\contentsline {chapter}{\numberline {11}Flavor Changing Neutral Currents}{153}{chapter.11}}
\@writefile{lof}{\addvspace {10\p@ }}
\@writefile{lot}{\addvspace {10\p@ }}
\newlabel{sec:FCNC}{{11}{153}{Flavor Changing Neutral Currents}{chapter.11}{}}
\@writefile{toc}{\contentsline {section}{\numberline {11.1}Meson-antimeson oscillation}{153}{section.11.1}}
\newlabel{par:mantimosc}{{11.1}{153}{Meson-antimeson oscillation}{section.11.1}{}}
\newlabel{eq:deltamdeltagamma}{{11.24}{155}{Meson-antimeson oscillation}{equation.11.1.24}{}}
\newlabel{eq:q/p^2}{{11.33}{156}{Meson-antimeson oscillation}{equation.11.1.33}{}}
\@writefile{toc}{\contentsline {section}{\numberline {11.2}FCNC in the SM and the GIM mechanism}{157}{section.11.2}}
\newlabel{par:SMFCNC}{{11.2}{157}{FCNC in the SM and the GIM mechanism}{section.11.2}{}}
\newlabel{eq:deltas}{{11.48}{158}{FCNC in the SM and the GIM mechanism}{equation.11.2.48}{}}
\@writefile{toc}{\contentsline {chapter}{\numberline {12}Anomalies}{161}{chapter.12}}
\@writefile{lof}{\addvspace {10\p@ }}
\@writefile{lot}{\addvspace {10\p@ }}
\newlabel{sec:anomalies}{{12}{161}{Anomalies}{chapter.12}{}}
\@writefile{toc}{\contentsline {section}{\numberline {12.1}Axial-vector current anomaly and $\pi ^0 \rightarrow \gamma \gamma $}{162}{section.12.1}}
\newlabel{par:axialWard}{{12.1}{162}{Axial-vector current anomaly and $\pi ^0 \rightarrow \gamma \gamma $}{section.12.1}{}}
\@writefile{toc}{\contentsline {section}{\numberline {12.2}ABJ anomalies}{163}{section.12.2}}
\newlabel{eq:axialWard1loop}{{12.25}{164}{ABJ anomalies}{equation.12.2.25}{}}
\newlabel{eq:Deltaint}{{12.26}{164}{ABJ anomalies}{equation.12.2.26}{}}
\newlabel{eq:linshift}{{12.34}{166}{ABJ anomalies}{equation.12.2.34}{}}
\newlabel{eq:ashift}{{12.35}{166}{ABJ anomalies}{equation.12.2.35}{}}
\newlabel{eq:ambiguity}{{12.36}{166}{ABJ anomalies}{equation.12.2.36}{}}
\newlabel{eq:axialanomaly}{{12.43}{167}{ABJ anomalies}{equation.12.2.43}{}}
\newlabel{eq:vectoranomaly}{{12.47}{167}{ABJ anomalies}{equation.12.2.47}{}}
\@writefile{toc}{\contentsline {section}{\numberline {12.3}Anomalies in the Standard Model }{168}{section.12.3}}
\newlabel{par:ABJSM}{{12.3}{168}{Anomalies in the Standard Model }{section.12.3}{}}
\newlabel{eq:baryonanomaly}{{12.63}{170}{}{equation.12.3.63}{}}
\newlabel{eq:leptonanomaly}{{12.65}{170}{}{equation.12.3.65}{}}
\@writefile{toc}{\contentsline {chapter}{\numberline {13}Higgs physics}{171}{chapter.13}}
\@writefile{lof}{\addvspace {10\p@ }}
\@writefile{lot}{\addvspace {10\p@ }}
\newlabel{sec:higgs}{{13}{171}{Higgs physics}{chapter.13}{}}
\@writefile{lof}{\contentsline {figure}{\numberline {13.1}{\ignorespaces Plot of the Higgs resonant peak at $M_h \approx 125$ GeV in the $gg \rightarrow \gamma \gamma $ channel at CMS (LHC) at CERN. Figure from \url  {https://arxiv.org/abs/1510.01924}.\relax }}{171}{figure.caption.25}}
\newlabel{fig:higgsdisco}{{13.1}{171}{Plot of the Higgs resonant peak at $M_h \approx 125$ GeV in the $gg \rightarrow \gamma \gamma $ channel at CMS (LHC) at CERN. Figure from \url {https://arxiv.org/abs/1510.01924}.\relax }{figure.caption.25}{}}
\@writefile{toc}{\contentsline {section}{\numberline {13.1}Theoretical bounds on $M_h$: triviality and vacuum stability bounds}{171}{section.13.1}}
\newlabel{eq:counter}{{13.14}{173}{}{equation.13.1.14}{}}
\newlabel{eq:BETA}{{13.21}{175}{}{equation.13.1.21}{}}
\newlabel{eq:betafunc}{{13.28}{176}{}{equation.13.1.28}{}}
\newlabel{eq:deltah}{{13.54}{182}{}{equation.13.1.54}{}}
\newlabel{eq:betaeq}{{13.61}{184}{}{equation.13.1.61}{}}
\newlabel{eq:betalambda}{{13.64}{184}{}{equation.13.1.64}{}}
\@writefile{lof}{\contentsline {figure}{\numberline {13.2}{\ignorespaces Perturbativity (triviality) bounds for two arbitrary values of $\lambda (v)$ and vacuum stability bound on the Higgs mass. The regions probed by LEP and Tevatron in which no Higgs boson was found are also shown. The allowed region for the Higgs mass is below the $\lambda $ curves and above the stability bound. Figure from \url  {https://arxiv.org/abs/0906.0954}.\relax }}{185}{figure.caption.26}}
\newlabel{fig:triviality}{{13.2}{185}{Perturbativity (triviality) bounds for two arbitrary values of $\lambda (v)$ and vacuum stability bound on the Higgs mass. The regions probed by LEP and Tevatron in which no Higgs boson was found are also shown. The allowed region for the Higgs mass is below the $\lambda $ curves and above the stability bound. Figure from \url {https://arxiv.org/abs/0906.0954}.\relax }{figure.caption.26}{}}
\@writefile{lof}{\contentsline {figure}{\numberline {13.3}{\ignorespaces Left -- regions of absolute stability, meta-stability and instability of the SM vacuum in the $M_h - m_t$ (pole masses) plane. Right -- Zoom in the region of the preferred experimental range of $M_h$ and $m_t$; the gray areas denote the allowed regions at 1, 2 and $3\sigma $. The three boundary lines correspond to $\alpha _s (M_Z)= 0.1184\pm 0.0007$, and the grading of the colors indicates the size of the theoretical error. The dotted countour-lines show the instability scale $\Lambda $ in GeV assuming $\alpha _s(M_Z)=0.1184$. Figure from \url  {https://arxiv.org/abs/1205.6497}.\relax }}{186}{figure.caption.27}}
\newlabel{fig:stability}{{13.3}{186}{Left -- regions of absolute stability, meta-stability and instability of the SM vacuum in the $M_h - m_t$ (pole masses) plane. Right -- Zoom in the region of the preferred experimental range of $M_h$ and $m_t$; the gray areas denote the allowed regions at 1, 2 and $3\sigma $. The three boundary lines correspond to $\alpha _s (M_Z)= 0.1184\pm 0.0007$, and the grading of the colors indicates the size of the theoretical error. The dotted countour-lines show the instability scale $\Lambda $ in GeV assuming $\alpha _s(M_Z)=0.1184$. Figure from \url {https://arxiv.org/abs/1205.6497}.\relax }{figure.caption.27}{}}
\@writefile{toc}{\contentsline {section}{\numberline {13.2}Experimental bounds on $M_h$}{186}{section.13.2}}
\@writefile{lof}{\contentsline {figure}{\numberline {13.4}{\ignorespaces Dependence on Higgs boson mass $M_h$ of the $\Delta \chi ^2$ function obtained from the global fit of the SM parameters to precision electroweak data, excluding (left) or including (right) the results from direct searches at LEP and the Tevatron. Figure from \url  {https://arxiv.org/abs/0906.0954}.\relax }}{188}{figure.caption.28}}
\newlabel{fig:higgsfit}{{13.4}{188}{Dependence on Higgs boson mass $M_h$ of the $\Delta \chi ^2$ function obtained from the global fit of the SM parameters to precision electroweak data, excluding (left) or including (right) the results from direct searches at LEP and the Tevatron. Figure from \url {https://arxiv.org/abs/0906.0954}.\relax }{figure.caption.28}{}}
\@writefile{toc}{\contentsline {section}{\numberline {13.3}Higgs production: gluon-gluon fusion and the parton model}{188}{section.13.3}}
\@writefile{lof}{\contentsline {figure}{\numberline {13.5}{\ignorespaces The NNPDF3.1 NNLO PDFs, evaluated at $\mu ^2=10$ GeV$^2$ (left) and $\mu ^2=10^4$ GeV$^2$ (right) obtained by the NNPDF collaboration from high-precision collider data. Figure from \url  {https://arxiv.org/abs/1706.00428} .\relax }}{189}{figure.caption.29}}
\newlabel{fig:parton}{{13.5}{189}{The NNPDF3.1 NNLO PDFs, evaluated at $\mu ^2=10$ GeV$^2$ (left) and $\mu ^2=10^4$ GeV$^2$ (right) obtained by the NNPDF collaboration from high-precision collider data. Figure from \url {https://arxiv.org/abs/1706.00428} .\relax }{figure.caption.29}{}}
\@writefile{lof}{\contentsline {figure}{\numberline {13.6}{\ignorespaces Gluon-gluon fusion cross section at $\sqrt  {S} = 7$ and 14 TeV for $pp$ collisions at the LHC and at $\sqrt  {S} = 1.96$ TeV for $\mkern 1.5mu\overline  {\mkern -1.5mup\mkern -1.5mu}\mkern 1.5mup$ collisions at Tevatron. \relax }}{190}{figure.caption.30}}
\newlabel{fig:higgshgg}{{13.6}{190}{Gluon-gluon fusion cross section at $\sqrt {S} = 7$ and 14 TeV for $pp$ collisions at the LHC and at $\sqrt {S} = 1.96$ TeV for $\obar {p}p$ collisions at Tevatron. \relax }{figure.caption.30}{}}
\@writefile{toc}{\contentsline {section}{\numberline {13.4}Higgs decay modes}{190}{section.13.4}}
\@writefile{toc}{\contentsline {subsection}{\numberline {13.4.1}\lowercase {$h\rightarrow \mkern 1.5mu\overline  {\mkern -1.5muf\mkern -1.5mu}\mkern 1.5muf$}}{191}{subsection.13.4.1}}
\@writefile{toc}{\contentsline {subsection}{\numberline {13.4.2}\lowercase {$h\rightarrow gg$ and $h\rightarrow \gamma \gamma $}}{192}{subsection.13.4.2}}
\@writefile{lof}{\contentsline {figure}{\numberline {13.7}{\ignorespaces Higgs decays branching ratios as functions of the Higgs boson mass, including NLO corrections. Figure from \url  {https://arxiv.org/abs/hep-ph/9712334}\relax }}{192}{figure.caption.31}}
\newlabel{fig:higgsBR}{{13.7}{192}{Higgs decays branching ratios as functions of the Higgs boson mass, including NLO corrections. Figure from \url {https://arxiv.org/abs/hep-ph/9712334}\relax }{figure.caption.31}{}}
\newlabel{eq:hgg}{{13.93}{193}{\lowercase {$h\rightarrow gg$ and $h\rightarrow \gamma \gamma $}}{equation.13.4.93}{}}
\@writefile{toc}{\contentsline {subsubsection}{Full calculation of the diagrams*}{193}{subsubsection*.33}}
\@writefile{toc}{\contentsline {chapter}{\numberline {14}Exercises}{205}{chapter.14}}
\@writefile{lof}{\addvspace {10\p@ }}
\@writefile{lot}{\addvspace {10\p@ }}
\@writefile{toc}{\contentsline {section}{\numberline {14.1}Exercise 1}{205}{section.14.1}}
\newlabel{ex:1}{{14.1}{205}{Exercise 1}{section.14.1}{}}
\@writefile{toc}{\contentsline {subparagraph}{Text}{205}{subparagraph*.34}}
\@writefile{toc}{\contentsline {subparagraph}{Solution}{205}{subparagraph*.35}}
\@writefile{toc}{\contentsline {section}{\numberline {14.2}Exercise 2}{209}{section.14.2}}
\@writefile{lof}{\contentsline {figure}{\numberline {14.1}{\ignorespaces Zoom at low energies of the total cross section for different values of the electron mass. In red we show the low-energy approximation in the massless limit: we see that the approximation fits perfectly the general expression for $m_e \not =0$.\relax }}{212}{figure.caption.36}}
\newlabel{fig:Lecross}{{14.1}{212}{Zoom at low energies of the total cross section for different values of the electron mass. In red we show the low-energy approximation in the massless limit: we see that the approximation fits perfectly the general expression for $m_e \neq 0$.\relax }{figure.caption.36}{}}
\@writefile{lof}{\contentsline {figure}{\numberline {14.2}{\ignorespaces Plot of the total cross section and comparison with the high-energy and low-energy approximations in the massless limit. Both the general cross-section and the high energy approximation converge to about $4.29\times 10^{-8}$ GeV$^{-1}$.\relax }}{212}{figure.caption.37}}
\newlabel{fig:cross2}{{14.2}{212}{Plot of the total cross section and comparison with the high-energy and low-energy approximations in the massless limit. Both the general cross-section and the high energy approximation converge to about $4.29\times 10^{-8}$ GeV$^{-1}$.\relax }{figure.caption.37}{}}
\newlabel{eq:crossHE}{{14.80}{214}{}{equation.14.2.80}{}}
\@writefile{lof}{\contentsline {figure}{\numberline {14.3}{\ignorespaces Comparison between the general ($m=0.511$ Mev) cross sections of the first two processes.\relax }}{215}{figure.caption.38}}
\newlabel{fig:comparison}{{14.3}{215}{Comparison between the general ($m=0.511$ Mev) cross sections of the first two processes.\relax }{figure.caption.38}{}}
\newlabel{eq:bellissima}{{14.92}{216}{}{equation.14.2.92}{}}
\@writefile{lof}{\contentsline {figure}{\numberline {14.4}{\ignorespaces Comparison between the cross-sections computed in the exercise. The $m_e=0$ approximation exploited in the last two is an excellent one.\relax }}{218}{figure.caption.39}}
\newlabel{fig:crosstutte}{{14.4}{218}{Comparison between the cross-sections computed in the exercise. The $m_e=0$ approximation exploited in the last two is an excellent one.\relax }{figure.caption.39}{}}
\@writefile{toc}{\contentsline {section}{\numberline {14.3}Exercise 3}{218}{section.14.3}}
\@writefile{toc}{\contentsline {section}{\numberline {14.4}Exercise 4}{222}{section.14.4}}
\newlabel{eq:Zdecay}{{14.139}{223}{}{equation.14.4.139}{}}
\@writefile{toc}{\contentsline {section}{\numberline {14.5}Exercise 5}{225}{section.14.5}}
\@writefile{toc}{\contentsline {subparagraph}{Text}{225}{subparagraph*.42}}
\@writefile{toc}{\contentsline {subparagraph}{Solution}{226}{subparagraph*.43}}
\newlabel{eq:NW}{{14.185}{228}{Solution}{equation.14.5.185}{}}
\@writefile{toc}{\contentsline {chapter}{\numberline {A}Reference formulae}{233}{appendix.A}}
\@writefile{lof}{\addvspace {10\p@ }}
\@writefile{lot}{\addvspace {10\p@ }}
\@writefile{toc}{\contentsline {section}{\numberline {A.1}$\lowercase {\gamma }$ matrices and Fierz identities}{233}{section.A.1}}
\newlabel{eq:gammatraces}{{A.1}{233}{$\lowercase {\gamma }$ matrices and Fierz identities}{equation.A.1.1}{}}
\@writefile{toc}{\contentsline {section}{\numberline {A.2}Cross sections and decay rates}{234}{section.A.2}}
\newlabel{eq:crosssection}{{A.8}{234}{Cross sections and decay rates}{equation.A.2.8}{}}
\newlabel{eq:decayrate_2body}{{A.11}{234}{Cross sections and decay rates}{equation.A.2.11}{}}
