\relax 
\providecommand\hyper@newdestlabel[2]{}
\providecommand\HyperFirstAtBeginDocument{\AtBeginDocument}
\HyperFirstAtBeginDocument{\ifx\hyper@anchor\@undefined
\global\let\oldcontentsline\contentsline
\gdef\contentsline#1#2#3#4{\oldcontentsline{#1}{#2}{#3}}
\global\let\oldnewlabel\newlabel
\gdef\newlabel#1#2{\newlabelxx{#1}#2}
\gdef\newlabelxx#1#2#3#4#5#6{\oldnewlabel{#1}{{#2}{#3}}}
\AtEndDocument{\ifx\hyper@anchor\@undefined
\let\contentsline\oldcontentsline
\let\newlabel\oldnewlabel
\fi}
\fi}
\global\let\hyper@last\relax 
\gdef\HyperFirstAtBeginDocument#1{#1}
\providecommand\HyField@AuxAddToFields[1]{}
\providecommand\HyField@AuxAddToCoFields[2]{}
\select@language{english}
\@writefile{toc}{\select@language{english}}
\@writefile{lof}{\select@language{english}}
\@writefile{lot}{\select@language{english}}
\@writefile{toc}{\contentsline {chapter}{\numberline {1}Physics of flavor}{7}{chapter.1}}
\@writefile{lof}{\addvspace {10\p@ }}
\@writefile{lot}{\addvspace {10\p@ }}
\@writefile{toc}{\contentsline {section}{\numberline {1.1}The SM Lagrangian}{7}{section.1.1}}
\@writefile{toc}{\contentsline {subsection}{\numberline {1.1.1}Bosons}{8}{subsection.1.1.1}}
\@writefile{toc}{\contentsline {subsection}{\numberline {1.1.2}Fermions and flavor}{10}{subsection.1.1.2}}
\newlabel{eq:EWlagr}{{1.29}{10}{Fermions and flavor}{equation.1.1.29}{}}
\newlabel{eq:Zcoupling}{{1.30}{11}{Fermions and flavor}{equation.1.1.30}{}}
\@writefile{toc}{\contentsline {subsection}{\numberline {1.1.3}Discrete symmetries }{13}{subsection.1.1.3}}
\@writefile{toc}{\contentsline {subsubsection}{Sakharov conditions}{17}{subsubsection*.6}}
\@writefile{toc}{\contentsline {section}{\numberline {1.2}Neutrino masses}{18}{section.1.2}}
\@writefile{toc}{\contentsline {subsection}{\numberline {1.2.1}Dirac and Majorana mass terms}{18}{subsection.1.2.1}}
\@writefile{toc}{\contentsline {subsection}{\numberline {1.2.2}The SM flavor group}{21}{subsection.1.2.2}}
\@writefile{toc}{\contentsline {subsection}{\numberline {1.2.3}Processes}{22}{subsection.1.2.3}}
\@writefile{toc}{\contentsline {subsubsection}{Muon decay}{22}{subsubsection*.7}}
\@writefile{toc}{\contentsline {subsubsection}{Lepton flavor violation}{23}{subsubsection*.8}}
\@writefile{toc}{\contentsline {subsubsection}{Neutrinoless double beta decay}{24}{subsubsection*.9}}
\@writefile{toc}{\contentsline {section}{\numberline {1.3}Chiral symmetries of QCD }{25}{section.1.3}}
\@writefile{toc}{\contentsline {subsection}{\numberline {1.3.1}$V_{\mathrm  {CKM}}$ matrix elements}{28}{subsection.1.3.1}}
\@writefile{toc}{\contentsline {subsubsection}{$|V_{ud}|$ -- superallowed $\beta -$decays}{28}{subsubsection*.13}}
\@writefile{toc}{\contentsline {subsubsection}{$|V_{us}|$ -- semileptonic kaon decay}{30}{subsubsection*.14}}
\@writefile{toc}{\contentsline {subsubsection}{$|V_{cb}|$ and $|V_{ub}|$ -- $B$ mesons semileptonic decays}{31}{subsubsection*.15}}
\@writefile{toc}{\contentsline {subsubsection}{Summary and $|V_{ti}|$ elements}{32}{subsubsection*.16}}
\@writefile{toc}{\contentsline {section}{\numberline {1.4}Unitarity triangle and $CP$ violation}{32}{section.1.4}}
\newlabel{eq:VCKM}{{1.214}{33}{Unitarity triangle and $CP$ violation}{equation.1.4.214}{}}
\newlabel{eq:triangle}{{1.221}{34}{Unitarity triangle and $CP$ violation}{equation.1.4.221}{}}
\@writefile{lof}{\contentsline {figure}{\numberline {1.1}{\ignorespaces Level sets of $S_{\psi k_{s}}$ varying the value of $\beta $.\relax }}{36}{figure.caption.17}}
\providecommand*\caption@xref[2]{\@setref\relax\@undefined{#1}}
\newlabel{fig:S}{{1.1}{36}{Level sets of $S_{\psi k_{s}}$ varying the value of $\beta $.\relax }{figure.caption.17}{}}
\@writefile{lof}{\contentsline {figure}{\numberline {1.2}{\ignorespaces Qualitative plot of precision consistency check of $V_{\mathrm  {CKM}}$ parameters.\relax }}{36}{figure.caption.18}}
\newlabel{fig:flavor}{{1.2}{36}{Qualitative plot of precision consistency check of $V\ut {CKM}$ parameters.\relax }{figure.caption.18}{}}
\@writefile{toc}{\contentsline {section}{\numberline {1.5}Lepton flavor universality}{37}{section.1.5}}
\@writefile{toc}{\contentsline {subsection}{\numberline {1.5.1}Pion decay}{37}{subsection.1.5.1}}
\newlabel{eq:piondecayconstant}{{1.235}{37}{Pion decay}{equation.1.5.235}{}}
\newlabel{eq:piondecay}{{1.255}{39}{Pion decay}{equation.1.5.255}{}}
\newlabel{eq:ratioGammaemu}{{1.256}{39}{Pion decay}{equation.1.5.256}{}}
\@writefile{toc}{\contentsline {subsection}{\numberline {1.5.2}Tau decays}{40}{subsection.1.5.2}}
\@writefile{toc}{\contentsline {section}{\numberline {1.6}Neutrino oscillation}{42}{section.1.6}}
\@writefile{toc}{\contentsline {subsection}{\numberline {1.6.1}Oscillation in vacuum}{42}{subsection.1.6.1}}
\newlabel{eq:nuosc}{{1.284}{43}{}{equation.1.6.284}{}}
\@writefile{lof}{\contentsline {figure}{\numberline {1.3}{\ignorespaces Probability to find an muonic neutrino from a source of muonic neutrinos as a function of the distance travelled in kilometers. I have chosen $\Delta m^2= 1$ eV$^2$, $E=1$ GeV, $\theta =1$. Notice that on great distances we can average the dependence on the distance and we are sensitive to the angle $\theta $ only: the expected mean probability at great distance is reported dot-dashed.\relax }}{44}{figure.caption.19}}
\newlabel{fig:nuosc}{{1.3}{44}{Probability to find an muonic neutrino from a source of muonic neutrinos as a function of the distance travelled in kilometers. I have chosen $\Delta m^2= 1$ eV$^2$, $E=1$ GeV, $\theta =1$. Notice that on great distances we can average the dependence on the distance and we are sensitive to the angle $\theta $ only: the expected mean probability at great distance is reported dot-dashed.\relax }{figure.caption.19}{}}
\newlabel{eq:oscprob1}{{1.291}{45}{}{equation.1.6.291}{}}
\newlabel{eq:sum||||}{{1.294}{45}{}{equation.1.6.294}{}}
\@writefile{toc}{\contentsline {subsection}{\numberline {1.6.2}Oscillation in matter and the MSW effect}{47}{subsection.1.6.2}}
\@writefile{lof}{\contentsline {figure}{\numberline {1.4}{\ignorespaces The solar neutrinos expected flux spectrum. We show the neutrino flux spectra for different nuclear reaction producing electronic neutrinos, together with their uncertainties. On the top we show the energy range of neutrino experiments (Homestake -- Chlorine, Gallex -- Gallium, SNO, Super Kamiokande).\relax }}{48}{figure.caption.21}}
\newlabel{fig:solarnu}{{1.4}{48}{The solar neutrinos expected flux spectrum. We show the neutrino flux spectra for different nuclear reaction producing electronic neutrinos, together with their uncertainties. On the top we show the energy range of neutrino experiments (Homestake -- Chlorine, Gallex -- Gallium, SNO, Super Kamiokande).\relax }{figure.caption.21}{}}
\newlabel{eq:oscprobmatter}{{1.355}{53}{Oscillation in matter and the MSW effect}{equation.1.6.355}{}}
\newlabel{eq:cos2thetam}{{1.358}{53}{Oscillation in matter and the MSW effect}{equation.1.6.358}{}}
\@writefile{toc}{\contentsline {chapter}{\numberline {2}Electroweak gauge theory }{55}{chapter.2}}
\@writefile{lof}{\addvspace {10\p@ }}
\@writefile{lot}{\addvspace {10\p@ }}
\@writefile{toc}{\contentsline {section}{\numberline {2.1}Construction of EFTs}{55}{section.2.1}}
\@writefile{toc}{\contentsline {subsubsection}{$\psi -\phi $ toy model}{55}{subsubsection*.22}}
\@writefile{toc}{\contentsline {subsubsection}{Fermi theory and the values of $G_F$ and $v$}{57}{subsubsection*.23}}
\newlabel{eq:LWeff}{{2.14}{57}{Fermi theory and the values of $G_F$ and $v$}{equation.2.1.14}{}}
\newlabel{eq:Weff}{{2.18}{58}{Fermi theory and the values of $G_F$ and $v$}{equation.2.1.18}{}}
\newlabel{eq:LWeffFin}{{2.19}{58}{Fermi theory and the values of $G_F$ and $v$}{equation.2.1.19}{}}
\newlabel{eq:Zeff}{{2.21}{58}{Fermi theory and the values of $G_F$ and $v$}{equation.2.1.21}{}}
\newlabel{eq:LZeffFin}{{2.22}{58}{Fermi theory and the values of $G_F$ and $v$}{equation.2.1.22}{}}
\newlabel{eq:GFMW}{{2.31}{59}{Fermi theory and the values of $G_F$ and $v$}{equation.2.1.31}{}}
\@writefile{toc}{\contentsline {subsubsection}{See-saw mechanism and the dim 5 Weinberg operator}{59}{subsubsection*.24}}
\@writefile{toc}{\contentsline {section}{\numberline {2.2}NC processes and the values of $\lowercase {g}_V$ and $\lowercase {g}_A$ }{59}{section.2.2}}
\newlabel{sec:NCgVgA}{{2.2}{59}{NC processes and the values of $\lowercase {g}_V$ and $\lowercase {g}_A$ }{section.2.2}{}}
\newlabel{eq:crossnumue}{{2.56}{61}{NC processes and the values of $\lowercase {g}_V$ and $\lowercase {g}_A$ }{equation.2.2.56}{}}
\newlabel{eq:crossantinumue}{{2.61}{62}{NC processes and the values of $\lowercase {g}_V$ and $\lowercase {g}_A$ }{equation.2.2.61}{}}
\newlabel{eq:MCC}{{2.64}{63}{NC processes and the values of $\lowercase {g}_V$ and $\lowercase {g}_A$ }{equation.2.2.64}{}}
\newlabel{eq:crossantinuee}{{2.67}{63}{NC processes and the values of $\lowercase {g}_V$ and $\lowercase {g}_A$ }{equation.2.2.67}{}}
\@writefile{lof}{\contentsline {figure}{\numberline {2.1}{\ignorespaces Qualitative plot of consistency check of the NC sector of EW theory.\relax }}{64}{figure.caption.25}}
\newlabel{fig:flavor}{{2.1}{64}{Qualitative plot of consistency check of the NC sector of EW theory.\relax }{figure.caption.25}{}}
\@writefile{toc}{\contentsline {section}{\numberline {2.3}The \lowercase {$e^+ e^- \rightarrow \mu ^+\mu ^-$} process in the SM}{64}{section.2.3}}
\@writefile{toc}{\contentsline {subsection}{\numberline {2.3.1}Low energy limit $G_Fs\ll 1$}{64}{subsection.2.3.1}}
\newlabel{eq:e+e-mu+mu-_Fermi}{{2.77}{65}{Low energy limit $G_Fs\ll 1$}{equation.2.3.77}{}}
\newlabel{eq:defABe+e-mu+mu-}{{2.90}{66}{Low energy limit $G_Fs\ll 1$}{equation.2.3.90}{}}
\@writefile{toc}{\contentsline {subsection}{\numberline {2.3.2}LEP energy limit: $\sqrt  {s}\sim M_Z$}{67}{subsection.2.3.2}}
\newlabel{eq:opt1}{{2.108}{68}{LEP energy limit: $\sqrt {s}\sim M_Z$}{equation.2.3.108}{}}
\newlabel{eq:opt2}{{2.111}{68}{LEP energy limit: $\sqrt {s}\sim M_Z$}{equation.2.3.111}{}}
\newlabel{eq:genopt}{{2.112}{68}{LEP energy limit: $\sqrt {s}\sim M_Z$}{equation.2.3.112}{}}
\newlabel{eq:ImTZZ}{{2.115}{68}{LEP energy limit: $\sqrt {s}\sim M_Z$}{equation.2.3.115}{}}
\newlabel{eq:crossZpole}{{2.132}{70}{LEP energy limit: $\sqrt {s}\sim M_Z$}{equation.2.3.132}{}}
\newlabel{eq:decayZff}{{2.135}{70}{LEP energy limit: $\sqrt {s}\sim M_Z$}{equation.2.3.135}{}}
\@writefile{lof}{\contentsline {figure}{\numberline {2.2}{\ignorespaces Qualitative plot of the cross section for the $e^+e^-\rightarrow \mu ^+\mu ^-$ process near the $Z$ pole.\relax }}{71}{figure.caption.26}}
\newlabel{fig:crossZpole}{{2.2}{71}{Qualitative plot of the cross section for the $e^+e^-\rightarrow \mu ^+\mu ^-$ process near the $Z$ pole.\relax }{figure.caption.26}{}}
\newlabel{eq:gammaZ}{{2.137}{71}{LEP energy limit: $\sqrt {s}\sim M_Z$}{equation.2.3.137}{}}
\@writefile{lof}{\contentsline {figure}{\numberline {2.3}{\ignorespaces Measurements of the hadron production cross-section around the Z resonance. The curves indicate the predicted cross-section for two, three and four neutrino species with SM couplings and negligible mass. Figure from \url  {https://arxiv.org/abs/hep-ex/0509008}.\relax }}{72}{figure.caption.27}}
\newlabel{fig:Nnu}{{2.3}{72}{Measurements of the hadron production cross-section around the Z resonance. The curves indicate the predicted cross-section for two, three and four neutrino species with SM couplings and negligible mass. Figure from \url {https://arxiv.org/abs/hep-ex/0509008}.\relax }{figure.caption.27}{}}
\@writefile{toc}{\contentsline {section}{\numberline {2.4}EFT and unitarity bounds}{72}{section.2.4}}
\newlabel{eq:partialwavedecomposition}{{2.145}{72}{EFT and unitarity bounds}{equation.2.4.145}{}}
\newlabel{eq:opt_unitarybounds}{{2.151}{73}{EFT and unitarity bounds}{equation.2.4.151}{}}
\newlabel{eq:unitarityconstraints}{{2.155}{73}{EFT and unitarity bounds}{equation.2.4.155}{}}
\@writefile{toc}{\contentsline {section}{\numberline {2.5}The test of the non abelian structure of the SM}{74}{section.2.5}}
\newlabel{eq:highenergypol}{{2.165}{75}{The test of the non abelian structure of the SM}{equation.2.5.165}{}}
\newlabel{diag:rules_egamma_eZ}{{2.167}{76}{The test of the non abelian structure of the SM}{equation.2.5.167}{}}
\newlabel{eq:eR-}{{2.170}{77}{}{equation.2.5.170}{}}
\newlabel{eq:eL-s}{{2.174}{78}{}{equation.2.5.174}{}}
\newlabel{eq:badb}{{2.175}{78}{}{equation.2.5.175}{}}
\@writefile{toc}{\contentsline {section}{\numberline {2.6}The Goldstone boson equivalence theorem}{79}{section.2.6}}
\@writefile{lof}{\contentsline {figure}{\numberline {2.4}{\ignorespaces Plot of the experimental cross section $\sigma (e^+e^- \rightarrow W^+ W^-)$ obtained at LEP2 (figure from \url  {https://arxiv.org/abs/hep-ph/0004103})\relax }}{80}{figure.caption.28}}
\newlabel{fig:LEPeeWW}{{2.4}{80}{Plot of the experimental cross section $\sigma (e^+e^- \rightarrow W^+ W^-)$ obtained at LEP2 (figure from \url {https://arxiv.org/abs/hep-ph/0004103})\relax }{figure.caption.28}{}}
\newlabel{eq:Lcase}{{2.190}{82}{}{equation.2.6.190}{}}
\newlabel{eq:GammatWb}{{2.196}{83}{}{equation.2.6.196}{}}
\@writefile{toc}{\contentsline {chapter}{\numberline {3}Phenomenology at loop level}{87}{chapter.3}}
\@writefile{lof}{\addvspace {10\p@ }}
\@writefile{lot}{\addvspace {10\p@ }}
\@writefile{toc}{\contentsline {section}{\numberline {3.1}Renormalization and dimensional regularization}{88}{section.3.1}}
\newlabel{eq:divdiagQED}{{3.5}{89}{Renormalization and dimensional regularization}{equation.3.1.5}{}}
\@writefile{toc}{\contentsline {subsection}{\numberline {3.1.1}Renormalization program: two steps}{89}{subsection.3.1.1}}
\@writefile{toc}{\contentsline {subsection}{\numberline {3.1.2}Dimensional regularization and subtraction scheme}{89}{subsection.3.1.2}}
\newlabel{eq:renLagQED}{{3.16}{90}{Dimensional regularization and subtraction scheme}{equation.3.1.16}{}}
\newlabel{eq:counterterms}{{3.17}{90}{Dimensional regularization and subtraction scheme}{equation.3.1.17}{}}
\newlabel{eq:loopint}{{3.22}{91}{}{equation.3.1.22}{}}
\newlabel{eq:tensormaster}{{3.33}{92}{}{equation.3.1.33}{}}
\newlabel{eq:Irmpoles}{{3.34}{92}{}{equation.3.1.34}{}}
\@writefile{toc}{\contentsline {section}{\numberline {3.2}Vacuum polarization}{94}{section.3.2}}
\newlabel{eq:renField}{{3.46}{94}{Vacuum polarization}{equation.3.2.46}{}}
\newlabel{eq:muM}{{3.60}{95}{Vacuum polarization}{equation.3.2.60}{}}
\newlabel{eq:effch}{{3.72}{97}{Vacuum polarization}{equation.3.2.72}{}}
\@writefile{lof}{\contentsline {figure}{\numberline {3.1}{\ignorespaces Sketch of the vacuum polarization effect: virtual $e^+e^-$ pairs are effectively dipoles ol length $\sim 1/m$ which screen the bare charge of the electron.\relax }}{98}{figure.caption.29}}
\newlabel{fig:vacpol}{{3.1}{98}{Sketch of the vacuum polarization effect: virtual $e^+e^-$ pairs are effectively dipoles ol length $\sim 1/m$ which screen the bare charge of the electron.\relax }{figure.caption.29}{}}
\@writefile{toc}{\contentsline {section}{\numberline {3.3}Electron self-energy}{98}{section.3.3}}
\@writefile{lof}{\contentsline {figure}{\numberline {3.2}{\ignorespaces Plot of the behavior of coupling constants of the SM fundamental interactions (strong, electromagnetic, weak) as a function of the energy scale of physical processes. Note how the lines intersecate at the GUT scales.\relax }}{99}{figure.caption.30}}
\newlabel{fig:coupling}{{3.2}{99}{Plot of the behavior of coupling constants of the SM fundamental interactions (strong, electromagnetic, weak) as a function of the energy scale of physical processes. Note how the lines intersecate at the GUT scales.\relax }{figure.caption.30}{}}
\@writefile{toc}{\contentsline {section}{\numberline {3.4}Vertex correction}{100}{section.3.4}}
\@writefile{toc}{\contentsline {subsection}{\numberline {3.4.1}The anomalous magnetic moment $g-2$}{102}{subsection.3.4.1}}
\newlabel{eq:KGlike}{{3.124}{103}{The anomalous magnetic moment $g-2$}{equation.3.4.124}{}}
\newlabel{eq:HamAnomalous}{{3.126}{104}{The anomalous magnetic moment $g-2$}{equation.3.4.126}{}}
\@writefile{toc}{\contentsline {subsection}{\numberline {3.4.2}The vertex renormalization and Ward identity of QED}{104}{subsection.3.4.2}}
\@writefile{toc}{\contentsline {section}{\numberline {3.5}ElectroWeak Precision Tests}{106}{section.3.5}}
\@writefile{toc}{\contentsline {subsection}{\numberline {3.5.1}Oblique corrections}{108}{subsection.3.5.1}}
\newlabel{eq:doubleblob}{{3.160}{110}{}{equation.3.5.160}{}}
\newlabel{eq:G1loop}{{3.169}{111}{}{equation.3.5.169}{}}
\newlabel{eq:alpha1loop}{{3.181}{112}{}{equation.3.5.181}{}}
\newlabel{eq:GF1loop}{{3.182}{112}{}{equation.3.5.182}{}}
\newlabel{eq:M1loop}{{3.183}{112}{}{equation.3.5.183}{}}
\@writefile{toc}{\contentsline {subsubsection}{Computation of EW vacuum polarization loops}{114}{subsubsection*.31}}
\@writefile{toc}{\contentsline {subsection}{\numberline {3.5.2}Custodial $SU(2)_C$ symmetry}{116}{subsection.3.5.2}}
\@writefile{toc}{\contentsline {section}{\numberline {3.6}Flavor Changing Neutral Currents}{121}{section.3.6}}
\@writefile{toc}{\contentsline {subsection}{\numberline {3.6.1}Meson-antimeson oscillation}{121}{subsection.3.6.1}}
\newlabel{eq:deltamdeltagamma}{{3.267}{123}{Meson-antimeson oscillation}{equation.3.6.267}{}}
\newlabel{eq:q/p^2}{{3.276}{124}{Meson-antimeson oscillation}{equation.3.6.276}{}}
\@writefile{toc}{\contentsline {subsection}{\numberline {3.6.2}FCNC in the SM and the GIM mechanism}{125}{subsection.3.6.2}}
\@writefile{toc}{\contentsline {subsection}{\numberline {3.6.3}The hierarchy problem}{127}{subsection.3.6.3}}
\@writefile{toc}{\contentsline {section}{\numberline {3.7}Anomalies}{128}{section.3.7}}
\@writefile{toc}{\contentsline {subsection}{\numberline {3.7.1}Axial-vector current Ward identity anomaly and $\pi ^0 \rightarrow \gamma \gamma $}{129}{subsection.3.7.1}}
\newlabel{eq:axialWard1loop}{{3.326}{131}{}{equation.3.7.326}{}}
\newlabel{eq:linshift}{{3.335}{133}{}{equation.3.7.335}{}}
\newlabel{eq:ashift}{{3.336}{133}{}{equation.3.7.336}{}}
\newlabel{eq:ambiguity}{{3.337}{133}{}{equation.3.7.337}{}}
\newlabel{eq:axialanomaly}{{3.344}{134}{}{equation.3.7.344}{}}
\newlabel{eq:vectoranomaly}{{3.348}{134}{}{equation.3.7.348}{}}
\@writefile{toc}{\contentsline {subsection}{\numberline {3.7.2}ABJ anomalies in non-abelian theories }{135}{subsection.3.7.2}}
\newlabel{eq:baryonanomaly}{{3.362}{137}{}{equation.3.7.362}{}}
\newlabel{eq:leptonanomaly}{{3.364}{137}{}{equation.3.7.364}{}}
\@writefile{toc}{\contentsline {section}{\numberline {3.8}Higgs precision physics}{137}{section.3.8}}
\@writefile{toc}{\contentsline {subsection}{\numberline {3.8.1}Theoretical bounds on $M_h$: triviality and vacuum stability bounds}{137}{subsection.3.8.1}}
\@writefile{lof}{\contentsline {figure}{\numberline {3.3}{\ignorespaces Plot of the Higgs resonant peak at $M_h \approx 125$ GeV in the $gg \rightarrow \gamma \gamma $ channel at CMS (LHC) at CERN. Figure from \url  {https://arxiv.org/abs/1510.01924}.\relax }}{138}{figure.caption.34}}
\newlabel{fig:higgsdisco}{{3.3}{138}{Plot of the Higgs resonant peak at $M_h \approx 125$ GeV in the $gg \rightarrow \gamma \gamma $ channel at CMS (LHC) at CERN. Figure from \url {https://arxiv.org/abs/1510.01924}.\relax }{figure.caption.34}{}}
\newlabel{eq:betaeq}{{3.372}{139}{Theoretical bounds on $M_h$: triviality and vacuum stability bounds}{equation.3.8.372}{}}
\newlabel{eq:betalambda}{{3.375}{139}{}{equation.3.8.375}{}}
\@writefile{lof}{\contentsline {figure}{\numberline {3.4}{\ignorespaces Perturbativity (triviality) bounds for two arbitrary values of $\lambda (v)$ and vacuum stability bound on the Higgs mass. The regions probed by LEP and Tevatron in which no Higgs boson was found are also shown. The allowed region for the Higgs mass is below the $\lambda $ curves and above the stability bound. Figure from \url  {https://arxiv.org/abs/0906.0954}.\relax }}{141}{figure.caption.35}}
\newlabel{fig:triviality}{{3.4}{141}{Perturbativity (triviality) bounds for two arbitrary values of $\lambda (v)$ and vacuum stability bound on the Higgs mass. The regions probed by LEP and Tevatron in which no Higgs boson was found are also shown. The allowed region for the Higgs mass is below the $\lambda $ curves and above the stability bound. Figure from \url {https://arxiv.org/abs/0906.0954}.\relax }{figure.caption.35}{}}
\@writefile{lof}{\contentsline {figure}{\numberline {3.5}{\ignorespaces Left -- regions of absolute stability, meta-stability and instability of the SM vacuum in the $M_h - m_t$ (pole masses) plane. Right -- Zoom in the region of the preferred experimental range of $M_h$ and $m_t$; the gray areas denote the allowed regions at 1, 2 and $3\sigma $. The three boundary lines correspond to $\alpha _s (M_Z)= 0.1184\pm 0.0007$, and the grading of the colors indicates the size of the theoretical error. The dotted countour-lines show the instability scale $\Lambda $ in GeV assuming $\alpha _s(M_Z)=0.1184$. Figure from \url  {https://arxiv.org/abs/1205.6497}.\relax }}{141}{figure.caption.36}}
\newlabel{fig:stability}{{3.5}{141}{Left -- regions of absolute stability, meta-stability and instability of the SM vacuum in the $M_h - m_t$ (pole masses) plane. Right -- Zoom in the region of the preferred experimental range of $M_h$ and $m_t$; the gray areas denote the allowed regions at 1, 2 and $3\sigma $. The three boundary lines correspond to $\alpha _s (M_Z)= 0.1184\pm 0.0007$, and the grading of the colors indicates the size of the theoretical error. The dotted countour-lines show the instability scale $\Lambda $ in GeV assuming $\alpha _s(M_Z)=0.1184$. Figure from \url {https://arxiv.org/abs/1205.6497}.\relax }{figure.caption.36}{}}
\@writefile{toc}{\contentsline {subsection}{\numberline {3.8.2}Experimental bounds on $M_h$}{141}{subsection.3.8.2}}
\@writefile{lof}{\contentsline {figure}{\numberline {3.6}{\ignorespaces Dependence on Higgs boson mass $M_h$ of the $\Delta \chi ^2$ function obtained from the global fit of the SM parameters to precision electroweak data, excluding (left) or including (right) the results from direct searches at LEP and the Tevatron. Figure from \url  {https://arxiv.org/abs/0906.0954}.\relax }}{143}{figure.caption.37}}
\newlabel{fig:higgsfit}{{3.6}{143}{Dependence on Higgs boson mass $M_h$ of the $\Delta \chi ^2$ function obtained from the global fit of the SM parameters to precision electroweak data, excluding (left) or including (right) the results from direct searches at LEP and the Tevatron. Figure from \url {https://arxiv.org/abs/0906.0954}.\relax }{figure.caption.37}{}}
\@writefile{toc}{\contentsline {subsection}{\numberline {3.8.3}Higgs production: gluon-gluon fusion and the parton model}{144}{subsection.3.8.3}}
\@writefile{lof}{\contentsline {figure}{\numberline {3.7}{\ignorespaces The NNPDF3.1 NNLO PDFs, evaluated at $\mu ^2=10$ GeV$^2$ (left) and $\mu ^2=10^4$ GeV$^2$ (right) obtained by the NNPDF collaboration from high-precision collider data. Figure from \url  {https://arxiv.org/abs/1706.00428} .\relax }}{144}{figure.caption.38}}
\newlabel{fig:parton}{{3.7}{144}{The NNPDF3.1 NNLO PDFs, evaluated at $\mu ^2=10$ GeV$^2$ (left) and $\mu ^2=10^4$ GeV$^2$ (right) obtained by the NNPDF collaboration from high-precision collider data. Figure from \url {https://arxiv.org/abs/1706.00428} .\relax }{figure.caption.38}{}}
\@writefile{lof}{\contentsline {figure}{\numberline {3.8}{\ignorespaces Gluon-gluon fusion cross section at $\sqrt  {S} = 7$ and 14 TeV for $pp$ collisions at the LHC and at $\sqrt  {S} = 1.96$ TeV for $\mkern 1.5mu\overline  {\mkern -1.5mup\mkern -1.5mu}\mkern 1.5mup$ collisions at Tevatron. \relax }}{145}{figure.caption.39}}
\newlabel{fig:higgshgg}{{3.8}{145}{Gluon-gluon fusion cross section at $\sqrt {S} = 7$ and 14 TeV for $pp$ collisions at the LHC and at $\sqrt {S} = 1.96$ TeV for $\obar {p}p$ collisions at Tevatron. \relax }{figure.caption.39}{}}
\@writefile{toc}{\contentsline {subsection}{\numberline {3.8.4}Higgs decay modes}{145}{subsection.3.8.4}}
\@writefile{lof}{\contentsline {figure}{\numberline {3.9}{\ignorespaces Higgs decays branching ratios as functions of the Higgs boson mass, including NLO corrections. Figure from \url  {https://arxiv.org/abs/hep-ph/9712334}\relax }}{147}{figure.caption.40}}
\newlabel{fig:higgsBR}{{3.9}{147}{Higgs decays branching ratios as functions of the Higgs boson mass, including NLO corrections. Figure from \url {https://arxiv.org/abs/hep-ph/9712334}\relax }{figure.caption.40}{}}
\@writefile{toc}{\contentsline {chapter}{\numberline {4}Exercises}{151}{chapter.4}}
\@writefile{lof}{\addvspace {10\p@ }}
\@writefile{lot}{\addvspace {10\p@ }}
\@writefile{toc}{\contentsline {section}{\numberline {4.1}Assignement 1}{151}{section.4.1}}
\@writefile{toc}{\contentsline {subsection}{\numberline {4.1.1}Exercise 1}{151}{subsection.4.1.1}}
\newlabel{ex:1}{{4.1.1}{151}{Exercise 1}{subsection.4.1.1}{}}
\@writefile{toc}{\contentsline {subparagraph}{Text}{151}{subparagraph*.42}}
\@writefile{toc}{\contentsline {subparagraph}{Solution}{151}{subparagraph*.43}}
\@writefile{toc}{\contentsline {subsection}{\numberline {4.1.2}Exercise 3}{155}{subsection.4.1.2}}
\@writefile{toc}{\contentsline {subsection}{\numberline {4.1.3}Exercise 4}{156}{subsection.4.1.3}}
\newlabel{eq:Zdecay}{{4.55}{157}{}{equation.4.1.55}{}}
\@writefile{toc}{\contentsline {subsection}{\numberline {4.1.4}Exercise 5}{160}{subsection.4.1.4}}
\@writefile{toc}{\contentsline {subparagraph}{Text}{160}{subparagraph*.46}}
\@writefile{toc}{\contentsline {subparagraph}{Solution}{160}{subparagraph*.47}}
\newlabel{eq:NW}{{4.101}{163}{Solution}{equation.4.1.101}{}}
\@writefile{toc}{\contentsline {chapter}{\numberline {A}Reference formulae}{167}{appendix.A}}
\@writefile{lof}{\addvspace {10\p@ }}
\@writefile{lot}{\addvspace {10\p@ }}
\@writefile{toc}{\contentsline {section}{\numberline {A.1}$\lowercase {\gamma }$ matrices and Fierz identities}{167}{section.A.1}}
\newlabel{eq:gammatraces}{{A.1}{167}{$\lowercase {\gamma }$ matrices and Fierz identities}{equation.A.1.1}{}}
\@writefile{toc}{\contentsline {section}{\numberline {A.2}Cross sections and decay rates}{168}{section.A.2}}
\newlabel{eq:decayrate_2body}{{A.11}{168}{Cross sections and decay rates}{equation.A.2.11}{}}
