\relax 
\providecommand\hyper@newdestlabel[2]{}
\providecommand\HyperFirstAtBeginDocument{\AtBeginDocument}
\HyperFirstAtBeginDocument{\ifx\hyper@anchor\@undefined
\global\let\oldcontentsline\contentsline
\gdef\contentsline#1#2#3#4{\oldcontentsline{#1}{#2}{#3}}
\global\let\oldnewlabel\newlabel
\gdef\newlabel#1#2{\newlabelxx{#1}#2}
\gdef\newlabelxx#1#2#3#4#5#6{\oldnewlabel{#1}{{#2}{#3}}}
\AtEndDocument{\ifx\hyper@anchor\@undefined
\let\contentsline\oldcontentsline
\let\newlabel\oldnewlabel
\fi}
\fi}
\global\let\hyper@last\relax 
\gdef\HyperFirstAtBeginDocument#1{#1}
\providecommand\HyField@AuxAddToFields[1]{}
\providecommand\HyField@AuxAddToCoFields[2]{}
\select@language{english}
\@writefile{toc}{\select@language{english}}
\@writefile{lof}{\select@language{english}}
\@writefile{lot}{\select@language{english}}
\@writefile{toc}{\contentsline {section}{\numberline {0.1}Theoretical bounds on $M_h$: triviality and vacuum stability bounds}{1}{section.0.1}}
\newlabel{eq:counter}{{14}{2}{}{equation.0.1.14}{}}
\newlabel{eq:BETA}{{21}{4}{}{equation.0.1.21}{}}
\newlabel{eq:betafunc}{{28}{5}{}{equation.0.1.28}{}}
\newlabel{eq:deltah}{{54}{11}{}{equation.0.1.54}{}}
\newlabel{eq:betaeq}{{61}{13}{}{equation.0.1.61}{}}
