%!PS-Adobe-2.0 EPSF-2.0
%%BoundingBox:  0 0 567 384
%%Title: plots/HiggsScanDirectSearches_logo.eps: A Gfitter plot of the Higgs mass estimate
%%Creator: ROOT Version 5.18/00
%%CreationDate: Thu Mar 19 13:18:05 2009
%%EndComments
%%BeginProlog
80 dict begin
/s {stroke} def /l {lineto} def /m {moveto} def /t {translate} def
/sw {stringwidth} def /r {rotate} def /rl {roll}  def /R {repeat} def
/d {rlineto} def /rm {rmoveto} def /gr {grestore} def /f {eofill} def
/c {setrgbcolor} def /black {0 setgray} def /sd {setdash} def
/cl {closepath} def /sf {scalefont setfont} def /lw {setlinewidth} def
/box {m dup 0 exch d exch 0 d 0 exch neg d cl} def
/NC{systemdict begin initclip end}def/C{NC box clip newpath}def
/bl {box s} def /bf {box f} def /Y { 0 exch d} def /X { 0 d} def 
/mp {newpath /y exch def /x exch def} def
/side {[w .77 mul w .23 mul] .385 w mul sd w 0 l currentpoint t -144 r} def
/mr {mp x y w2 0 360 arc} def /m24 {mr s} def /m20 {mr f} def
/mb {mp x y w2 add m w2 neg 0 d 0 w neg d w 0 d 0 w d cl} def
/mt {mp x y w2 add m w2 neg w neg d w 0 d cl} def
/m21 {mb f} def /m25 {mb s} def /m22 {mt f} def /m26{mt s} def
/m23 {mp x y w2 sub m w2 w d w neg 0 d cl f} def
/m27 {mp x y w2 add m w3 neg w2 neg d w3 w2 neg d w3 w2 d cl s} def
/m28 {mp x w2 sub y w2 sub w3 add m w3 0 d  0 w3 neg d w3 0 d 0 w3 d w3 0 d  0 w3 d w3 neg 0 d 0 w3 d w3 neg 0 d
 0 w3 neg d w3 neg 0 d cl s } def
/m29 {mp gsave x w2 sub y w2 add w3 sub m currentpoint t
 4 {side} repeat cl fill gr} def
/m30 {mp gsave x w2 sub y w2 add w3 sub m currentpoint t
 4 {side} repeat cl s gr} def
/m31 {mp x y w2 sub m 0 w d x w2 sub y m w 0 d x w2 sub y w2 add m w w neg d x w2 sub y w2
 sub m w w d s} def
/m2 {mp x y w2 sub m 0 w d x w2 sub y m w 0 d s} def
/m5 {mp x w2 sub y w2 sub m w w d x w2 sub y w2 add m w w neg d s} def
/reencdict 24 dict def /ReEncode {reencdict begin /nco&na exch def
/nfnam exch def /basefontname exch def /basefontdict basefontname findfont def
/newfont basefontdict maxlength dict def basefontdict {exch dup /FID ne
{dup /Encoding eq {exch dup length array copy newfont 3 1 roll put} {exch 
newfont 3 1 roll put} ifelse} {pop pop} ifelse } forall newfont
/FontName nfnam put nco&na aload pop nco&na length 2 idiv {newfont
/Encoding get 3 1 roll put} repeat nfnam newfont definefont pop end } def
/accvec [ 176 /agrave 181 /Agrave 190 /acircumflex 192 /Acircumflex
201 /adieresis 204 /Adieresis 209 /ccedilla 210 /Ccedilla 211 /eacute
212 /Eacute 213 /egrave 214 /Egrave 215 /ecircumflex 216 /Ecircumflex
217 /edieresis 218 /Edieresis 219 /icircumflex 220 /Icircumflex
221 /idieresis 222 /Idieresis 223 /ntilde 224 /Ntilde 226 /ocircumflex
228 /Ocircumflex 230 /Odieresis 231 /ucircumflex 236 /Ucircumflex
237 /udieresis 238 /Udieresis 239 /aring 240 /odieresis 242 /Aring 243 /ydieresis
244 /Ydieresis 246 /aacute 247 /Aacute 252 /ugrave 253 /Ugrave
127 /atilde 128 /Atilde 129 /oacute 130 /Oacute 131 /iacute
132 /Iacute 133 /igrave 134 /Igrave 135 /otilde 136 /Otilde
137 /uacute 138 /Uacute] def
/Times-Roman /Times-Roman accvec ReEncode
/Times-Italic /Times-Italic accvec ReEncode
/Times-Bold /Times-Bold accvec ReEncode
/Times-BoldItalic /Times-BoldItalic accvec ReEncode
/Helvetica /Helvetica accvec ReEncode
/Helvetica-Oblique /Helvetica-Oblique accvec ReEncode
/Helvetica-Bold /Helvetica-Bold accvec ReEncode
/Helvetica-BoldOblique /Helvetica-BoldOblique  accvec ReEncode
/Courier /Courier accvec ReEncode
/Courier-Oblique /Courier-Oblique accvec ReEncode
/Courier-Bold /Courier-Bold accvec ReEncode
/Courier-BoldOblique /Courier-BoldOblique accvec ReEncode
/oshow {gsave [] 0 sd true charpath stroke gr} def
/stwn { /fs exch def /fn exch def /text exch def fn findfont fs sf
 text sw pop xs add /xs exch def} def
/stwb { /fs exch def /fn exch def /nbas exch def /textf exch deftextf length /tlen exch def nbas tlen gt {/nbas tlendef} iffn findfont fs sf textf dup length nbas sub nbas getinterval sw
pop neg xs add /xs exch def} def
/accspe [ 65 /plusminus  66 /bar  67 /existential  68 /universal 
69 /exclam  70 /numbersign 71 /greater  72 /question  73 /integral 
74 /colon  75 /semicolon  76 /less  77 /bracketleft  78 /bracketright
79 /greaterequal 80 /braceleft 81 /braceright 82 /radical
83 /spade 84 /heart 85 /diamond 86 /club 87 /lessequal
88 /multiply 89 /percent 90 /infinity 48 /circlemultiply 49 /circleplus
50 /emptyset  51 /lozenge 52 /bullet 53 /arrowright 54 /arrowup
55 /arrowleft 56 /arrowdown 57 /arrowboth 48 /degree 44 /comma 43 /plus 45 /angle 42 /angleleft 47 /divide 61 /notequal 40 /equivalence 41 /second 97 /approxequal 98 /congruent 99 /perpendicular 100 /partialdiff 101 /florin 102 /intersection
 103 /union 104 /propersuperset 105 /reflexsuperset 106 /notsubset 107 /propersubset 108 /reflexsubset 109 /element 110 /notelement 111 /gradient 112 /logicaland 113 /logicalor 114 /arrowdblboth 115 /arrowdblleft 116 /arrowdblup 117 /arrowdblright
 118 /arrowdbldown 119 /ampersand 120 /omega1 121 /similar 122 /aleph ] def
/Symbol /Special accspe ReEncode
%%EndProlog
%%BeginSetup
%%EndSetup
newpath  gsave  .25 .25 scale  gsave  0 0 t black[  ] 0 sd 3 lw 1 1 1 c 2268 1538 0 0 bf black 1 1 1 c 1920 1243 234 203 bf black 1920 1243 234 203 bl 1 1 1 c 1920 1243 234 203 bf black 1920 1243 234 203 bl 1 1 1 c black 234 203 m 1920 X s 234 203 m
 1920 X s
 gsave  2268 1538 0 0 C 1965 29 t 0 r /Helvetica-Bold findfont 65.1643 sf 0 0 m ( [GeV]) show NC gr 
 gsave  2268 1538 0 0 C 1935 10 t 0 r /Helvetica-Bold findfont 42.3568 sf 0 0 m (H) show NC gr 
 gsave  2268 1538 0 0 C 1883 29 t 0 r /Helvetica-Bold findfont 65.1643 sf 0 0 m (M) show NC gr  408 242 m -39 Y s 495 223 m -20 Y s 583 223 m -20 Y s 670 223 m -20 Y s 757 223 m -20 Y s 845 242 m -39 Y s 932 223 m -20 Y s 1019 223 m -20 Y s 1107 223
 m -20 Y s 1194 223 m -20 Y s 1281 242 m -39 Y s 1369 223 m -20 Y s 1456 223 m -20 Y s 1543 223 m -20 Y s 1630 223 m -20 Y s 1718 242 m -39 Y s 1805 223 m -20 Y s 1892 223 m -20 Y s 1980 223 m -20 Y s 2067 223 m -20 Y s 2154 242 m -39 Y s 408 242 m
 -39 Y s 321 223 m -20 Y s 234 223 m -20 Y s
 gsave  2268 1538 0 0 C 358 137 t 0 r /Helvetica-Bold findfont 58.6478 sf 0 0 m (100) show NC gr 
 gsave  2268 1538 0 0 C 795 137 t 0 r /Helvetica-Bold findfont 58.6478 sf 0 0 m (150) show NC gr 
 gsave  2268 1538 0 0 C 1232 137 t 0 r /Helvetica-Bold findfont 58.6478 sf 0 0 m (200) show NC gr 
 gsave  2268 1538 0 0 C 1668 137 t 0 r /Helvetica-Bold findfont 58.6478 sf 0 0 m (250) show NC gr 
 gsave  2268 1538 0 0 C 2105 137 t 0 r /Helvetica-Bold findfont 58.6478 sf 0 0 m (300) show NC gr  234 1446 m 1920 X s 408 1407 m 39 Y s 495 1426 m 20 Y s 583 1426 m 20 Y s 670 1426 m 20 Y s 757 1426 m 20 Y s 845 1407 m 39 Y s 932 1426 m 20 Y s 1019
 1426 m 20 Y s 1107 1426 m 20 Y s 1194 1426 m 20 Y s 1281 1407 m 39 Y s 1369 1426 m 20 Y s 1456 1426 m 20 Y s 1543 1426 m 20 Y s 1630 1426 m 20 Y s 1718 1407 m 39 Y s 1805 1426 m 20 Y s 1892 1426 m 20 Y s 1980 1426 m 20 Y s 2067 1426 m 20 Y s 2154
 1407 m 39 Y s 408 1407 m 39 Y s 321 1426 m 20 Y s 234 1426 m 20 Y s 234 203 m 1243 Y s
 gsave  2268 1538 0 0 C 62 1424 t 90 r /Helvetica-Bold findfont 42.3568 sf 0 0 m (2) show NC gr 
 gsave  2268 1538 0 0 C 88 1388 t 90 r /Symbol findfont 65.1643 sf 0 0 m (c) show NC gr 
 gsave  2268 1538 0 0 C 88 1346 t 90 r /Symbol findfont 65.1643 sf 0 0 m (D) show NC gr  289 203 m -55 X s 261 255 m -27 X s 261 307 m -27 X s 261 358 m -27 X s 289 410 m -55 X s 261 462 m -27 X s 261 514 m -27 X s 261 565 m -27 X s 289 617 m -55 X
 s 261 669 m -27 X s 261 721 m -27 X s 261 773 m -27 X s 289 824 m -55 X s 261 876 m -27 X s 261 928 m -27 X s 261 980 m -27 X s 289 1031 m -55 X s 261 1083 m -27 X s 261 1135 m -27 X s 261 1187 m -27 X s 289 1239 m -55 X s 261 1290 m -27 X s 261
 1342 m -27 X s 261 1394 m -27 X s 289 1446 m -55 X s
 gsave  2268 1538 0 0 C 173 179 t 0 r /Helvetica-Bold findfont 58.6478 sf 0 0 m (0) show NC gr 
 gsave  2268 1538 0 0 C 173 384 t 0 r /Helvetica-Bold findfont 58.6478 sf 0 0 m (2) show NC gr 
 gsave  2268 1538 0 0 C 173 593 t 0 r /Helvetica-Bold findfont 58.6478 sf 0 0 m (4) show NC gr 
 gsave  2268 1538 0 0 C 173 798 t 0 r /Helvetica-Bold findfont 58.6478 sf 0 0 m (6) show NC gr 
 gsave  2268 1538 0 0 C 173 1007 t 0 r /Helvetica-Bold findfont 58.6478 sf 0 0 m (8) show NC gr 
 gsave  2268 1538 0 0 C 140 1215 t 0 r /Helvetica-Bold findfont 58.6478 sf 0 0 m (10) show NC gr 
 gsave  2268 1538 0 0 C 140 1421 t 0 r /Helvetica-Bold findfont 58.6478 sf 0 0 m (12) show NC gr  2154 203 m 1243 Y s 2099 203 m 55 X s 2127 255 m 27 X s 2127 307 m 27 X s 2127 358 m 27 X s 2099 410 m 55 X s 2127 462 m 27 X s 2127 514 m 27 X s 2127
 565 m 27 X s 2099 617 m 55 X s 2127 669 m 27 X s 2127 721 m 27 X s 2127 773 m 27 X s 2099 824 m 55 X s 2127 876 m 27 X s 2127 928 m 27 X s 2127 980 m 27 X s 2099 1031 m 55 X s 2127 1083 m 27 X s 2127 1135 m 27 X s 2127 1187 m 27 X s 2099 1239 m 55
 X s 2127 1290 m 27 X s 2127 1342 m 27 X s 2127 1394 m 27 X s 2099 1446 m 55 X s 0.6 0.6 0.6 c black 0.6 0.6 0.6 c 234 203 m 1243 Y 300 X -1243 Y -300 X f 0.8 0.8 0.8 c black 0.8 0.8 0.8 c 534 274 m -71 -71 d s 534 361 m -158 -158 d s 534 447 m -244
 -244 d s 534 534 m -300 -300 d s 534 621 m -300 -301 d s 534 707 m -300 -300 d s 534 794 m -300 -301 d s 534 880 m -300 -300 d s 534 967 m -300 -300 d s 534 1053 m -300 -300 d s 534 1140 m -300 -300 d s 534 1227 m -300 -301 d s 534 1313 m -300 -300
 d s 534 1400 m -300 -301 d s 493 1446 m -259 -260 d s 407 1446 m -173 -173 d s 320 1446 m -86 -87 d s 0.6 0.6 0.6 c black 0.6 0.6 0.6 c 932 203 m 1243 Y 87 X -1243 Y -87 X f 0.8 0.8 0.8 c black 0.8 0.8 0.8 c 1019 240 m -37 -37 d s 1019 327 m -87
 -88 d s 1019 413 m -87 -87 d s 1019 500 m -87 -88 d s 1019 586 m -87 -87 d s 1019 673 m -87 -87 d s 1019 760 m -87 -88 d s 1019 846 m -87 -87 d s 1019 933 m -87 -88 d s 1019 1019 m -87 -87 d s 1019 1106 m -87 -87 d s 1019 1193 m -87 -88 d s 1019
 1279 m -87 -87 d s 1019 1366 m -87 -88 d s 1013 1446 m -81 -81 d s 0.811765 1 0.278431 c black 0.811765 1 0.278431 c 520 1446 m 5 -382 d 6 -422 d 7 -288 d 6 -125 d 6 -26 d 7 7 d 6 7 d 7 -2 d 6 X 7 2 d 6 1 d 6 3 d 7 3 d 6 3 d 7 3 d 6 3 d 6 4 d 7 6 d
 6 6 d 7 6 d 6 6 d 6 6 d 7 6 d 6 8 d 7 11 d 6 12 d 6 11 d 7 12 d 6 11 d 7 12 d 6 4 d 6 -5 d 7 -4 d 6 -4 d 7 -4 d 6 -4 d 6 -4 d 7 2 d 6 5 d 7 5 d 6 5 d 6 5 d 7 5 d 6 6 d 7 9 d 6 10 d 6 9 d 7 10 d 6 10 d 7 10 d 6 12 d 6 48 d 7 49 d 6 48 d 7 48 d 6 49
 d 6 48 d 7 45 d 6 35 d 7 34 d 6 34 d 6 34 d 7 35 d 6 34 d 7 37 d 6 40 d 6 40 d 7 40 d 6 40 d 7 40 d 6 40 d 6 13 d 7 -5 d 6 -6 d 7 -5 d 6 -5 d 6 -6 d 7 -5 d 6 -5 d 7 -5 d 6 -5 d 6 -5 d 7 -5 d 6 -5 d 7 -5 d 6 -1 d 13 X 6 -1 d 13 X 7 -5 d 6 -32 d 6
 -33 d 7 -32 d 6 -32 d 7 -33 d 6 -32 d 6 -17 d 7 17 d 6 16 d 7 17 d 6 16 d 6 17 d 7 16 d 6 1 d 7 -16 d 6 -16 d 6 -16 d 7 -15 d 6 -16 d 7 -16 d 6 -7 d 6 -2 d 7 -2 d 6 -3 d 7 -2 d 6 -2 d 6 -3 d 7 -5 d 6 -7 d 7 -6 d 6 -6 d 6 -6 d 7 -7 d 6 -5 d 7 8 d 6
 7 d 6 8 d 7 8 d 6 7 d 7 8 d 6 8 d 6 8 d 7 7 d 6 8 d 7 8 d 6 8 d 6 8 d 7 8 d 6 7 d 7 8 d 6 8 d 6 8 d 7 8 d 6 8 d 7 8 d 6 8 d 6 8 d 7 8 d 6 7 d 7 8 d 6 8 d 6 8 d 7 8 d 6 8 d 7 8 d 6 8 d 6 9 d 7 8 d 6 8 d 7 8 d 6 8 d 7 8 d 6 8 d 6 8 d 7 8 d 6 8 d 7 8
 d 6 8 d 6 9 d 7 8 d 6 8 d 7 8 d 6 8 d 6 8 d 7 8 d 6 9 d 7 8 d 6 8 d 6 8 d 7 8 d 6 9 d 7 8 d 6 8 d 6 8 d 7 9 d 6 8 d 7 8 d 6 8 d 6 9 d 4 5 d -145 X -6 -9 d -6 -9 d -7 -9 d -6 -8 d -6 -9 d -7 -9 d -6 -9 d -7 -8 d -6 -9 d -7 -9 d -6 -9 d -6 -8 d -7 -9
 d -6 -9 d -7 -8 d -6 -9 d -6 -9 d -7 -8 d -6 -9 d -7 -9 d -6 -8 d -6 -9 d -7 -9 d -6 -8 d -7 -9 d -6 -8 d -6 -9 d -7 -9 d -6 -8 d -7 -9 d -6 -8 d -6 -9 d -7 -8 d -6 -9 d -7 -8 d -6 -9 d -6 -8 d -7 -9 d -6 -8 d -7 -9 d -6 -8 d -6 -9 d -7 -8 d -6 5 d
 -7 5 d -6 6 d -6 5 d -7 6 d -6 5 d -7 5 d -6 2 d -6 1 d -7 2 d -6 1 d -7 2 d -6 1 d -6 6 d -7 15 d -6 15 d -7 15 d -6 15 d -6 15 d -7 15 d -6 -1 d -7 -17 d -6 -18 d -6 -17 d -7 -17 d -6 -18 d -7 -17 d -6 16 d -6 31 d -7 32 d -6 31 d -7 32 d -6 31 d
 -6 32 d -7 4 d -6 -1 d -7 X -6 -1 d -6 -1 d -13 X -7 4 d -6 4 d -7 4 d -6 4 d -6 4 d -7 5 d -6 4 d -7 4 d -6 5 d -6 4 d -7 4 d -6 5 d -7 4 d -6 -14 d -6 -41 d -7 -41 d -6 -41 d -7 -41 d -6 -40 d -6 -41 d -7 -38 d -6 -35 d -7 -35 d -6 -36 d -6 -35 d
 -7 -35 d -6 -35 d -7 -46 d -6 -50 d -6 -49 d -7 -50 d -6 -49 d -7 -49 d -6 -49 d -6 -13 d -7 -11 d -6 -11 d -7 -11 d -6 -11 d -6 -11 d -7 -10 d -6 -6 d -7 -6 d -6 -6 d -6 -6 d -7 -7 d -6 -6 d -7 -3 d -6 3 d -6 3 d -7 3 d -6 3 d -7 3 d -6 4 d -6 -5
 d -7 -13 d -6 -13 d -7 -12 d -6 -13 d -6 -12 d -7 -13 d -6 -9 d -7 -7 d -6 -7 d -6 -6 d -7 -7 d -6 -7 d -7 -7 d -6 -4 d -6 -4 d -7 -4 d -6 -3 d -7 -4 d -6 -4 d -6 -1 d -7 -2 d -6 -1 d -7 2 d -6 -8 d -7 -7 d -6 26 d -6 125 d -7 287 d -6 422 d -4 333
 d f 0.0666667 0.313726 0 c 6 lw 1 1 1 c black 0.0666667 0.313726 0 c 520 1446 m -1 Y s 520 1445 m 2 -133 d 1 -114 d 2 -134 d 2 -166 d 2 -88 d 1 -67 d 1 -62 d -39 Y 2 -82 d 1 -61 d 1 -52 d 1 -38 d 1 -34 d 1 -21 d 1 -27 d 1 -26 d 1 -24 d 1 -22 d 2
 -21 d -5 Y 1 -10 d 1 -8 d 2 -5 d 2 -3 d s 553 203 m 4 7 d s 557 210 m 6 7 d 7 -2 d 6 X 7 2 d 6 1 d 6 3 d 7 3 d 6 3 d 7 3 d 6 3 d 6 4 d 7 6 d 6 6 d 7 6 d 6 6 d 6 6 d 7 6 d 6 8 d 7 11 d 6 12 d 6 11 d 7 12 d 6 11 d 7 12 d 4 3 d 2 1 d 6 -5 d 7 -4 d 6
 -4 d 7 -4 d 6 -4 d 6 -4 d 7 2 d 6 5 d 7 5 d 6 5 d 6 5 d 7 5 d 6 6 d 7 9 d 6 10 d 6 9 d 7 10 d 6 10 d s 832 410 m 7 10 d 5 8 d 1 4 d 1 6 d 2 10 d 3 32 d 7 49 d 6 48 d 7 48 d 6 49 d 6 48 d 5 36 d 2 9 d 6 35 d 7 34 d 6 34 d 6 34 d 7 35 d 6 34 d 7 37 d
 6 40 d 6 40 d 7 40 d 6 40 d 7 40 d 3 20 d 2 13 d 1 7 d 2 6 d 2 5 d 2 2 d 3 -1 d 4 -4 d 6 -6 d 7 -5 d 6 -5 d 6 -6 d 7 -5 d 6 -5 d 7 -5 d 6 -5 d 6 -5 d 7 -5 d 6 -5 d 7 -5 d 6 -1 d 13 X 6 -1 d 13 X 5 -1 d 1 -3 d 1 -1 d 1 -7 d 5 -25 d 6 -33 d 7 -32 d 6
 -32 d 7 -33 d 6 -32 d s 1146 995 m 1 -4 d -3 Y 1 -3 d 1 -2 d 1 -2 d 1 -2 d 1 -1 d 1 X 1 1 d 2 Y 1 2 d 1 4 d 2 5 d 1 3 d 6 16 d 7 17 d 6 16 d 6 17 d 2 4 d 2 7 d 1 3 d 1 1 d 1 1 d 1 2 d 1 X 1 1 d 1 -1 d 1 X 1 -1 d 1 -1 d 1 -2 d 1 -4 d 4 -9 d 6 -16 d
 6 -16 d 7 -15 d 6 -16 d 3 -7 d 2 -5 d 1 -3 d 1 -1 d 1 -2 d 1 -2 d 3 -2 d 1 -1 d 2 -1 d 4 -1 d 7 -2 d 6 -3 d 7 -2 d 6 -2 d 5 -2 d 1 -1 d 2 -1 d 5 -4 d 6 -7 d 7 -6 d 6 -6 d 6 -6 d 7 -7 d 2 -2 d 2 -2 d 1 -1 d 2 X 1 1 d 2 2 d 2 4 d 1 1 d 6 7 d 6 8 d 7
 8 d 6 7 d 7 8 d 6 8 d 6 8 d 7 7 d 6 8 d 7 8 d 6 8 d 6 8 d 7 8 d 6 7 d 7 8 d 6 8 d 6 8 d 7 8 d 6 8 d 7 8 d s 1460 1084 m 6 8 d 6 8 d 7 8 d 6 7 d 7 8 d 6 8 d 6 8 d 7 8 d 6 8 d 7 8 d 6 8 d 6 9 d 7 8 d 6 8 d 7 8 d 6 8 d 7 8 d 6 8 d 6 8 d 7 8 d 6 8 d 7
 8 d 6 8 d 6 9 d 7 8 d 6 8 d 7 8 d 6 8 d 6 8 d 7 8 d 6 9 d 7 8 d 6 8 d 6 8 d 7 8 d 6 9 d 7 8 d 6 8 d 6 8 d 7 9 d 6 8 d 7 8 d 6 8 d 6 9 d 4 5 d s[  12 12 ] 0 sd 1 1 1 c black 0.0666667 0.313726 0 c 521 1446 m 1 -85 d s 522 1361 m 1 -114 d 2 -134 d 2
 -165 d 2 -89 d 1 -67 d 1 -61 d -40 Y 2 -82 d 1 -61 d 1 -52 d 1 -38 d 1 -33 d 1 -21 d 1 -28 d 1 -26 d 1 -23 d 1 -23 d 2 -20 d -5 Y 1 -10 d 1 -8 d 2 -5 d 2 -3 d 2 X 5 7 d 6 8 d 7 -2 d 6 1 d 7 2 d 6 1 d 6 4 d 7 4 d 6 3 d 7 4 d 6 4 d 6 4 d 7 7 d 6 7 d
 7 7 d 6 6 d 6 7 d 7 7 d 6 9 d 7 13 d 6 12 d 6 13 d 7 12 d 6 13 d 7 13 d 4 4 d 2 1 d 6 -4 d 7 -3 d 6 -3 d 7 -3 d 6 -3 d 6 -3 d 7 3 d 6 6 d 7 7 d 6 6 d 6 6 d 7 6 d 6 6 d 7 10 d 6 11 d 6 11 d 7 11 d 6 11 d s 832 499 m 7 11 d 5 8 d 1 5 d 1 6 d 2 11 d 3
 32 d 7 49 d 6 49 d 7 50 d 6 49 d 6 50 d 5 37 d 2 9 d 6 35 d 7 35 d 6 35 d 6 36 d 7 35 d 6 35 d 7 38 d 6 41 d 6 40 d 7 41 d 6 41 d 7 41 d 3 21 d 2 14 d 1 6 d 2 7 d 2 5 d 2 2 d 3 X 4 -4 d 6 -5 d 7 -4 d 6 -4 d 6 -5 d 7 -4 d 6 -4 d 7 -5 d 6 -4 d 6 -4 d
 7 -4 d 6 -4 d 7 -4 d 13 X 6 1 d 6 1 d 7 X 6 1 d 5 -1 d 1 -2 d 1 -1 d 1 -7 d 5 -25 d 6 -31 d 7 -32 d 6 -31 d 7 -32 d 6 -31 d s 1146 1128 m 1 -4 d 1 -3 d -3 Y 1 -2 d 1 -2 d 1 -1 d 1 -1 d 1 X 1 1 d 2 Y 1 3 d 2 5 d 1 4 d 1 2 d 6 18 d 7 17 d 6 17 d 6 18
 d 2 4 d 2 7 d 1 3 d 1 2 d 1 1 d 1 1 d 1 1 d 1 1 d 2 -1 d 1 X -1 Y 1 -1 d 1 -2 d 4 -10 d 1 -2 d 6 -15 d 6 -15 d 7 -15 d 6 -15 d 3 -7 d 2 -4 d 1 -3 d 1 -1 d 1 -2 d 2 -1 d 2 -2 d 1 -1 d 2 X 4 -1 d 7 -2 d 6 -1 d 7 -2 d 6 -1 d 5 -1 d 1 -1 d 2 -1 d 5 -4
 d 6 -5 d 7 -6 d 6 -5 d 6 -6 d 7 -5 d 2 -3 d 2 -2 d 3 X 1 2 d 2 2 d 2 4 d 1 X 6 9 d 6 8 d 7 9 d 6 8 d 7 9 d 6 8 d 6 9 d 7 8 d 6 9 d 7 8 d 6 9 d 6 8 d 7 9 d 6 8 d 7 9 d 6 9 d 6 8 d 7 9 d 6 8 d 7 9 d s 1460 1254 m 6 9 d 6 8 d 7 9 d 6 9 d 7 8 d 6 9 d 6
 9 d 7 8 d 6 9 d 7 9 d 6 8 d 6 9 d 7 9 d 6 9 d 7 8 d 6 9 d 7 9 d 6 9 d 6 8 d 7 9 d 6 9 d 7 9 d s 1 0 0 c[  ] 0 sd 3 lw 534 203 m 1243 Y s 0.501961 0 0 c
 gsave  2268 1538 0 0 C 583 792 t 90 r /Helvetica-Bold findfont 52.1314 sf 0 0 m (LEP exclusion at 95% CL) show NC gr  1 0 0 c 1019 203 m 1243 Y s 932 203 m 1243 Y s 0.501961 0 0 c
 gsave  2268 1538 0 0 C 1072 241 t 90 r /Helvetica-Bold findfont 52.1314 sf 0 0 m (Tevatron exclusion at 95% CL) show NC gr  0.3 0.3 0.3 c[  12 12 ] 0 sd 234 307 m 1920 X s
 gsave  2268 1538 0 0 C 2199 283 t 0 r /Symbol findfont 58.6478 sf 0 0 m (s) show NC gr 
 gsave  2268 1538 0 0 C 2173 283 t 0 r /Helvetica-Bold findfont 58.6478 sf 0 0 m (1) show NC gr  234 617 m 1920 X s
 gsave  2268 1538 0 0 C 2206 593 t 0 r /Symbol findfont 58.6478 sf 0 0 m (s) show NC gr 
 gsave  2268 1538 0 0 C 2173 593 t 0 r /Helvetica-Bold findfont 58.6478 sf 0 0 m (2) show NC gr  234 1135 m 1920 X s
 gsave  2268 1538 0 0 C 2206 1111 t 0 r /Symbol findfont 58.6478 sf 0 0 m (s) show NC gr 
 gsave  2268 1538 0 0 C 2173 1111 t 0 r /Helvetica-Bold findfont 58.6478 sf 0 0 m (3) show NC gr  1 1 1 c[  ] 0 sd 884 246 1202 338 bl black
 gsave  2268 1538 0 0 C 1333 525 t 0 r /Helvetica-Bold findfont 55.3896 sf 0 0 m (Theory uncertainty) show NC gr  0.811765 1 0.278431 c 1222 515 m 93 X 57 Y -93 X f 1222 543 m 93 X s black
 gsave  2268 1538 0 0 C 1333 443 t 0 r /Helvetica-Bold findfont 55.3896 sf 0 0 m (Fit including theory errors) show NC gr  0.0666667 0.313726 0 c 6 lw 1222 461 m 93 X s black
 gsave  2268 1538 0 0 C 1333 362 t 0 r /Helvetica-Bold findfont 55.3896 sf 0 0 m (Fit excluding theory errors) show NC gr  0.0666667 0.313726 0 c[  12 12 ] 0 sd 1222 379 m 93 X s black[  ] 0 sd 3 lw 234 203 m 1920 X s
 gsave  2268 1538 0 0 C 1965 29 t 0 r /Helvetica-Bold findfont 65.1643 sf 0 0 m ( [GeV]) show NC gr 
 gsave  2268 1538 0 0 C 1935 10 t 0 r /Helvetica-Bold findfont 42.3568 sf 0 0 m (H) show NC gr 
 gsave  2268 1538 0 0 C 1883 29 t 0 r /Helvetica-Bold findfont 65.1643 sf 0 0 m (M) show NC gr  408 242 m -39 Y s 495 223 m -20 Y s 583 223 m -20 Y s 670 223 m -20 Y s 757 223 m -20 Y s 845 242 m -39 Y s 932 223 m -20 Y s 1019 223 m -20 Y s 1107 223
 m -20 Y s 1194 223 m -20 Y s 1281 242 m -39 Y s 1369 223 m -20 Y s 1456 223 m -20 Y s 1543 223 m -20 Y s 1630 223 m -20 Y s 1718 242 m -39 Y s 1805 223 m -20 Y s 1892 223 m -20 Y s 1980 223 m -20 Y s 2067 223 m -20 Y s 2154 242 m -39 Y s 408 242 m
 -39 Y s 321 223 m -20 Y s 234 223 m -20 Y s
 gsave  2268 1538 0 0 C 358 137 t 0 r /Helvetica-Bold findfont 58.6478 sf 0 0 m (100) show NC gr 
 gsave  2268 1538 0 0 C 795 137 t 0 r /Helvetica-Bold findfont 58.6478 sf 0 0 m (150) show NC gr 
 gsave  2268 1538 0 0 C 1232 137 t 0 r /Helvetica-Bold findfont 58.6478 sf 0 0 m (200) show NC gr 
 gsave  2268 1538 0 0 C 1668 137 t 0 r /Helvetica-Bold findfont 58.6478 sf 0 0 m (250) show NC gr 
 gsave  2268 1538 0 0 C 2105 137 t 0 r /Helvetica-Bold findfont 58.6478 sf 0 0 m (300) show NC gr  234 1446 m 1920 X s 408 1407 m 39 Y s 495 1426 m 20 Y s 583 1426 m 20 Y s 670 1426 m 20 Y s 757 1426 m 20 Y s 845 1407 m 39 Y s 932 1426 m 20 Y s 1019
 1426 m 20 Y s 1107 1426 m 20 Y s 1194 1426 m 20 Y s 1281 1407 m 39 Y s 1369 1426 m 20 Y s 1456 1426 m 20 Y s 1543 1426 m 20 Y s 1630 1426 m 20 Y s 1718 1407 m 39 Y s 1805 1426 m 20 Y s 1892 1426 m 20 Y s 1980 1426 m 20 Y s 2067 1426 m 20 Y s 2154
 1407 m 39 Y s 408 1407 m 39 Y s 321 1426 m 20 Y s 234 1426 m 20 Y s 234 203 m 1243 Y s
 gsave  2268 1538 0 0 C 62 1424 t 90 r /Helvetica-Bold findfont 42.3568 sf 0 0 m (2) show NC gr 
 gsave  2268 1538 0 0 C 88 1388 t 90 r /Symbol findfont 65.1643 sf 0 0 m (c) show NC gr 
 gsave  2268 1538 0 0 C 88 1346 t 90 r /Symbol findfont 65.1643 sf 0 0 m (D) show NC gr  289 203 m -55 X s 261 255 m -27 X s 261 307 m -27 X s 261 358 m -27 X s 289 410 m -55 X s 261 462 m -27 X s 261 514 m -27 X s 261 565 m -27 X s 289 617 m -55 X
 s 261 669 m -27 X s 261 721 m -27 X s 261 773 m -27 X s 289 824 m -55 X s 261 876 m -27 X s 261 928 m -27 X s 261 980 m -27 X s 289 1031 m -55 X s 261 1083 m -27 X s 261 1135 m -27 X s 261 1187 m -27 X s 289 1239 m -55 X s 261 1290 m -27 X s 261
 1342 m -27 X s 261 1394 m -27 X s 289 1446 m -55 X s
 gsave  2268 1538 0 0 C 173 179 t 0 r /Helvetica-Bold findfont 58.6478 sf 0 0 m (0) show NC gr 
 gsave  2268 1538 0 0 C 173 384 t 0 r /Helvetica-Bold findfont 58.6478 sf 0 0 m (2) show NC gr 
 gsave  2268 1538 0 0 C 173 593 t 0 r /Helvetica-Bold findfont 58.6478 sf 0 0 m (4) show NC gr 
 gsave  2268 1538 0 0 C 173 798 t 0 r /Helvetica-Bold findfont 58.6478 sf 0 0 m (6) show NC gr 
 gsave  2268 1538 0 0 C 173 1007 t 0 r /Helvetica-Bold findfont 58.6478 sf 0 0 m (8) show NC gr 
 gsave  2268 1538 0 0 C 140 1215 t 0 r /Helvetica-Bold findfont 58.6478 sf 0 0 m (10) show NC gr 
 gsave  2268 1538 0 0 C 140 1421 t 0 r /Helvetica-Bold findfont 58.6478 sf 0 0 m (12) show NC gr  2154 203 m 1243 Y s 2099 203 m 55 X s 2127 255 m 27 X s 2127 307 m 27 X s 2127 358 m 27 X s 2099 410 m 55 X s 2127 462 m 27 X s 2127 514 m 27 X s 2127
 565 m 27 X s 2099 617 m 55 X s 2127 669 m 27 X s 2127 721 m 27 X s 2127 773 m 27 X s 2099 824 m 55 X s 2127 876 m 27 X s 2127 928 m 27 X s 2127 980 m 27 X s 2099 1031 m 55 X s 2127 1083 m 27 X s 2127 1135 m 27 X s 2127 1187 m 27 X s 2099 1239 m 55
 X s 2127 1290 m 27 X s 2127 1342 m 27 X s 2127 1394 m 27 X s 2099 1446 m 55 X s 1 0 0 c 75 74 1780 1149 bf 1 1 1 c
 gsave  75 74 1780 1149 C 1815 1160 t 0 r  -26 0 t /Helvetica findfont 71.1233 sf 0 0 m (G) show NC gr  black 1780 1149 m 74 Y s 1780 1223 m 75 X s 1855 1223 m -74 Y s 1855 1149 m -75 X s 0.878431 0.933333 0.933333 c 171 74 1855 1149 bf black
 gsave  171 74 1855 1149 C 1940 1160 t 0 r  -68 0 t /Helvetica findfont 71.1233 sf 0 0 m (fitter) show NC gr  1855 1149 m 74 Y s 1855 1223 m 171 X s 2026 1223 m -74 Y s 2026 1149 m -171 X s 1 1 1 c 65 74 2026 1149 bf 1 0 0 c
 gsave  65 74 2026 1149 C 2057 1158 t 0 r  -24 0 t /Helvetica findfont 34.093 sf 0 0 m (SM) show NC gr 
 gsave  65 74 2026 1149 C 2057 1192 t 0 r  52131 0 t /Helvetica findfont 34.093 sf 0 0 m () show NC gr  black 2026 1149 m 74 Y s 2026 1223 m 65 X s 2091 1223 m -74 Y s 2091 1149 m -65 X s 1 1 1 c 39 74 2091 1149 bf black
 gsave  39 74 2091 1149 C 2100 1186 t 270 r  -31 0 t /Helvetica findfont 21.1676 sf 0 0 m (Mar 09) show NC gr  2091 1149 m 74 Y s
 gr  gr 
showpage
end
%%EOF
