%!PS-Adobe-2.0 EPSF-2.0
%%BoundingBox:  0 0 567 384
%%Title: plots/HiggsScan_logo.eps: A Gfitter plot of the Higgs mass estimate
%%Creator: ROOT Version 5.18/00
%%CreationDate: Thu Mar 19 13:18:00 2009
%%EndComments
%%BeginProlog
80 dict begin
/s {stroke} def /l {lineto} def /m {moveto} def /t {translate} def
/sw {stringwidth} def /r {rotate} def /rl {roll}  def /R {repeat} def
/d {rlineto} def /rm {rmoveto} def /gr {grestore} def /f {eofill} def
/c {setrgbcolor} def /black {0 setgray} def /sd {setdash} def
/cl {closepath} def /sf {scalefont setfont} def /lw {setlinewidth} def
/box {m dup 0 exch d exch 0 d 0 exch neg d cl} def
/NC{systemdict begin initclip end}def/C{NC box clip newpath}def
/bl {box s} def /bf {box f} def /Y { 0 exch d} def /X { 0 d} def 
/mp {newpath /y exch def /x exch def} def
/side {[w .77 mul w .23 mul] .385 w mul sd w 0 l currentpoint t -144 r} def
/mr {mp x y w2 0 360 arc} def /m24 {mr s} def /m20 {mr f} def
/mb {mp x y w2 add m w2 neg 0 d 0 w neg d w 0 d 0 w d cl} def
/mt {mp x y w2 add m w2 neg w neg d w 0 d cl} def
/m21 {mb f} def /m25 {mb s} def /m22 {mt f} def /m26{mt s} def
/m23 {mp x y w2 sub m w2 w d w neg 0 d cl f} def
/m27 {mp x y w2 add m w3 neg w2 neg d w3 w2 neg d w3 w2 d cl s} def
/m28 {mp x w2 sub y w2 sub w3 add m w3 0 d  0 w3 neg d w3 0 d 0 w3 d w3 0 d  0 w3 d w3 neg 0 d 0 w3 d w3 neg 0 d
 0 w3 neg d w3 neg 0 d cl s } def
/m29 {mp gsave x w2 sub y w2 add w3 sub m currentpoint t
 4 {side} repeat cl fill gr} def
/m30 {mp gsave x w2 sub y w2 add w3 sub m currentpoint t
 4 {side} repeat cl s gr} def
/m31 {mp x y w2 sub m 0 w d x w2 sub y m w 0 d x w2 sub y w2 add m w w neg d x w2 sub y w2
 sub m w w d s} def
/m2 {mp x y w2 sub m 0 w d x w2 sub y m w 0 d s} def
/m5 {mp x w2 sub y w2 sub m w w d x w2 sub y w2 add m w w neg d s} def
/reencdict 24 dict def /ReEncode {reencdict begin /nco&na exch def
/nfnam exch def /basefontname exch def /basefontdict basefontname findfont def
/newfont basefontdict maxlength dict def basefontdict {exch dup /FID ne
{dup /Encoding eq {exch dup length array copy newfont 3 1 roll put} {exch 
newfont 3 1 roll put} ifelse} {pop pop} ifelse } forall newfont
/FontName nfnam put nco&na aload pop nco&na length 2 idiv {newfont
/Encoding get 3 1 roll put} repeat nfnam newfont definefont pop end } def
/accvec [ 176 /agrave 181 /Agrave 190 /acircumflex 192 /Acircumflex
201 /adieresis 204 /Adieresis 209 /ccedilla 210 /Ccedilla 211 /eacute
212 /Eacute 213 /egrave 214 /Egrave 215 /ecircumflex 216 /Ecircumflex
217 /edieresis 218 /Edieresis 219 /icircumflex 220 /Icircumflex
221 /idieresis 222 /Idieresis 223 /ntilde 224 /Ntilde 226 /ocircumflex
228 /Ocircumflex 230 /Odieresis 231 /ucircumflex 236 /Ucircumflex
237 /udieresis 238 /Udieresis 239 /aring 240 /odieresis 242 /Aring 243 /ydieresis
244 /Ydieresis 246 /aacute 247 /Aacute 252 /ugrave 253 /Ugrave
127 /atilde 128 /Atilde 129 /oacute 130 /Oacute 131 /iacute
132 /Iacute 133 /igrave 134 /Igrave 135 /otilde 136 /Otilde
137 /uacute 138 /Uacute] def
/Times-Roman /Times-Roman accvec ReEncode
/Times-Italic /Times-Italic accvec ReEncode
/Times-Bold /Times-Bold accvec ReEncode
/Times-BoldItalic /Times-BoldItalic accvec ReEncode
/Helvetica /Helvetica accvec ReEncode
/Helvetica-Oblique /Helvetica-Oblique accvec ReEncode
/Helvetica-Bold /Helvetica-Bold accvec ReEncode
/Helvetica-BoldOblique /Helvetica-BoldOblique  accvec ReEncode
/Courier /Courier accvec ReEncode
/Courier-Oblique /Courier-Oblique accvec ReEncode
/Courier-Bold /Courier-Bold accvec ReEncode
/Courier-BoldOblique /Courier-BoldOblique accvec ReEncode
/oshow {gsave [] 0 sd true charpath stroke gr} def
/stwn { /fs exch def /fn exch def /text exch def fn findfont fs sf
 text sw pop xs add /xs exch def} def
/stwb { /fs exch def /fn exch def /nbas exch def /textf exch deftextf length /tlen exch def nbas tlen gt {/nbas tlendef} iffn findfont fs sf textf dup length nbas sub nbas getinterval sw
pop neg xs add /xs exch def} def
/accspe [ 65 /plusminus  66 /bar  67 /existential  68 /universal 
69 /exclam  70 /numbersign 71 /greater  72 /question  73 /integral 
74 /colon  75 /semicolon  76 /less  77 /bracketleft  78 /bracketright
79 /greaterequal 80 /braceleft 81 /braceright 82 /radical
83 /spade 84 /heart 85 /diamond 86 /club 87 /lessequal
88 /multiply 89 /percent 90 /infinity 48 /circlemultiply 49 /circleplus
50 /emptyset  51 /lozenge 52 /bullet 53 /arrowright 54 /arrowup
55 /arrowleft 56 /arrowdown 57 /arrowboth 48 /degree 44 /comma 43 /plus 45 /angle 42 /angleleft 47 /divide 61 /notequal 40 /equivalence 41 /second 97 /approxequal 98 /congruent 99 /perpendicular 100 /partialdiff 101 /florin 102 /intersection
 103 /union 104 /propersuperset 105 /reflexsuperset 106 /notsubset 107 /propersubset 108 /reflexsubset 109 /element 110 /notelement 111 /gradient 112 /logicaland 113 /logicalor 114 /arrowdblboth 115 /arrowdblleft 116 /arrowdblup 117 /arrowdblright
 118 /arrowdbldown 119 /ampersand 120 /omega1 121 /similar 122 /aleph ] def
/Symbol /Special accspe ReEncode
%%EndProlog
%%BeginSetup
%%EndSetup
newpath  gsave  .25 .25 scale  gsave  0 0 t black[  ] 0 sd 3 lw 1 1 1 c 2268 1538 0 0 bf black 1 1 1 c 1920 1243 234 203 bf black 1920 1243 234 203 bl 1 1 1 c 1920 1243 234 203 bf black 1920 1243 234 203 bl 1 1 1 c black 234 203 m 1920 X s 234 203 m
 1920 X s
 gsave  2268 1538 0 0 C 1965 29 t 0 r /Helvetica-Bold findfont 65.1643 sf 0 0 m ( [GeV]) show NC gr 
 gsave  2268 1538 0 0 C 1935 10 t 0 r /Helvetica-Bold findfont 42.3568 sf 0 0 m (H) show NC gr 
 gsave  2268 1538 0 0 C 1883 29 t 0 r /Helvetica-Bold findfont 65.1643 sf 0 0 m (M) show NC gr  376 242 m -39 Y s 447 223 m -20 Y s 518 223 m -20 Y s 589 223 m -20 Y s 660 223 m -20 Y s 732 242 m -39 Y s 803 223 m -20 Y s 874 223 m -20 Y s 945 223 m
 -20 Y s 1016 223 m -20 Y s 1087 242 m -39 Y s 1158 223 m -20 Y s 1230 223 m -20 Y s 1301 223 m -20 Y s 1372 223 m -20 Y s 1443 242 m -39 Y s 1514 223 m -20 Y s 1585 223 m -20 Y s 1656 223 m -20 Y s 1727 223 m -20 Y s 1799 242 m -39 Y s 1870 223 m
 -20 Y s 1941 223 m -20 Y s 2012 223 m -20 Y s 2083 223 m -20 Y s 2154 242 m -39 Y s 376 242 m -39 Y s 305 223 m -20 Y s 234 223 m -20 Y s
 gsave  2268 1538 0 0 C 342 137 t 0 r /Helvetica-Bold findfont 58.6478 sf 0 0 m (50) show NC gr 
 gsave  2268 1538 0 0 C 681 137 t 0 r /Helvetica-Bold findfont 58.6478 sf 0 0 m (100) show NC gr 
 gsave  2268 1538 0 0 C 1036 137 t 0 r /Helvetica-Bold findfont 58.6478 sf 0 0 m (150) show NC gr 
 gsave  2268 1538 0 0 C 1391 137 t 0 r /Helvetica-Bold findfont 58.6478 sf 0 0 m (200) show NC gr 
 gsave  2268 1538 0 0 C 1750 137 t 0 r /Helvetica-Bold findfont 58.6478 sf 0 0 m (250) show NC gr 
 gsave  2268 1538 0 0 C 2105 137 t 0 r /Helvetica-Bold findfont 58.6478 sf 0 0 m (300) show NC gr  234 1446 m 1920 X s 376 1407 m 39 Y s 447 1426 m 20 Y s 518 1426 m 20 Y s 589 1426 m 20 Y s 660 1426 m 20 Y s 732 1407 m 39 Y s 803 1426 m 20 Y s 874
 1426 m 20 Y s 945 1426 m 20 Y s 1016 1426 m 20 Y s 1087 1407 m 39 Y s 1158 1426 m 20 Y s 1230 1426 m 20 Y s 1301 1426 m 20 Y s 1372 1426 m 20 Y s 1443 1407 m 39 Y s 1514 1426 m 20 Y s 1585 1426 m 20 Y s 1656 1426 m 20 Y s 1727 1426 m 20 Y s 1799
 1407 m 39 Y s 1870 1426 m 20 Y s 1941 1426 m 20 Y s 2012 1426 m 20 Y s 2083 1426 m 20 Y s 2154 1407 m 39 Y s 376 1407 m 39 Y s 305 1426 m 20 Y s 234 1426 m 20 Y s 234 203 m 1243 Y s
 gsave  2268 1538 0 0 C 62 1424 t 90 r /Helvetica-Bold findfont 42.3568 sf 0 0 m (2) show NC gr 
 gsave  2268 1538 0 0 C 88 1388 t 90 r /Symbol findfont 65.1643 sf 0 0 m (c) show NC gr 
 gsave  2268 1538 0 0 C 88 1346 t 90 r /Symbol findfont 65.1643 sf 0 0 m (D) show NC gr  289 203 m -55 X s 261 228 m -27 X s 261 253 m -27 X s 261 278 m -27 X s 261 302 m -27 X s 289 327 m -55 X s 261 352 m -27 X s 261 377 m -27 X s 261 402 m -27 X
 s 261 427 m -27 X s 289 452 m -55 X s 261 476 m -27 X s 261 501 m -27 X s 261 526 m -27 X s 261 551 m -27 X s 289 576 m -55 X s 261 601 m -27 X s 261 625 m -27 X s 261 650 m -27 X s 261 675 m -27 X s 289 700 m -55 X s 261 725 m -27 X s 261 750 m
 -27 X s 261 775 m -27 X s 261 799 m -27 X s 289 824 m -55 X s 261 849 m -27 X s 261 874 m -27 X s 261 899 m -27 X s 261 924 m -27 X s 289 949 m -55 X s 261 973 m -27 X s 261 998 m -27 X s 261 1023 m -27 X s 261 1048 m -27 X s 289 1073 m -55 X s 261
 1098 m -27 X s 261 1123 m -27 X s 261 1147 m -27 X s 261 1172 m -27 X s 289 1197 m -55 X s 261 1222 m -27 X s 261 1247 m -27 X s 261 1272 m -27 X s 261 1296 m -27 X s 289 1321 m -55 X s 261 1346 m -27 X s 261 1371 m -27 X s 261 1396 m -27 X s 261
 1421 m -27 X s 289 1446 m -55 X s
 gsave  2268 1538 0 0 C 173 179 t 0 r /Helvetica-Bold findfont 58.6478 sf 0 0 m (0) show NC gr 
 gsave  2268 1538 0 0 C 179 303 t 0 r /Helvetica-Bold findfont 58.6478 sf 0 0 m (1) show NC gr 
 gsave  2268 1538 0 0 C 173 427 t 0 r /Helvetica-Bold findfont 58.6478 sf 0 0 m (2) show NC gr 
 gsave  2268 1538 0 0 C 173 551 t 0 r /Helvetica-Bold findfont 58.6478 sf 0 0 m (3) show NC gr 
 gsave  2268 1538 0 0 C 173 674 t 0 r /Helvetica-Bold findfont 58.6478 sf 0 0 m (4) show NC gr 
 gsave  2268 1538 0 0 C 173 798 t 0 r /Helvetica-Bold findfont 58.6478 sf 0 0 m (5) show NC gr 
 gsave  2268 1538 0 0 C 173 925 t 0 r /Helvetica-Bold findfont 58.6478 sf 0 0 m (6) show NC gr 
 gsave  2268 1538 0 0 C 173 1049 t 0 r /Helvetica-Bold findfont 58.6478 sf 0 0 m (7) show NC gr 
 gsave  2268 1538 0 0 C 173 1173 t 0 r /Helvetica-Bold findfont 58.6478 sf 0 0 m (8) show NC gr 
 gsave  2268 1538 0 0 C 173 1297 t 0 r /Helvetica-Bold findfont 58.6478 sf 0 0 m (9) show NC gr 
 gsave  2268 1538 0 0 C 140 1421 t 0 r /Helvetica-Bold findfont 58.6478 sf 0 0 m (10) show NC gr  2154 203 m 1243 Y s 2099 203 m 55 X s 2127 228 m 27 X s 2127 253 m 27 X s 2127 278 m 27 X s 2127 302 m 27 X s 2099 327 m 55 X s 2127 352 m 27 X s 2127
 377 m 27 X s 2127 402 m 27 X s 2127 427 m 27 X s 2099 452 m 55 X s 2127 476 m 27 X s 2127 501 m 27 X s 2127 526 m 27 X s 2127 551 m 27 X s 2099 576 m 55 X s 2127 601 m 27 X s 2127 625 m 27 X s 2127 650 m 27 X s 2127 675 m 27 X s 2099 700 m 55 X s
 2127 725 m 27 X s 2127 750 m 27 X s 2127 775 m 27 X s 2127 799 m 27 X s 2099 824 m 55 X s 2127 849 m 27 X s 2127 874 m 27 X s 2127 899 m 27 X s 2127 924 m 27 X s 2099 949 m 55 X s 2127 973 m 27 X s 2127 998 m 27 X s 2127 1023 m 27 X s 2127 1048 m
 27 X s 2099 1073 m 55 X s 2127 1098 m 27 X s 2127 1123 m 27 X s 2127 1147 m 27 X s 2127 1172 m 27 X s 2099 1197 m 55 X s 2127 1222 m 27 X s 2127 1247 m 27 X s 2127 1272 m 27 X s 2127 1296 m 27 X s 2099 1321 m 55 X s 2127 1346 m 27 X s 2127 1371 m
 27 X s 2127 1396 m 27 X s 2127 1421 m 27 X s 2099 1446 m 55 X s 0.6 0.6 0.6 c black 0.6 0.6 0.6 c 234 203 m 1243 Y 600 X -1243 Y -600 X f 0.8 0.8 0.8 c black 0.8 0.8 0.8 c 834 228 m -25 -25 d s 834 314 m -111 -111 d s 834 401 m -198 -198 d s 834
 488 m -285 -285 d s 834 574 m -371 -371 d s 834 661 m -458 -458 d s 834 747 m -544 -544 d s 834 834 m -600 -600 d s 834 921 m -600 -601 d s 834 1007 m -600 -600 d s 834 1094 m -600 -601 d s 834 1180 m -600 -600 d s 834 1267 m -600 -600 d s 834 1354
 m -600 -601 d s 834 1440 m -600 -600 d s 753 1446 m -519 -520 d s 666 1446 m -432 -433 d s 580 1446 m -346 -347 d s 493 1446 m -259 -260 d s 407 1446 m -173 -173 d s 320 1446 m -86 -87 d s 0.6 0.6 0.6 c black 0.6 0.6 0.6 c 1158 203 m 1243 Y 72 X
 -1243 Y -72 X f 0.8 0.8 0.8 c black 0.8 0.8 0.8 c 1230 277 m -72 -71 d s 1230 364 m -72 -72 d s 1230 450 m -72 -71 d s 1230 537 m -72 -71 d s 1230 623 m -72 -71 d s 1230 710 m -72 -71 d s 1230 797 m -72 -72 d s 1230 883 m -72 -71 d s 1230 970 m -72
 -71 d s 1230 1056 m -72 -71 d s 1230 1143 m -72 -71 d s 1230 1230 m -72 -72 d s 1230 1316 m -72 -71 d s 1230 1403 m -72 -71 d s 1186 1446 m -28 -28 d s 0.811765 1 0.278431 c black 0.811765 1 0.278431 c 234 1176 m 5 -44 d 7 -50 d 7 -48 d 7 -46 d 7
 -43 d 7 -41 d 6 -39 d 7 -37 d 7 -35 d 7 -33 d 7 -32 d 7 -30 d 7 -28 d 7 -28 d 6 -26 d 7 -25 d 7 -24 d 7 -23 d 7 -21 d 7 -21 d 7 -20 d 7 -20 d 6 -18 d 7 -18 d 7 -17 d 7 -16 d 7 -15 d 7 -14 d 7 -14 d 7 -13 d 6 -12 d 7 -11 d 7 -11 d 7 -10 d 7 -9 d 7
 -9 d 7 -8 d 7 -8 d 6 -7 d 7 -6 d 7 -6 d 7 -6 d 7 -5 d 7 -4 d 7 -4 d 7 -4 d 6 -3 d 7 -3 d 7 -2 d 7 -2 d 7 -1 d 7 -2 d 7 X 7 -1 d 13 X 7 1 d 7 1 d 7 1 d 7 1 d 7 2 d 7 2 d 7 2 d 6 3 d 7 3 d 7 3 d 7 3 d 7 4 d 7 4 d 7 4 d 7 4 d 6 4 d 7 5 d 7 5 d 7 5 d 7
 6 d 7 5 d 7 6 d 7 6 d 6 6 d 7 6 d 7 6 d 7 6 d 7 7 d 7 6 d 7 6 d 7 7 d 6 6 d 7 7 d 7 7 d 7 6 d 7 7 d 7 7 d 7 7 d 7 7 d 6 7 d 7 7 d 7 7 d 7 7 d 7 7 d 7 8 d 7 7 d 7 7 d 6 8 d 7 7 d 7 8 d 7 7 d 7 8 d 7 7 d 7 8 d 7 8 d 6 8 d 7 9 d 7 8 d 7 8 d 7 9 d 7 8
 d 7 9 d 7 9 d 6 9 d 7 8 d 7 9 d 7 10 d 7 9 d 7 9 d 7 9 d 7 10 d 6 9 d 7 10 d 7 10 d 7 9 d 7 10 d 7 10 d 7 10 d 7 10 d 7 10 d 6 10 d 7 10 d 7 11 d 7 10 d 7 10 d 7 11 d 7 10 d 7 11 d 6 10 d 7 11 d 7 11 d 7 11 d 7 10 d 7 11 d 7 11 d 7 11 d 6 11 d 7 11
 d 7 11 d 7 12 d 7 11 d 7 11 d 7 11 d 7 12 d 6 11 d 7 12 d 7 11 d 7 12 d 7 11 d 7 12 d 7 11 d 7 12 d 6 12 d 7 12 d 7 11 d 7 12 d 7 12 d 7 12 d 7 12 d 7 12 d 6 12 d 7 12 d 7 12 d 7 12 d 7 12 d 7 12 d 7 12 d 7 13 d 6 12 d 7 12 d 7 12 d 7 13 d 7 12 d 7
 12 d 7 13 d 7 12 d 6 13 d 7 12 d 7 12 d 7 13 d 7 12 d 4 9 d -104 X -3 -7 d -7 -13 d -7 -14 d -7 -13 d -7 -13 d -7 -13 d -6 -14 d -7 -13 d -7 -13 d -7 -13 d -7 -13 d -7 -13 d -7 -13 d -7 -13 d -6 -13 d -7 -13 d -7 -13 d -7 -13 d -7 -13 d -7 -13 d -7
 -12 d -7 -13 d -6 -13 d -7 -12 d -7 -13 d -7 -13 d -7 -12 d -7 -13 d -7 -12 d -7 -13 d -6 -12 d -7 -12 d -7 -13 d -7 -12 d -7 -12 d -7 -12 d -7 -12 d -7 -13 d -6 -12 d -7 -12 d -7 -11 d -7 -12 d -7 -12 d -7 -12 d -7 -12 d -7 -11 d -6 -12 d -7 -11 d
 -7 -12 d -7 -11 d -7 -12 d -7 -11 d -7 -11 d -7 -11 d -7 -11 d -6 -11 d -7 -11 d -7 -11 d -7 -11 d -7 -11 d -7 -11 d -7 -10 d -7 -11 d -6 -10 d -7 -10 d -7 -11 d -7 -10 d -7 -10 d -7 -10 d -7 -10 d -7 -10 d -6 -10 d -7 -9 d -7 -10 d -7 -9 d -7 -10
 d -7 -9 d -7 -9 d -7 -9 d -6 -9 d -7 -9 d -7 -8 d -7 -9 d -7 -9 d -7 -8 d -7 -8 d -7 -8 d -6 -8 d -7 -8 d -7 -8 d -7 -7 d -7 -8 d -7 -7 d -7 -7 d -7 -7 d -6 -7 d -7 -7 d -7 -6 d -7 -6 d -7 -7 d -7 -6 d -7 -5 d -7 -6 d -6 -6 d -7 -5 d -7 -5 d -7 -5
 d -7 -5 d -7 -4 d -7 -4 d -7 -4 d -6 -4 d -7 -4 d -7 -3 d -7 -3 d -7 -3 d -7 -3 d -7 -2 d -7 -2 d -6 -2 d -7 -2 d -7 -1 d -7 -1 d -7 X -7 -1 d -7 X -7 1 d -7 X -6 1 d -7 1 d -7 2 d -7 2 d -7 3 d -7 3 d -7 3 d -7 4 d -6 4 d -7 4 d -7 5 d -7 6 d -7 6
 d -7 6 d -7 7 d -7 8 d -6 8 d -7 9 d -7 9 d -7 10 d -7 11 d -7 11 d -7 12 d -7 13 d -6 13 d -7 14 d -7 15 d -7 16 d -7 16 d -7 18 d -7 18 d -7 19 d -6 20 d -7 22 d -7 22 d -7 24 d -7 24 d -7 26 d -7 27 d -7 29 d -6 30 d -7 31 d -7 33 d -7 34 d -7
 36 d -7 38 d -7 40 d -7 41 d -6 44 d -7 46 d -7 48 d -7 51 d -7 53 d -7 56 d -5 47 d f 0.0666667 0.313726 0 c 6 lw 1 1 1 c black 0.0666667 0.313726 0 c 239 1132 m 7 -50 d 7 -48 d 7 -46 d 7 -43 d 7 -41 d 6 -39 d 7 -37 d 7 -35 d 7 -33 d 7 -32 d 7 -30
 d 7 -28 d 7 -28 d 6 -26 d 7 -25 d 7 -24 d 7 -23 d 7 -21 d 7 -21 d 7 -20 d 7 -20 d 6 -18 d 7 -18 d 7 -17 d 7 -16 d 7 -15 d 7 -14 d 7 -14 d 7 -13 d 6 -12 d 7 -11 d 7 -11 d 7 -10 d 7 -9 d 7 -9 d 7 -8 d 7 -8 d 6 -7 d 7 -6 d 7 -6 d 7 -6 d 7 -5 d 7 -4 d
 7 -4 d 7 -4 d 6 -3 d 7 -3 d 7 -2 d 7 -2 d s 576 207 m 7 -1 d 7 -2 d 7 X 7 -1 d 13 X 7 1 d 7 1 d 7 1 d 7 1 d 7 2 d 7 2 d 7 2 d 6 3 d 7 3 d 7 3 d 7 3 d 7 4 d 7 4 d 7 4 d 7 4 d 6 4 d 7 5 d 7 5 d 7 5 d 7 6 d 7 5 d 7 6 d 7 6 d 6 6 d 7 6 d 7 6 d 7 6 d 7
 7 d 7 6 d 7 6 d 7 7 d 6 6 d 7 7 d 7 7 d 7 6 d 7 7 d 7 7 d 7 7 d 7 7 d 6 7 d 7 7 d 7 7 d 7 7 d s 913 415 m 7 7 d 7 8 d 7 7 d 7 7 d 6 8 d 7 7 d 7 8 d 7 7 d 7 8 d 7 7 d 7 8 d 7 8 d 6 8 d 7 9 d 7 8 d 7 8 d 7 9 d 7 8 d 7 9 d 7 9 d 6 9 d 7 8 d 7 9 d 7 10
 d 7 9 d 7 9 d 7 9 d 7 10 d 6 9 d 7 10 d 7 10 d 7 9 d 7 10 d 7 10 d 7 10 d 7 10 d 7 10 d 6 10 d 7 10 d 7 11 d 7 10 d 7 10 d 7 11 d 7 10 d 7 11 d 6 10 d 7 11 d 7 11 d 7 11 d s 1250 860 m 7 10 d 7 11 d 7 11 d 7 11 d 6 11 d 7 11 d 7 11 d 7 12 d 7 11 d
 7 11 d 7 11 d 7 12 d 6 11 d 7 12 d 7 11 d 7 12 d 7 11 d 7 12 d 7 11 d 7 12 d 6 12 d 7 12 d 7 11 d 7 12 d 7 12 d 7 12 d 7 12 d 7 12 d 6 12 d 7 12 d 7 12 d 7 12 d 7 12 d 7 12 d 7 12 d 7 13 d 6 12 d 7 12 d 7 12 d 7 13 d 7 12 d 7 12 d 7 13 d 7 12 d 6
 13 d 7 12 d 7 12 d 7 13 d 7 12 d s[  12 12 ] 0 sd 1 1 1 c black 0.0666667 0.313726 0 c 239 1333 m 7 -56 d 7 -53 d 7 -51 d 7 -48 d 7 -46 d 6 -44 d 7 -41 d 7 -40 d 7 -38 d 7 -36 d 7 -34 d 7 -33 d 7 -31 d 6 -30 d 7 -29 d 7 -27 d 7 -26 d 7 -24 d 7 -24
 d 7 -22 d 7 -22 d 6 -20 d 7 -19 d 7 -18 d 7 -18 d 7 -16 d 7 -16 d 7 -15 d 7 -14 d 6 -13 d 7 -13 d 7 -12 d 7 -11 d 7 -11 d 7 -10 d 7 -9 d 7 -9 d 6 -8 d 7 -8 d 7 -7 d 7 -6 d 7 -6 d 7 -6 d 7 -5 d 7 -4 d 6 -4 d 7 -4 d 7 -3 d 7 -3 d s 576 290 m 7 -3 d 7
 -2 d 7 -2 d 7 -1 d 6 -1 d 7 X 7 -1 d 7 X 7 1 d 7 X 7 1 d 7 1 d 7 2 d 6 2 d 7 2 d 7 2 d 7 3 d 7 3 d 7 3 d 7 3 d 7 4 d 6 4 d 7 4 d 7 4 d 7 4 d 7 5 d 7 5 d 7 5 d 7 5 d 6 6 d 7 6 d 7 5 d 7 6 d 7 7 d 7 6 d 7 6 d 7 7 d 6 7 d 7 7 d 7 7 d 7 7 d 7 8 d 7 7 d
 7 8 d 7 8 d 6 8 d 7 8 d 7 8 d 7 8 d s 913 483 m 7 9 d 7 9 d 7 8 d 7 9 d 6 9 d 7 9 d 7 9 d 7 9 d 7 10 d 7 9 d 7 10 d 7 9 d 6 10 d 7 10 d 7 10 d 7 10 d 7 10 d 7 10 d 7 11 d 7 10 d 6 10 d 7 11 d 7 10 d 7 11 d 7 11 d 7 11 d 7 11 d 7 11 d 6 11 d 7 11 d
 7 11 d 7 11 d 7 11 d 7 12 d 7 11 d 7 12 d 7 11 d 6 12 d 7 11 d 7 12 d 7 12 d 7 12 d 7 12 d 7 11 d 7 12 d 6 12 d 7 13 d 7 12 d 7 12 d s 1250 1003 m 7 12 d 7 12 d 7 13 d 7 12 d 6 12 d 7 13 d 7 12 d 7 13 d 7 12 d 7 13 d 7 13 d 7 12 d 6 13 d 7 13 d 7
 12 d 7 13 d 7 13 d 7 13 d 7 13 d 7 13 d 6 13 d 7 13 d 7 13 d 7 13 d 7 13 d 7 13 d 7 13 d 7 13 d 6 14 d 7 13 d 7 13 d 7 13 d 7 14 d 7 13 d 3 7 d s 1 0 0 c[  ] 0 sd 3 lw 834 203 m 1243 Y s 0.501961 0 0 c
 gsave  2268 1538 0 0 C 883 1108 t 90 r /Helvetica-Bold findfont 52.1314 sf 0 0 m (LEP 95% CL) show NC gr  1 0 0 c 1230 203 m 1243 Y s 1158 203 m 1243 Y s 0.501961 0 0 c
 gsave  2268 1538 0 0 C 1144 990 t 90 r /Helvetica-Bold findfont 52.1314 sf 0 0 m (Tevatron 95% CL) show NC gr  0.3 0.3 0.3 c[  12 12 ] 0 sd 234 327 m 1920 X s
 gsave  2268 1538 0 0 C 2199 303 t 0 r /Symbol findfont 58.6478 sf 0 0 m (s) show NC gr 
 gsave  2268 1538 0 0 C 2173 303 t 0 r /Helvetica-Bold findfont 58.6478 sf 0 0 m (1) show NC gr  234 700 m 1920 X s
 gsave  2268 1538 0 0 C 2206 674 t 0 r /Symbol findfont 58.6478 sf 0 0 m (s) show NC gr 
 gsave  2268 1538 0 0 C 2173 674 t 0 r /Helvetica-Bold findfont 58.6478 sf 0 0 m (2) show NC gr  234 1321 m 1920 X s
 gsave  2268 1538 0 0 C 2206 1297 t 0 r /Symbol findfont 58.6478 sf 0 0 m (s) show NC gr 
 gsave  2268 1538 0 0 C 2173 1297 t 0 r /Helvetica-Bold findfont 58.6478 sf 0 0 m (3) show NC gr  1 1 1 c[  ] 0 sd 885 247 1247 384 bl black
 gsave  2268 1538 0 0 C 1378 570 t 0 r /Helvetica-Bold findfont 55.3896 sf 0 0 m (Theory uncertainty) show NC gr  0.811765 1 0.278431 c 1267 561 m 93 X 57 Y -93 X f 1267 590 m 93 X s black
 gsave  2268 1538 0 0 C 1378 489 t 0 r /Helvetica-Bold findfont 55.3896 sf 0 0 m (Fit including theory errors) show NC gr  0.0666667 0.313726 0 c 6 lw 1267 507 m 93 X s black
 gsave  2268 1538 0 0 C 1378 407 t 0 r /Helvetica-Bold findfont 55.3896 sf 0 0 m (Fit excluding theory errors) show NC gr  0.0666667 0.313726 0 c[  12 12 ] 0 sd 1267 425 m 93 X s black[  ] 0 sd 3 lw 234 203 m 1920 X s
 gsave  2268 1538 0 0 C 1965 29 t 0 r /Helvetica-Bold findfont 65.1643 sf 0 0 m ( [GeV]) show NC gr 
 gsave  2268 1538 0 0 C 1935 10 t 0 r /Helvetica-Bold findfont 42.3568 sf 0 0 m (H) show NC gr 
 gsave  2268 1538 0 0 C 1883 29 t 0 r /Helvetica-Bold findfont 65.1643 sf 0 0 m (M) show NC gr  376 242 m -39 Y s 447 223 m -20 Y s 518 223 m -20 Y s 589 223 m -20 Y s 660 223 m -20 Y s 732 242 m -39 Y s 803 223 m -20 Y s 874 223 m -20 Y s 945 223 m
 -20 Y s 1016 223 m -20 Y s 1087 242 m -39 Y s 1158 223 m -20 Y s 1230 223 m -20 Y s 1301 223 m -20 Y s 1372 223 m -20 Y s 1443 242 m -39 Y s 1514 223 m -20 Y s 1585 223 m -20 Y s 1656 223 m -20 Y s 1727 223 m -20 Y s 1799 242 m -39 Y s 1870 223 m
 -20 Y s 1941 223 m -20 Y s 2012 223 m -20 Y s 2083 223 m -20 Y s 2154 242 m -39 Y s 376 242 m -39 Y s 305 223 m -20 Y s 234 223 m -20 Y s
 gsave  2268 1538 0 0 C 342 137 t 0 r /Helvetica-Bold findfont 58.6478 sf 0 0 m (50) show NC gr 
 gsave  2268 1538 0 0 C 681 137 t 0 r /Helvetica-Bold findfont 58.6478 sf 0 0 m (100) show NC gr 
 gsave  2268 1538 0 0 C 1036 137 t 0 r /Helvetica-Bold findfont 58.6478 sf 0 0 m (150) show NC gr 
 gsave  2268 1538 0 0 C 1391 137 t 0 r /Helvetica-Bold findfont 58.6478 sf 0 0 m (200) show NC gr 
 gsave  2268 1538 0 0 C 1750 137 t 0 r /Helvetica-Bold findfont 58.6478 sf 0 0 m (250) show NC gr 
 gsave  2268 1538 0 0 C 2105 137 t 0 r /Helvetica-Bold findfont 58.6478 sf 0 0 m (300) show NC gr  234 1446 m 1920 X s 376 1407 m 39 Y s 447 1426 m 20 Y s 518 1426 m 20 Y s 589 1426 m 20 Y s 660 1426 m 20 Y s 732 1407 m 39 Y s 803 1426 m 20 Y s 874
 1426 m 20 Y s 945 1426 m 20 Y s 1016 1426 m 20 Y s 1087 1407 m 39 Y s 1158 1426 m 20 Y s 1230 1426 m 20 Y s 1301 1426 m 20 Y s 1372 1426 m 20 Y s 1443 1407 m 39 Y s 1514 1426 m 20 Y s 1585 1426 m 20 Y s 1656 1426 m 20 Y s 1727 1426 m 20 Y s 1799
 1407 m 39 Y s 1870 1426 m 20 Y s 1941 1426 m 20 Y s 2012 1426 m 20 Y s 2083 1426 m 20 Y s 2154 1407 m 39 Y s 376 1407 m 39 Y s 305 1426 m 20 Y s 234 1426 m 20 Y s 234 203 m 1243 Y s
 gsave  2268 1538 0 0 C 62 1424 t 90 r /Helvetica-Bold findfont 42.3568 sf 0 0 m (2) show NC gr 
 gsave  2268 1538 0 0 C 88 1388 t 90 r /Symbol findfont 65.1643 sf 0 0 m (c) show NC gr 
 gsave  2268 1538 0 0 C 88 1346 t 90 r /Symbol findfont 65.1643 sf 0 0 m (D) show NC gr  289 203 m -55 X s 261 228 m -27 X s 261 253 m -27 X s 261 278 m -27 X s 261 302 m -27 X s 289 327 m -55 X s 261 352 m -27 X s 261 377 m -27 X s 261 402 m -27 X
 s 261 427 m -27 X s 289 452 m -55 X s 261 476 m -27 X s 261 501 m -27 X s 261 526 m -27 X s 261 551 m -27 X s 289 576 m -55 X s 261 601 m -27 X s 261 625 m -27 X s 261 650 m -27 X s 261 675 m -27 X s 289 700 m -55 X s 261 725 m -27 X s 261 750 m
 -27 X s 261 775 m -27 X s 261 799 m -27 X s 289 824 m -55 X s 261 849 m -27 X s 261 874 m -27 X s 261 899 m -27 X s 261 924 m -27 X s 289 949 m -55 X s 261 973 m -27 X s 261 998 m -27 X s 261 1023 m -27 X s 261 1048 m -27 X s 289 1073 m -55 X s 261
 1098 m -27 X s 261 1123 m -27 X s 261 1147 m -27 X s 261 1172 m -27 X s 289 1197 m -55 X s 261 1222 m -27 X s 261 1247 m -27 X s 261 1272 m -27 X s 261 1296 m -27 X s 289 1321 m -55 X s 261 1346 m -27 X s 261 1371 m -27 X s 261 1396 m -27 X s 261
 1421 m -27 X s 289 1446 m -55 X s
 gsave  2268 1538 0 0 C 173 179 t 0 r /Helvetica-Bold findfont 58.6478 sf 0 0 m (0) show NC gr 
 gsave  2268 1538 0 0 C 179 303 t 0 r /Helvetica-Bold findfont 58.6478 sf 0 0 m (1) show NC gr 
 gsave  2268 1538 0 0 C 173 427 t 0 r /Helvetica-Bold findfont 58.6478 sf 0 0 m (2) show NC gr 
 gsave  2268 1538 0 0 C 173 551 t 0 r /Helvetica-Bold findfont 58.6478 sf 0 0 m (3) show NC gr 
 gsave  2268 1538 0 0 C 173 674 t 0 r /Helvetica-Bold findfont 58.6478 sf 0 0 m (4) show NC gr 
 gsave  2268 1538 0 0 C 173 798 t 0 r /Helvetica-Bold findfont 58.6478 sf 0 0 m (5) show NC gr 
 gsave  2268 1538 0 0 C 173 925 t 0 r /Helvetica-Bold findfont 58.6478 sf 0 0 m (6) show NC gr 
 gsave  2268 1538 0 0 C 173 1049 t 0 r /Helvetica-Bold findfont 58.6478 sf 0 0 m (7) show NC gr 
 gsave  2268 1538 0 0 C 173 1173 t 0 r /Helvetica-Bold findfont 58.6478 sf 0 0 m (8) show NC gr 
 gsave  2268 1538 0 0 C 173 1297 t 0 r /Helvetica-Bold findfont 58.6478 sf 0 0 m (9) show NC gr 
 gsave  2268 1538 0 0 C 140 1421 t 0 r /Helvetica-Bold findfont 58.6478 sf 0 0 m (10) show NC gr  2154 203 m 1243 Y s 2099 203 m 55 X s 2127 228 m 27 X s 2127 253 m 27 X s 2127 278 m 27 X s 2127 302 m 27 X s 2099 327 m 55 X s 2127 352 m 27 X s 2127
 377 m 27 X s 2127 402 m 27 X s 2127 427 m 27 X s 2099 452 m 55 X s 2127 476 m 27 X s 2127 501 m 27 X s 2127 526 m 27 X s 2127 551 m 27 X s 2099 576 m 55 X s 2127 601 m 27 X s 2127 625 m 27 X s 2127 650 m 27 X s 2127 675 m 27 X s 2099 700 m 55 X s
 2127 725 m 27 X s 2127 750 m 27 X s 2127 775 m 27 X s 2127 799 m 27 X s 2099 824 m 55 X s 2127 849 m 27 X s 2127 874 m 27 X s 2127 899 m 27 X s 2127 924 m 27 X s 2099 949 m 55 X s 2127 973 m 27 X s 2127 998 m 27 X s 2127 1023 m 27 X s 2127 1048 m
 27 X s 2099 1073 m 55 X s 2127 1098 m 27 X s 2127 1123 m 27 X s 2127 1147 m 27 X s 2127 1172 m 27 X s 2099 1197 m 55 X s 2127 1222 m 27 X s 2127 1247 m 27 X s 2127 1272 m 27 X s 2127 1296 m 27 X s 2099 1321 m 55 X s 2127 1346 m 27 X s 2127 1371 m
 27 X s 2127 1396 m 27 X s 2127 1421 m 27 X s 2099 1446 m 55 X s 1 0 0 c 75 74 1780 1326 bf 1 1 1 c
 gsave  75 74 1780 1326 C 1815 1336 t 0 r  -26 0 t /Helvetica findfont 71.1233 sf 0 0 m (G) show NC gr  black 1780 1326 m 74 Y s 1780 1400 m 75 X s 1855 1400 m -74 Y s 1855 1326 m -75 X s 0.878431 0.933333 0.933333 c 171 74 1855 1326 bf black
 gsave  171 74 1855 1326 C 1940 1336 t 0 r  -68 0 t /Helvetica findfont 71.1233 sf 0 0 m (fitter) show NC gr  1855 1326 m 74 Y s 1855 1400 m 171 X s 2026 1400 m -74 Y s 2026 1326 m -171 X s 1 1 1 c 65 74 2026 1326 bf 1 0 0 c
 gsave  65 74 2026 1326 C 2057 1335 t 0 r  -24 0 t /Helvetica findfont 34.093 sf 0 0 m (SM) show NC gr 
 gsave  65 74 2026 1326 C 2057 1368 t 0 r  52131 0 t /Helvetica findfont 34.093 sf 0 0 m () show NC gr  black 2026 1326 m 74 Y s 2026 1400 m 65 X s 2091 1400 m -74 Y s 2091 1326 m -65 X s 1 1 1 c 39 74 2091 1326 bf black
 gsave  39 74 2091 1326 C 2100 1363 t 270 r  -31 0 t /Helvetica findfont 21.1676 sf 0 0 m (Mar 09) show NC gr  2091 1326 m 74 Y s
 gr  gr 
showpage
end
%%EOF
