%!PS-Adobe-2.0 EPSF-2.0
%%BoundingBox: 0 0 567 624
%%Title: /tmp_mnt/hp/hub2a/user/gruenew/lepewwg/xseclep_col.
%%Creator: HIGZ Version 1.23/09
%%CreationDate: 99/07/10   16.17
%%EndComments
%%BeginProlog
80 dict begin
/s {stroke} def /l {lineto} def /m {moveto} def /t {translate} def
/sw {stringwidth} def /r {rotate} def /rl {roll}  def /R {repeat} def
/d {rlineto} def /rm {rmoveto} def /gr {grestore} def /f {eofill} def
/c {setrgbcolor} def /lw {setlinewidth} def /sd {setdash} def
/cl {closepath} def /sf {scalefont setfont} def /black {0 setgray} def
/box {m dup 0 exch d exch 0 d 0 exch neg d cl} def
/NC{systemdict begin initclip end}def/C{NC box clip newpath}def
/bl {box s} def /bf {box f} def /Y { 0 exch d} def /X { 0 d} def 
/mp {newpath /y exch def /x exch def} def
/side {[w .77 mul w .23 mul] .385 w mul sd w 0 l currentpoint t -144 r} def
/mr {mp x y w2 0 360 arc} def /m24 {mr s} def /m20 {mr f} def
/mb {mp x y w2 add m w2 neg 0 d 0 w neg d w 0 d 0 w d cl} def
/mt {mp x y w2 add m w2 neg w neg d w 0 d cl} def
/m21 {mb f} def /m25 {mb s} def /m22 {mt f} def /m26 {mt s} def
/m23 {mp x y w2 sub m w2 w d w neg 0 d cl f} def
/m27 {mp x y w2 add m w3 neg w2 neg d w3 w2 neg d w3  w2 d cl s} def
/m28 {mp x w2 sub y w2 sub w3 add m w3 0 d 0 w3 neg d w3 0 d 0 w3 d w3 0 d
 0 w3 d w3 neg 0 d 0 w3 d w3 neg 0 d
 0 w3 neg d w3 neg 0 d cl s } def
/m29 {mp gsave x w2 sub y w2 add w3 sub m currentpoint t
 4 {side} repeat cl fill gr} def
/m30 {mp gsave x w2 sub y w2 add w3 sub m currentpoint t
 5 {side} repeat s gr} def
/m31 {mp x y w2 sub m 0 w d x w2 sub y m w 0 d
 x w2 sub y w2 add m w w neg d x w2 sub y w2
 sub m w w d s} def
/m2 {mp x y w2 sub m 0 w d x w2 sub y m w 0 d s} def
/m5 {mp x w2 sub y w2 sub m w w d x w2 sub y w2 add m w w neg d s} def
/DP {/PT exch def gsave 47.2 47.2 scale PT 1  eq { 16 16 1 [ 16 0 0 16 neg 0 16
] { < AA AA 55 55 AA AA 55 55 AA AA 55 55 AA AA 55 55 AA AA 55 55 AA AA 55 55
AA AA 55 55 AA AA 55 55 > } image } if PT 2 eq { 16 16 1 [ 16 0 0 16 neg 0 16
] { < BB BB EE EE BB BB EE EE BB BB EE EE BB BB EE EE BB BB EE EE BB BB EE EE
BB BB EE EE BB BB EE EE > } image } if PT 3 eq { 16 16 1 [ 16 0 0 16 neg 0 16
] { < FF FF BB BB FF FF EE EE FF FF BB BB FF FF EE EE FF FF BB BB FF FF EE EE
FF FF BB BB FF FF EE EE > } image } if PT 4 eq { 16 16 1 [ 16 0 0 16 neg 0 16
] { < DF DF BF BF 7F 7F FE FE FD FD FB FB F7 F7 EF EF DF DF BF BF 7F 7F FE FE
FD FD FB FB F7 F7 EF EF > } image } if PT 5 eq { 16 16 1 [ 16 0 0 16 neg 0 16
] { < 7F 7F BF B F DF DF EF EF F7 F7 FB FB FD FD FE FE 7F 7F BF BF DF DF EF
EF F7 F7 FB FB FD FD FE FE > } image } if PT 6 eq { 16 16 1 [ 16 0 0 16 neg 0
16 ] { < BB BB BB BB BB BB BB BB BB BB BB BB BB BB BB BB BB BB BB BB BB BB BB
BB BB BB BB BB BB BB BB BB > } image } if PT 7 eq { 16 16 1 [ 16 0 0 16 neg 0
16 ] { < FF FF FF FF FF FF 00 00 FF FF FF FF FF FF 00 00 FF FF FF FF FF FF 00
00 FF FF FF FF FF FF 00 00 > } image } if PT 8 eq { 16 16 1 [ 16 0 0 16 neg 0
16 ] { < EE EE 47 47 83 83 C5 C5 EE EE 5C 5C 38 38 74 74 EE EE 47 47 83 83 C5
C5 EE EE 5C 5C 38 38 74 74 > } image } if PT 9 eq { 16 16 1 [ 16 0 0 16 neg 0
16 ] { < EF EF EF EF D7 D7 38 38 FE FE FE FE 7D 7D 83 83 EF EF EF EF D7 D7 38
38  FE FE FE FE 7D 7D 83 83 > } image } if PT 10 eq { 16 16 1 [ 16 0 0 16 neg
0 16 ] { <  EF EF EF EF EF EF 00 00 FE FE FE FE FE FE 00 00 EF EF EF EF EF EF
00 00 FE FE FE FE FE FE 00 00 > } image } if PT 11 eq { 16 16 1 [ 16 0 0 16
neg 0 16 ] { < F7 F7 B6 B6 D5 D5 E3 E3 D5 D5 B6 B6 F7 F7 FF FF 7F 7F 6B 6B 5D
5D 3E 3E 5D 5D 6B 6B 7F 7F FF FF > } image } if PT 12 eq { 16 16 1 [ 16 0 0
16 neg 0 16 ] { < E3 E3 DD DD BE BE BE BE BE BE DD DD E3 E3 FF FF 3E 3E DD DD
EB EB EB EB EB EB DD DD 3E 3E FF FF > } image } if PT 13 eq { 16 16 1 [ 16 0
0 16 neg 0 16 ] { <  FE FE 7D 7D BB BB D7 D7 EF EF D7 D7 BB BB 7D 7D FE FE 7D
7D BB BB D7 D7 EF EF D7 D7 BB BB 7D 7D > } image } if PT 14 eq { 16 16 1 [ 16
0 0 16 neg 0 16 ] { < 00 00 EE EF EE EF EE EF 0E E0 EE EE EE EE EE EE 00 EE
FE EE FE EE FE EE 00 00 FE EF FE EF FE EF > } image } if PT 15 eq { 16 16 1 [
16 0 0 16 neg 0 16 ] { < DD DD AA AA DD DD FF FF 77 77 AA AA 77 77 FF FF DD
DD AA AA DD DD FF FF 77 77 AA AA 77 77 FF FF > } image } if PT 16 eq { 16 16
1 [ 16 0 0 16 neg 0 16 ] { <  F1 F1 EE EE 1F 1F FF FF F1 F1 EE EE 1F 1F FF FF
F1 F1 EE EE 1F 1F FF FF F1 F1 EE EE 1F 1F FF FF > } image } if PT 17 eq { 16
16 1 [ 16 0 0 16 neg 0 16 ] { <  EE EE DD DD BB BB FF FF EE EE DD DD BB BB FF
 FF EE EE DD DD BB BB FF FF EE EE DD DD BB BB FF FF > } image } if PT 18 eq {
16 16 1 [ 16 0 0 16 neg 0 16 ] { <  BB BB DD DD EE EE FF FF BB BB DD DD EE EE
FF FF BB BB DD DD EE EE FF FF BB BB DD DD EE EE FF FF > } image } if PT 19 eq
{ 16 16 1 [ 16 0 0 16 neg 0 16 ] { < 1F FC 67 F3 7B EF BD DE BD DE DE BD E6
B3 F8 0F E6 B3 DE BD BD DE BD DE 7B EF 67 F3 1F FC 7F FF > } image } if PT
20 eq { 16 16 1 [ 16 0 0 16 neg 0 16 ] { < DD DD EE EE EE EE EE EE DD DD BB
BB BB BB BB BB DD DD EE EE EE EE EE EE DD DD BB BB BB BB BB BB > } image }
if PT 21 eq { 16 16 1 [ 16 0 0 16 neg 0 16 ] { < 0E 0E EF EF EF EF EF EF E0
E0 FE FE FE FE FE FE 0E 0E EF EF EF EF EF EF E0 E0 FE FE FE FE FE FE > }
image }  if PT 22 eq { 16 16 1 [ 16 0 0 16 neg 0 16 ] { < 70 70 F7 F7 F7 F7 F7
F7 07 07 7F 7F 7F 7F 7F 7F 70 70 F7 F7 F7 F7 F7 F7 07 07 7F 7F 7F 7F 7F 7F >
} image } if PT 23 eq  { 16 16 1 [ 16 0 0 16 neg 0 16 ] { < AA AA 55 55 A9 A9
D1 D1 E1 E1 D1 D1 A9 A9 55 55 AA AA 55 55 A9 A9 D1 D1 E1 E1 D1 D1 A9 A9 55 55
> } image } if PT 24 eq { 16 16 1 [ 16 0 0 16 neg 0 16 ] { < FF FE FF FC EA
A8 D5 54 EA A8 D5 54 E8 28 D4 54 E8 E8 D4 D4 E8 EA 54 D5 A8 EA 54 D5 00 C0 00
80 > } image } if PT 25 eq {  16 16 1 [ 16 0 0 16 neg 0 16 ] { < FF FE FF FC
FF F8 FF F0 F0 00 F0 00 F0 20 F0 60 F0 E0 F1 E0 F3 E0 F0 00 E0 00 C0 00 80 00
00 00 > } image } if gr } def /FA { /PT exch def gsave clip 0 0 translate 1 1
54 { 1 sub 47.2 mul /Xcurr exch def 1 1 74 { 1 sub 47.2 mul /Ycurr exch def
gsave Xcurr Ycurr translate PT DP gr } for } for gr newpath } def
/reencdict 24 dict def /ReEncode {reencdict begin /nco&na exch def
/nfnam exch def /basefontname exch def /basefontdict basefontname findfont def
/newfont basefontdict maxlength dict def basefontdict {exch dup /FID ne
{dup /Encoding eq {exch dup length array copy newfont 3 1 roll put} {exch
newfont 3 1 roll put} ifelse} {pop pop} ifelse } forall newfont
/FontName nfnam put nco&na aload pop nco&na length 2 idiv {newfont
/Encoding get 3 1 roll put} repeat nfnam newfont definefont pop end } def
/accvec [ 176 /agrave 181 /Agrave 190 /acircumflex 192 /Acircumflex
201 /adieresis 204 /Adieresis 209 /ccedilla 210 /Ccedilla 211 /eacute
212 /Eacute 213 /egrave 214 /Egrave 215 /ecircumflex 216 /Ecircumflex
217 /edieresis 218 /Edieresis 219 /icircumflex 220 /Icircumflex
221 /idieresis 222 /Idieresis 223 /ntilde 224 /Ntilde 226 /ocircumflex
228 /Ocircumflex 229 /odieresis 230 /Odieresis 231 /ucircumflex 236 /Ucircumflex
237 /udieresis 238 /Udieresis 239 /aring 242 /Aring 243 /ydieresis
244 /Ydieresis 246 /aacute 247 /Aacute 252 /ugrave 253 /Ugrave] def
/Times-Roman /Times-Roman accvec ReEncode
/Times-Italic /Times-Italic accvec ReEncode
/Times-Bold /Times-Bold accvec ReEncode
/Times-BoldItalic /Times-BoldItalic accvec ReEncode
/Helvetica /Helvetica accvec ReEncode
/Helvetica-Oblique /Helvetica-Oblique accvec ReEncode
/Helvetica-Bold /Helvetica-Bold accvec ReEncode
/Helvetica-BoldOblique /Helvetica-BoldOblique  accvec ReEncode
/Courier /Courier accvec ReEncode
/Courier-Oblique /Courier-Oblique accvec ReEncode
/Courier-Bold /Courier-Bold accvec ReEncode
/Courier-BoldOblique /Courier-BoldOblique accvec ReEncode
/oshow {gsave [] 0 sd true charpath stroke gr} def
/stwn { /fs exch def /fn exch def /text exch def fn findfont fs sf
 text sw pop xs add /xs exch def} def
/stwb { /fs exch def /fn exch def /nbas exch def /textf exch def
textf length /tlen exch def nbas tlen gt {/nbas tlen def} if
fn findfont fs sf textf dup length nbas sub nbas getinterval sw
pop neg xs add /xs exch def} def
/accspe [ 65 /plusminus 66 /bar 67 /existential 68 /universal
69 /exclam 70 /numbersign 71 /greater 72 /question 73 /integral
74 /colon 75 /semicolon 76 /less 77 /bracketleft 78 /bracketright
79 /greaterequal 80 /braceleft 81 /braceright 82 /radical
83 /spade 84 /heart 85 /diamond 86 /club 87 /lessequal
88 /multiply 89 /percent 90 /infinity 48 /circlemultiply 49 /circleplus
50 /emptyset 51 /lozenge 52 /bullet 53 /arrowright 54 /arrowup
55 /arrowleft 56 /arrowdown 57 /arrowboth 48 /degree 44 /comma 43 /plus
 45 /angle 42 /angleleft 47 /divide 61 /notequal 40 /equivalence 41 /second
 97 /approxequal 98 /congruent 99 /perpendicular 100 /partialdiff 101 /florin
 102 /intersection 103 /union 104 /propersuperset 105 /reflexsuperset
 106 /notsubset 107 /propersubset 108 /reflexsubset 109 /element 110 /notelement
 111 /gradient 112 /logicaland 113 /logicalor 114 /arrowdblboth
 115 /arrowdblleft 116 /arrowdblup 117 /arrowdblright 118 /arrowdbldown
 119 /ampersand 120 /omega1 121 /similar 122 /aleph ] def
/Symbol /Special accspe ReEncode
%%EndProlog
 gsave  .25 .25 scale  gsave 0 0 t black [] 0 sd 1 lw 2269 2496 0 0 C
 /xs 0 def 
(R)
 /Special    124 stwn 
(s)
 /Helvetica    124 stwn 
(  \040)
 /Helvetica    124 stwn 
(M)
 /Special    124 stwn 
(GeV)
 /Helvetica    124 stwn 
(N)
 /Special    124 stwn 
 gsave  1305 193
 t   0 r  xs 2 div neg 0 t 0 0 m
 /Special findfont  124 sf 0    0 m 
(R)
 show 
 currentpoint pop 0 t 
 /Helvetica findfont  124 sf 0    0 m 
(s)
 show 
 currentpoint pop 0 t 
/Helvetica findfont  124 sf 
(s)
 dup length 1 sub 1 getinterval 
 stringwidth pop 2 div neg    0 rm 
 /Symbol findfont   87 sf 0   87 rm 
(\276)
 stringwidth pop 2 div neg 0 rm 
(\276)
 show
 /Helvetica findfont  124 sf 0    0 m 
(  \040)
 show 
 currentpoint pop 0 t 
 /Special findfont  124 sf 0    0 m 
(M)
 show 
 currentpoint pop 0 t 
 /Helvetica findfont  124 sf 0    0 m 
(GeV)
 show 
 currentpoint pop 0 t 
 /Special findfont  124 sf 0    0 m 
(N)
 show 
 gsave  gr  gr 
 /xs 0 def 
(\040)
 /Helvetica    124 stwn 
(s)
 /Symbol    124 stwn 
(\(e)
 /Helvetica    124 stwn 
(+)
 /Symbol     87 stwn 
(e)
 /Helvetica    124 stwn 
(-)
 /Symbol     87 stwn 
(5)
 /Special    124 stwn 
(W)
 /Helvetica    124 stwn 
(+)
 /Symbol     87 stwn 
(W)
 /Helvetica    124 stwn 
(-)
 /Symbol     87 stwn 
(\()
 /Helvetica    124 stwn 
(g)
 /Symbol    124 stwn 
(\)\)  \040)
 /Helvetica    124 stwn 
(M)
 /Special    124 stwn 
(pb)
 /Helvetica    124 stwn 
(N)
 /Special    124 stwn 
 gsave  113 1361
 t  90 r  xs 2 div neg 0 t 0 0 m
 /Helvetica findfont  124 sf 0    0 m 
(\040)
 show 
 currentpoint pop 0 t 
 /Symbol findfont  124 sf 0    0 m 
(s)
 show 
 currentpoint pop 0 t 
 /Helvetica findfont  124 sf 0    0 m 
(\(e)
 show 
 currentpoint pop 0 t 
 /Symbol findfont   87 sf 0   62 m 
(+)
 show 
 currentpoint pop 0 t 
 /Helvetica findfont  124 sf 0    0 m 
(e)
 show 
 currentpoint pop 0 t 
 /Symbol findfont   87 sf 0   62 m 
(-)
 show 
 currentpoint pop 0 t 
 /Special findfont  124 sf 0    0 m 
(5)
 show 
 currentpoint pop 0 t 
 /Helvetica findfont  124 sf 0    0 m 
(W)
 show 
 currentpoint pop 0 t 
 /Symbol findfont   87 sf 0   62 m 
(+)
 show 
 currentpoint pop 0 t 
 /Helvetica findfont  124 sf 0    0 m 
(W)
 show 
 currentpoint pop 0 t 
 /Symbol findfont   87 sf 0   62 m 
(-)
 show 
 currentpoint pop 0 t 
 /Helvetica findfont  124 sf 0    0 m 
(\()
 show 
 currentpoint pop 0 t 
 /Symbol findfont  124 sf 0    0 m 
(g)
 show 
 currentpoint pop 0 t 
 /Helvetica findfont  124 sf 0    0 m 
(\)\)  \040)
 show 
 currentpoint pop 0 t 
 /Special findfont  124 sf 0    0 m 
(M)
 show 
 currentpoint pop 0 t 
 /Helvetica findfont  124 sf 0    0 m 
(pb)
 show 
 currentpoint pop 0 t 
 /Special findfont  124 sf 0    0 m 
(N)
 show 
 gr  0 0 1 c
 gsave  488 2038
 t   0 r 0 0 m
 /Helvetica findfont  187 sf 0    0 m 
(LEP)
 show 
 gr  1 0 0 c
 gsave  1441 604
 t   0 r 0 0 m
 /Symbol findfont   93 sf 0    0 m 
(n)
 show 
 currentpoint pop 0 t 
 /Helvetica findfont   65 sf 0  -31 m 
(e)
 show 
 currentpoint pop 0 t 
 /Helvetica findfont   93 sf 0    0 m 
( exchange)
 show 
 gr 
 gsave  1441 746
 t   0 r 0 0 m
 /Helvetica findfont   93 sf 0    0 m 
(no ZWW vertex)
 show 
 gr  0 1 0 c
 gsave  1441 888
 t   0 r 0 0 m
 /Helvetica findfont   93 sf 0    0 m 
(Standard Model)
 show 
 gr  7 lw 0 0 1 c /w 57 def /w2 {w 2 div} def /w3 {w 3 div} def 1305 1064 m20
 gsave  1441 1030
 t   0 r 0 0 m
 /Helvetica findfont   93 sf 0    0 m 
(Data)
 show 
 gr  1 0 0 c
 gsave  1101 2249
 t   0 r 0 0 m
 /Special findfont   93 sf 0    0 m 
(R)
 show 
 currentpoint pop 0 t 
 /Helvetica findfont   93 sf 0    0 m 
(s)
 show 
 currentpoint pop 0 t 
/Helvetica findfont   93 sf 
(s)
 dup length 1 sub 1 getinterval 
 stringwidth pop 2 div neg    0 rm 
 /Symbol findfont   65 sf 0   65 rm 
(\276)
 stringwidth pop 2 div neg 0 rm 
(\276)
 show
 /Helvetica findfont   93 sf 0    0 m 
(\040)
 show 
 currentpoint pop 0 t 
 /Special findfont   93 sf 0    0 m 
(O)
 show 
 currentpoint pop 0 t 
 /Helvetica findfont   93 sf 0    0 m 
( 189 GeV: preliminary)
 show 
 gsave  gr  gr  1702 1701 454 511 C NC 8 lw black 1702 1701 454 511 bl 1702 1701
 454 511 C NC 1 lw 454 511 m 1701 Y s 5 lw 420 511 m 34 X s 437 652 m 17 X s 437
 794 m 17 X s 437 936 m 17 X s 437 1078 m 17 X s 420 1220 m 34 X s 437 1361 m 17
 X s 437 1503 m 17 X s 437 1645 m 17 X s 437 1787 m 17 X s 420 1929 m 34 X s 420
 1929 m 34 X s 437 2071 m 17 X s 437 2212 m 17 X s
 /xs 0 def 
(0)
 /Helvetica    109 stwn 
 gsave  408 471
 t   0 r  xs neg 0 t 0 0 m
 /Helvetica findfont  109 sf 0    0 m 
(0)
 show 
 gr 
 /xs 0 def 
(10)
 /Helvetica    109 stwn 
 gsave  408 1180
 t   0 r  xs neg 0 t 0 0 m
 /Helvetica findfont  109 sf 0    0 m 
(10)
 show 
 gr 
 /xs 0 def 
(20)
 /Helvetica    109 stwn 
 gsave  408 1889
 t   0 r  xs neg 0 t 0 0 m
 /Helvetica findfont  109 sf 0    0 m 
(20)
 show 
 gr  1 lw 454 511 m 1702 X s 5 lw 624 477 m 34 Y s 794 494 m 17 Y s 964 477 m 34
 Y s 1135 494 m 17 Y s 1305 477 m 34 Y s 1475 494 m 17 Y s 1645 477 m 34 Y s
 1815 494 m 17 Y s 1985 477 m 34 Y s 624 477 m 34 Y s 454 494 m 17 Y s 1985 477
 m 34 Y s 2156 494 m 17 Y s
 /xs 0 def 
(160)
 /Helvetica    109 stwn 
 gsave  624 374
 t   0 r  xs 2 div neg 0 t 0 0 m
 /Helvetica findfont  109 sf 0    0 m 
(160)
 show 
 gr 
 /xs 0 def 
(170)
 /Helvetica    109 stwn 
 gsave  964 374
 t   0 r  xs 2 div neg 0 t 0 0 m
 /Helvetica findfont  109 sf 0    0 m 
(170)
 show 
 gr 
 /xs 0 def 
(180)
 /Helvetica    109 stwn 
 gsave  1305 374
 t   0 r  xs 2 div neg 0 t 0 0 m
 /Helvetica findfont  109 sf 0    0 m 
(180)
 show 
 gr 
 /xs 0 def 
(190)
 /Helvetica    109 stwn 
 gsave  1645 374
 t   0 r  xs 2 div neg 0 t 0 0 m
 /Helvetica findfont  109 sf 0    0 m 
(190)
 show 
 gr 
 /xs 0 def 
(200)
 /Helvetica    109 stwn 
 gsave  1985 374
 t   0 r  xs 2 div neg 0 t 0 0 m
 /Helvetica findfont  109 sf 0    0 m 
(200)
 show 
 gr  1702 1701 454 511 C NC 1 lw 2156 511 m 1701 Y s 5 lw 2105 511 m 51 X s 2130
 652 m 26 X s 2130 794 m 26 X s 2130 936 m 26 X s 2130 1078 m 26 X s 2105 1220 m
 51 X s 2130 1361 m 26 X s 2130 1503 m 26 X s 2130 1645 m 26 X s 2130 1787 m 26
 X s 2105 1929 m 51 X s 2105 1929 m 51 X s 2130 2071 m 26 X s 2130 2212 m 26 X s
 1 lw 454 2212 m 1702 X s 5 lw 624 2161 m 51 Y s 794 2187 m 25 Y s 964 2161 m 51
 Y s 1135 2187 m 25 Y s 1305 2161 m 51 Y s 1475 2187 m 25 Y s 1645 2161 m 51 Y s
 1815 2187 m 25 Y s 1985 2161 m 51 Y s 624 2161 m 51 Y s 454 2187 m 25 Y s 1985
 2161 m 51 Y s 2156 2187 m 25 Y s 1702 1701 454 511 C 2496 2496 -113 0 C 7 lw 1
 0 0 c /w 14 def /w2 {w 2 div} def /w3 {w 3 div} def 481 602 m20 522 622 m20 559
 648 m20 590 681 m20 616 719 m20 636 759 m20 655 800 m20 671 843 m20 687 885 m20
 703 928 m20 718 970 m20 734 1013 m20 750 1055 m20 766 1098 m20 783 1140 m20 801
 1182 m20 818 1224 m20 836 1265 m20 855 1307 m20 874 1348 m20 894 1389 m20 914
 1429 m20 934 1470 m20 955 1510 m20 976 1550 m20 998 1590 m20 1020 1630 m20 1043
 1669 m20 1066 1708 m20 1090 1747 m20 1113 1786 m20 1136 1825 m20 1162 1862 m20
 1188 1899 m20 1214 1937 m20 1240 1974 m20 1266 2011 m20 1293 2047 m20 1320 2084
 m20 1348 2119 m20 1376 2155 m20 1404 2191 m20 1416 2204 m20 1702 1701 454 511 C
 2496 2496 -113 0 C 1214 638 m20 1259 638 m20 1305 638 m20 1350 638 m20 1395 638
 m20 1702 1701 454 511 C 2496 2496 -113 0 C 482 595 m 6 2 d s 488 597 m 28 13 d
 s 548 630 m 1 X s 549 630 m 7 6 d s 556 636 m 20 18 d s 600 683 m 7 9 d s 607
 692 m 14 22 d s 638 748 m 3 7 d s 641 755 m 12 27 d s 667 816 m 10 26 d s 677
 842 m 4 9 d s 694 886 m 14 35 d s 721 956 m 5 13 d s 726 969 m 9 22 d s 749
 1026 m 11 27 d s 760 1053 m 3 7 d s 778 1095 m 15 34 d s 809 1163 m 15 34 d s
 841 1231 m 16 33 d s 875 1297 m 17 33 d s 911 1363 m 18 33 d s 949 1428 m 15 26
 d s 964 1454 m 4 6 d s 988 1491 m 10 16 d s 998 1507 m 11 16 d s 1030 1554 m 2
 4 d s 1032 1558 m 19 26 d s 1073 1615 m 23 29 d s 1119 1674 m 16 20 d s 1135
 1694 m 7 9 d s 1167 1731 m 2 2 d s 1169 1733 m 22 27 d s 1216 1788 m 21 22 d s
 1237 1810 m 4 5 d s 1266 1843 m 5 6 d s 1271 1849 m 21 21 d s 1319 1897 m 20 19
 d s 1339 1916 m 6 7 d s 1373 1948 m 28 25 d s 1429 1998 m 12 10 d s 1441 2008 m
 16 14 d s 1486 2046 m 23 18 d s 1509 2064 m 7 5 d s 1545 2092 m 30 22 d s 1606
 2136 m 5 4 d s 1611 2140 m 25 18 d s 1667 2179 m 12 8 d s 1679 2187 m 20 12 d s
 1718 2212 m cl s 1702 1701 454 511 C 2496 2496 -113 0 C 1203 780 m 37 X s 1277
 780 m 38 X s 1352 780 m 38 X s 1702 1701 454 511 C 0 1 0 c 113 527 m 34 2 d 35
 2 d 34 2 d 34 3 d 34 3 d 34 3 d 34 5 d 34 5 d 34 6 d 34 8 d 34 11 d 34 14 d 24
 13 d 10 7 d 21 17 d 13 14 d 15 18 d 14 21 d 5 8 d 15 28 d 19 40 d 18 42 d 16 38
 d 34 81 d 26 58 d 8 17 d 26 51 d 8 17 d 27 48 d 7 13 d 28 46 d 6 9 d 34 50 d 34
 46 d 34 42 d 34 38 d 34 35 d 34 32 d 35 29 d 34 27 d 34 25 d 34 23 d 34 22 d 34
 19 d 34 18 d 34 17 d 34 15 d 34 15 d 34 13 d 34 12 d 34 11 d 34 10 d 34 9 d 34
 9 d 34 8 d 34 7 d 34 7 d 34 6 d 34 5 d 34 5 d 34 4 d 34 4 d 34 4 d 34 3 d 34 3
 d 34 2 d 35 2 d 34 2 d 34 1 d 34 1 d s 1203 922 m 204 X s 113 527 m 34 2 d 35 2
 d 34 2 d 34 2 d 34 3 d 34 4 d 34 4 d 34 5 d 34 6 d 34 8 d 34 10 d 34 14 d 24 13
 d 10 7 d 21 17 d 13 13 d 15 18 d 14 20 d 5 9 d 15 27 d 19 39 d 18 41 d 16 38 d
 34 79 d 26 57 d 8 16 d 26 50 d 8 17 d 27 47 d 7 13 d 28 45 d 6 9 d 34 49 d 34
 45 d 34 41 d 34 37 d 34 34 d 34 32 d 35 28 d 34 27 d 34 25 d 34 22 d 34 21 d 34
 19 d 34 18 d 34 16 d 34 15 d 34 14 d 34 13 d 34 12 d 34 11 d 34 10 d 34 9 d 34
 8 d 34 8 d 34 7 d 34 7 d 34 5 d 34 6 d 34 5 d 34 4 d 34 4 d 34 3 d 34 3 d 34 3
 d 34 2 d 35 2 d 34 2 d 34 1 d 34 1 d s 113 527 m 34 2 d 35 2 d 34 2 d 34 2 d 34
 3 d 34 4 d 34 4 d 34 5 d 34 6 d 34 8 d 34 10 d 34 14 d 24 13 d 10 7 d 21 17 d
 13 13 d 15 18 d 14 21 d 5 8 d 15 27 d 19 39 d 18 41 d 16 38 d 34 79 d 26 57 d 8
 17 d 26 50 d 8 16 d 27 48 d 7 12 d 28 46 d 6 9 d 34 49 d 34 45 d 34 41 d 34 37
 d 34 34 d 34 32 d 35 28 d 34 27 d 34 25 d 34 22 d 34 21 d 34 19 d 34 18 d 34 16
 d 34 15 d 34 14 d 34 13 d 34 12 d 34 11 d 34 10 d 34 9 d 34 9 d 34 7 d 34 7 d
 34 7 d 34 6 d 34 5 d 34 5 d 34 4 d 34 4 d 34 3 d 34 3 d 34 3 d 34 2 d 35 2 d 34
 2 d 34 1 d 34 2 d s 113 527 m 34 2 d 35 2 d 34 2 d 34 2 d 34 3 d 34 4 d 34 4 d
 34 5 d 34 6 d 34 8 d 34 10 d 34 14 d 24 13 d 10 7 d 21 17 d 13 13 d 15 18 d 14
 21 d 5 8 d 15 28 d 19 38 d 18 42 d 16 38 d 34 79 d 26 57 d 8 16 d 26 51 d 8 16
 d 27 47 d 7 13 d 28 45 d 6 9 d 34 50 d 34 44 d 34 41 d 34 38 d 34 34 d 34 31 d
 35 29 d 34 27 d 34 25 d 34 22 d 34 21 d 34 19 d 34 18 d 34 16 d 34 15 d 34 14 d
 34 13 d 34 12 d 34 11 d 34 10 d 34 9 d 34 9 d 34 8 d 34 7 d 34 6 d 34 6 d 34 5
 d 34 5 d 34 4 d 34 4 d 34 4 d 34 3 d 34 2 d 34 3 d 35 2 d 34 1 d 34 2 d 34 1 d
 s 113 527 m 34 2 d 35 2 d 34 2 d 34 2 d 34 3 d 34 4 d 34 4 d 34 5 d 34 6 d 34 8
 d 34 10 d 34 14 d 24 13 d 10 8 d 21 16 d 13 14 d 15 17 d 14 21 d 5 8 d 15 28 d
 19 39 d 18 41 d 16 38 d 34 79 d 26 57 d 8 17 d 26 50 d 8 16 d 27 48 d 7 13 d 28
 45 d 6 9 d 34 49 d 34 45 d 34 41 d 34 38 d 34 34 d 34 31 d 35 29 d 34 27 d 34
 24 d 34 23 d 34 21 d 34 19 d 34 18 d 34 16 d 34 16 d 34 14 d 34 12 d 34 12 d 34
 11 d 34 10 d 34 9 d 34 9 d 34 8 d 34 7 d 34 6 d 34 6 d 34 5 d 34 5 d 34 5 d 34
 3 d 34 4 d 34 3 d 34 3 d 34 2 d 35 2 d 34 2 d 34 1 d 34 1 d s 113 527 m 34 2 d
 35 2 d 34 2 d 34 2 d 34 3 d 34 4 d 34 4 d 34 5 d 34 6 d 34 8 d 34 10 d 34 15 d
 24 13 d 10 7 d 21 17 d 13 13 d 15 17 d 14 21 d 5 8 d 15 28 d 19 39 d 18 41 d 16
 38 d 34 80 d 26 57 d 8 16 d 26 51 d 8 16 d 27 47 d 7 13 d 28 46 d 6 9 d 34 49 d
 34 45 d 34 41 d 34 37 d 34 35 d 34 31 d 35 29 d 34 27 d 34 24 d 34 23 d 34 21 d
 34 19 d 34 18 d 34 17 d 34 15 d 34 14 d 34 13 d 34 11 d 34 11 d 34 10 d 34 10 d
 34 8 d 34 8 d 34 7 d 34 6 d 34 6 d 34 6 d 34 4 d 34 5 d 34 4 d 34 3 d 34 3 d 34
 3 d 34 2 d 35 2 d 34 2 d 34 1 d 34 1 d s 113 527 m 34 2 d 35 2 d 34 2 d 34 2 d
 34 3 d 34 4 d 34 4 d 34 5 d 34 6 d 34 8 d 34 11 d 34 14 d 24 13 d 10 7 d 21 17
 d 13 13 d 15 18 d 14 20 d 5 8 d 15 28 d 19 39 d 18 41 d 16 39 d 34 79 d 26 57 d
 8 17 d 26 50 d 8 16 d 27 48 d 7 13 d 28 45 d 6 9 d 34 50 d 34 45 d 34 41 d 34
 37 d 34 35 d 34 31 d 35 29 d 34 27 d 34 24 d 34 23 d 34 21 d 34 19 d 34 18 d 34
 17 d 34 15 d 34 14 d 34 13 d 34 12 d 34 11 d 34 10 d 34 9 d 34 8 d 34 8 d 34 7
 d 34 7 d 34 6 d 34 5 d 34 5 d 34 4 d 34 4 d 34 3 d 34 3 d 34 3 d 34 2 d 35 2 d
 34 2 d 34 1 d 34 2 d s 113 527 m 34 2 d 35 2 d 34 2 d 34 2 d 34 3 d 34 4 d 34 4
 d 34 5 d 34 6 d 34 8 d 34 11 d 34 14 d 24 13 d 10 7 d 21 17 d 13 13 d 15 18 d
 14 21 d 5 8 d 15 27 d 19 39 d 18 42 d 16 38 d 34 79 d 26 58 d 8 16 d 26 51 d 8
 16 d 27 48 d 7 12 d 28 46 d 6 9 d 34 49 d 34 45 d 34 42 d 34 37 d 34 34 d 34 32
 d 35 29 d 34 27 d 34 24 d 34 23 d 34 21 d 34 19 d 34 18 d 34 17 d 34 15 d 34 14
 d 34 13 d 34 12 d 34 11 d 34 10 d 34 9 d 34 9 d 34 7 d 34 7 d 34 7 d 34 6 d 34
 5 d 34 5 d 34 4 d 34 4 d 34 4 d 34 3 d 34 2 d 34 3 d 35 2 d 34 1 d 34 2 d 34 1
 d s 113 527 m 34 2 d 35 2 d 34 2 d 34 2 d 34 3 d 34 4 d 34 4 d 34 5 d 34 6 d 34
 8 d 34 11 d 34 14 d 24 13 d 10 7 d 21 17 d 13 13 d 15 18 d 14 21 d 5 8 d 15 28
 d 19 39 d 18 41 d 16 38 d 34 80 d 26 57 d 8 17 d 26 50 d 8 17 d 27 47 d 7 13 d
 28 46 d 6 9 d 34 49 d 34 45 d 34 41 d 34 38 d 34 34 d 34 32 d 35 29 d 34 27 d
 34 24 d 34 23 d 34 21 d 34 19 d 34 18 d 34 17 d 34 15 d 34 14 d 34 13 d 34 12 d
 34 11 d 34 10 d 34 9 d 34 9 d 34 7 d 34 8 d 34 6 d 34 6 d 34 5 d 34 5 d 34 5 d
 34 3 d 34 4 d 34 3 d 34 3 d 34 2 d 35 2 d 34 2 d 34 1 d 34 1 d s 113 527 m 34 2
 d 35 2 d 34 2 d 34 3 d 34 2 d 34 4 d 34 4 d 34 5 d 34 6 d 34 8 d 34 11 d 34 14
 d 24 13 d 10 7 d 21 17 d 13 13 d 15 18 d 14 21 d 5 8 d 15 28 d 19 39 d 18 41 d
 16 39 d 34 79 d 26 58 d 8 16 d 26 51 d 8 16 d 27 48 d 7 13 d 28 45 d 6 9 d 34
 50 d 34 45 d 34 41 d 34 38 d 34 34 d 34 32 d 35 29 d 34 27 d 34 24 d 34 23 d 34
 21 d 34 20 d 34 17 d 34 17 d 34 15 d 34 14 d 34 13 d 34 12 d 34 11 d 34 10 d 34
 9 d 34 9 d 34 8 d 34 7 d 34 6 d 34 6 d 34 6 d 34 4 d 34 5 d 34 4 d 34 3 d 34 3
 d 34 3 d 34 2 d 35 2 d 34 2 d 34 1 d 34 1 d s 113 527 m 34 2 d 35 2 d 34 2 d 34
 3 d 34 2 d 34 4 d 34 4 d 34 5 d 34 6 d 34 8 d 34 11 d 34 14 d 24 13 d 10 7 d 21
 17 d 13 13 d 15 18 d 14 21 d 5 8 d 15 28 d 19 39 d 18 42 d 16 38 d 34 80 d 26
 57 d 8 17 d 26 50 d 8 17 d 27 47 d 7 13 d 28 46 d 6 9 d 34 50 d 34 45 d 34 41 d
 34 38 d 34 34 d 34 32 d 35 29 d 34 27 d 34 24 d 34 23 d 34 21 d 34 20 d 34 17 d
 34 17 d 34 15 d 34 14 d 34 13 d 34 12 d 34 11 d 34 10 d 34 10 d 34 8 d 34 8 d
 34 7 d 34 7 d 34 5 d 34 6 d 34 5 d 34 4 d 34 4 d 34 3 d 34 3 d 34 3 d 34 2 d 35
 2 d 34 2 d 34 1 d 34 2 d s 113 527 m 34 2 d 35 2 d 34 2 d 34 3 d 34 3 d 34 3 d
 34 4 d 34 5 d 34 7 d 34 7 d 34 11 d 34 14 d 24 13 d 10 7 d 21 17 d 13 14 d 15
 17 d 14 21 d 5 8 d 15 28 d 19 39 d 18 42 d 16 38 d 34 80 d 26 58 d 8 16 d 26 51
 d 8 16 d 27 48 d 7 13 d 28 46 d 6 9 d 34 49 d 34 46 d 34 41 d 34 37 d 34 35 d
 34 32 d 35 29 d 34 27 d 34 24 d 34 23 d 34 21 d 34 20 d 34 18 d 34 16 d 34 15 d
 34 14 d 34 13 d 34 12 d 34 11 d 34 10 d 34 10 d 34 8 d 34 8 d 34 7 d 34 7 d 34
 6 d 34 5 d 34 5 d 34 4 d 34 4 d 34 4 d 34 3 d 34 2 d 34 3 d 35 2 d 34 1 d 34 2
 d 34 1 d s 113 527 m 34 2 d 35 2 d 34 2 d 34 3 d 34 3 d 34 3 d 34 4 d 34 5 d 34
 7 d 34 8 d 34 10 d 34 14 d 24 13 d 10 7 d 21 17 d 13 14 d 15 18 d 14 20 d 5 8 d
 15 29 d 19 39 d 18 41 d 16 38 d 34 80 d 26 58 d 8 17 d 26 50 d 8 17 d 27 48 d 7
 12 d 28 46 d 6 9 d 34 50 d 34 45 d 34 42 d 34 37 d 34 35 d 34 32 d 35 29 d 34
 27 d 34 24 d 34 23 d 34 21 d 34 20 d 34 18 d 34 16 d 34 15 d 34 15 d 34 12 d 34
 12 d 34 11 d 34 11 d 34 9 d 34 8 d 34 8 d 34 7 d 34 7 d 34 6 d 34 5 d 34 5 d 34
 4 d 34 4 d 34 4 d 34 3 d 34 3 d 34 2 d 35 2 d 34 2 d 34 1 d 34 1 d s 113 527 m
 34 2 d 35 2 d 34 2 d 34 3 d 34 3 d 34 3 d 34 4 d 34 5 d 34 7 d 34 8 d 34 10 d
 34 14 d 24 13 d 10 7 d 21 17 d 13 14 d 15 18 d 14 21 d 5 8 d 15 28 d 19 39 d 18
 41 d 16 39 d 34 80 d 26 57 d 8 17 d 26 51 d 8 16 d 27 48 d 7 13 d 28 46 d 6 9 d
 34 50 d 34 45 d 34 41 d 34 38 d 34 35 d 34 32 d 35 29 d 34 27 d 34 24 d 34 23 d
 34 21 d 34 20 d 34 18 d 34 16 d 34 16 d 34 14 d 34 13 d 34 12 d 34 11 d 34 10 d
 34 9 d 34 9 d 34 7 d 34 8 d 34 6 d 34 6 d 34 5 d 34 5 d 34 5 d 34 4 d 34 3 d 34
 3 d 34 3 d 34 2 d 35 2 d 34 2 d 34 1 d 34 1 d s 113 527 m 34 2 d 35 2 d 34 2 d
 34 3 d 34 3 d 34 3 d 34 4 d 34 5 d 34 7 d 34 8 d 34 10 d 34 14 d 24 13 d 10 8 d
 21 17 d 13 13 d 15 18 d 14 21 d 5 8 d 15 28 d 19 39 d 18 42 d 16 38 d 34 80 d
 26 58 d 8 16 d 26 51 d 8 17 d 27 48 d 7 13 d 28 45 d 6 10 d 34 49 d 34 46 d 34
 41 d 34 38 d 34 35 d 34 31 d 35 30 d 34 27 d 34 24 d 34 23 d 34 21 d 34 20 d 34
 18 d 34 16 d 34 16 d 34 14 d 34 13 d 34 12 d 34 11 d 34 10 d 34 9 d 34 9 d 34 8
 d 34 7 d 34 6 d 34 6 d 34 6 d 34 4 d 34 5 d 34 4 d 34 3 d 34 3 d 34 3 d 34 2 d
 35 2 d 34 2 d 34 1 d 34 2 d s 113 527 m 34 2 d 35 2 d 34 2 d 34 3 d 34 3 d 34 3
 d 34 4 d 34 5 d 34 7 d 34 8 d 34 10 d 34 14 d 24 13 d 10 8 d 21 17 d 13 13 d 15
 18 d 14 21 d 5 8 d 15 28 d 19 39 d 18 42 d 16 38 d 34 81 d 26 57 d 8 17 d 26 51
 d 8 16 d 27 48 d 7 13 d 28 46 d 6 9 d 34 50 d 34 46 d 34 41 d 34 38 d 34 35 d
 34 31 d 35 30 d 34 27 d 34 24 d 34 23 d 34 21 d 34 20 d 34 18 d 34 16 d 34 16 d
 34 14 d 34 13 d 34 12 d 34 11 d 34 10 d 34 9 d 34 9 d 34 8 d 34 7 d 34 7 d 34 5
 d 34 6 d 34 5 d 34 4 d 34 4 d 34 3 d 34 4 d 34 2 d 34 3 d 35 2 d 34 1 d 34 2 d
 34 1 d s 113 527 m 34 2 d 35 2 d 34 2 d 34 3 d 34 3 d 34 3 d 34 4 d 34 5 d 34 7
 d 34 8 d 34 10 d 34 14 d 24 14 d 10 7 d 21 17 d 13 13 d 15 18 d 14 21 d 5 8 d
 15 28 d 19 40 d 18 41 d 16 39 d 34 80 d 26 58 d 8 16 d 26 51 d 8 17 d 27 48 d 7
 13 d 28 46 d 6 9 d 34 50 d 34 45 d 34 42 d 34 38 d 34 34 d 34 32 d 35 30 d 34
 27 d 34 24 d 34 23 d 34 21 d 34 20 d 34 18 d 34 17 d 34 15 d 34 14 d 34 13 d 34
 12 d 34 11 d 34 10 d 34 10 d 34 8 d 34 8 d 34 7 d 34 7 d 34 6 d 34 5 d 34 5 d
 34 4 d 34 4 d 34 4 d 34 3 d 34 3 d 34 2 d 35 2 d 34 2 d 34 1 d 34 1 d s 113 527
 m 34 2 d 35 2 d 34 2 d 34 3 d 34 3 d 34 3 d 34 4 d 34 5 d 34 7 d 34 8 d 34 10 d
 34 15 d 24 13 d 10 7 d 21 17 d 13 13 d 15 18 d 14 21 d 5 8 d 15 29 d 19 39 d 18
 42 d 16 38 d 34 80 d 26 58 d 8 17 d 26 51 d 8 16 d 27 49 d 7 12 d 28 46 d 6 10
 d 34 50 d 34 45 d 34 42 d 34 38 d 34 34 d 34 32 d 35 30 d 34 27 d 34 24 d 34 23
 d 34 21 d 34 20 d 34 18 d 34 17 d 34 15 d 34 14 d 34 13 d 34 12 d 34 11 d 34 10
 d 34 10 d 34 8 d 34 8 d 34 7 d 34 7 d 34 6 d 34 5 d 34 5 d 34 5 d 34 3 d 34 4 d
 34 3 d 34 3 d 34 2 d 35 2 d 34 2 d 34 1 d 34 1 d s 113 527 m 34 2 d 35 2 d 34 2
 d 34 3 d 34 3 d 34 3 d 34 4 d 34 6 d 34 6 d 34 8 d 34 10 d 34 15 d 24 13 d 10 7
 d 21 17 d 13 13 d 15 18 d 14 21 d 5 9 d 15 28 d 19 39 d 18 42 d 16 38 d 34 81 d
 26 58 d 8 16 d 26 52 d 8 16 d 27 48 d 7 13 d 28 46 d 6 9 d 34 50 d 34 46 d 34
 41 d 34 38 d 34 35 d 34 32 d 35 29 d 34 27 d 34 25 d 34 23 d 34 21 d 34 20 d 34
 18 d 34 17 d 34 15 d 34 14 d 34 13 d 34 12 d 34 11 d 34 11 d 34 9 d 34 9 d 34 7
 d 34 8 d 34 6 d 34 6 d 34 5 d 34 5 d 34 5 d 34 4 d 34 3 d 34 3 d 34 3 d 34 2 d
 35 2 d 34 2 d 34 1 d 34 2 d s 113 527 m 34 2 d 35 2 d 34 2 d 34 3 d 34 3 d 34 3
 d 34 4 d 34 6 d 34 6 d 34 8 d 34 10 d 34 15 d 24 13 d 10 7 d 21 17 d 13 14 d 15
 18 d 14 21 d 5 8 d 15 28 d 19 39 d 18 42 d 16 39 d 34 80 d 26 58 d 8 17 d 26 51
 d 8 17 d 27 48 d 7 13 d 28 46 d 6 9 d 34 50 d 34 46 d 34 41 d 34 38 d 34 35 d
 34 32 d 35 29 d 34 27 d 34 25 d 34 23 d 34 22 d 34 19 d 34 18 d 34 17 d 34 15 d
 34 14 d 34 13 d 34 12 d 34 12 d 34 10 d 34 9 d 34 9 d 34 8 d 34 7 d 34 6 d 34 6
 d 34 6 d 34 5 d 34 4 d 34 4 d 34 3 d 34 4 d 34 2 d 34 3 d 35 2 d 34 1 d 34 2 d
 34 1 d s 113 527 m 34 2 d 35 2 d 34 2 d 34 3 d 34 3 d 34 3 d 34 4 d 34 6 d 34 6
 d 34 8 d 34 10 d 34 15 d 24 13 d 10 7 d 21 17 d 13 14 d 15 18 d 14 21 d 5 8 d
 15 28 d 19 40 d 18 41 d 16 39 d 34 81 d 26 58 d 8 16 d 26 52 d 8 16 d 27 48 d 7
 13 d 28 46 d 6 10 d 34 50 d 34 45 d 34 42 d 34 38 d 34 35 d 34 32 d 35 29 d 34
 27 d 34 25 d 34 23 d 34 22 d 34 19 d 34 18 d 34 17 d 34 15 d 34 14 d 34 14 d 34
 12 d 34 11 d 34 10 d 34 9 d 34 9 d 34 8 d 34 7 d 34 7 d 34 5 d 34 6 d 34 5 d 34
 4 d 34 4 d 34 4 d 34 3 d 34 2 d 34 3 d 35 2 d 34 2 d 34 1 d 34 1 d s 113 527 m
 34 2 d 35 2 d 34 2 d 34 3 d 34 3 d 34 3 d 34 5 d 34 5 d 34 6 d 34 8 d 34 11 d
 34 14 d 24 13 d 10 7 d 21 17 d 13 14 d 15 18 d 14 21 d 5 8 d 15 28 d 19 40 d 18
 42 d 16 38 d 34 81 d 26 58 d 8 17 d 26 51 d 8 17 d 27 48 d 7 13 d 28 46 d 6 9 d
 34 50 d 34 46 d 34 42 d 34 38 d 34 35 d 34 32 d 35 29 d 34 27 d 34 25 d 34 23 d
 34 22 d 34 19 d 34 18 d 34 17 d 34 15 d 34 15 d 34 13 d 34 12 d 34 11 d 34 10 d
 34 9 d 34 9 d 34 8 d 34 7 d 34 7 d 34 6 d 34 5 d 34 5 d 34 4 d 34 4 d 34 4 d 34
 3 d 34 3 d 34 2 d 35 2 d 34 2 d 34 1 d 34 1 d s 113 527 m 34 2 d 35 2 d 34 2 d
 34 3 d 34 3 d 34 3 d 34 5 d 34 5 d 34 6 d 34 8 d 34 11 d 34 14 d 24 13 d 10 7 d
 21 18 d 13 13 d 15 18 d 14 21 d 5 8 d 15 29 d 19 39 d 18 42 d 16 39 d 34 80 d
 26 59 d 8 16 d 26 52 d 8 16 d 27 49 d 7 13 d 28 46 d 6 9 d 34 50 d 34 46 d 34
 42 d 34 38 d 34 35 d 34 32 d 35 29 d 34 27 d 34 25 d 34 23 d 34 22 d 34 19 d 34
 18 d 34 17 d 34 15 d 34 15 d 34 13 d 34 12 d 34 11 d 34 10 d 34 10 d 34 8 d 34
 8 d 34 7 d 34 7 d 34 6 d 34 5 d 34 5 d 34 5 d 34 4 d 34 3 d 34 3 d 34 3 d 34 2
 d 35 2 d 34 2 d 34 1 d 34 1 d s 113 527 m 34 2 d 35 2 d 34 2 d 34 3 d 34 3 d 34
 3 d 34 5 d 34 5 d 34 6 d 34 8 d 34 11 d 34 14 d 24 13 d 10 7 d 21 18 d 13 13 d
 15 18 d 14 21 d 5 8 d 15 29 d 19 39 d 18 42 d 16 39 d 34 81 d 26 58 d 8 17 d 26
 51 d 8 17 d 27 48 d 7 13 d 28 46 d 6 10 d 34 50 d 34 46 d 34 41 d 34 39 d 34 35
 d 34 32 d 35 29 d 34 27 d 34 25 d 34 23 d 34 22 d 34 19 d 34 18 d 34 17 d 34 16
 d 34 14 d 34 13 d 34 12 d 34 11 d 34 10 d 34 10 d 34 9 d 34 7 d 34 8 d 34 6 d
 34 6 d 34 6 d 34 4 d 34 5 d 34 4 d 34 3 d 34 3 d 34 3 d 34 3 d 35 1 d 34 2 d 34
 2 d 34 1 d s 113 528 m 34 1 d 35 2 d 34 2 d 34 3 d 34 3 d 34 3 d 34 5 d 34 5 d
 34 6 d 34 8 d 34 11 d 34 14 d 24 13 d 10 8 d 21 17 d 13 13 d 15 18 d 14 21 d 5
 9 d 15 28 d 19 40 d 18 42 d 16 38 d 34 81 d 26 59 d 8 16 d 26 52 d 8 16 d 27 49
 d 7 13 d 28 46 d 6 9 d 34 51 d 34 45 d 34 42 d 34 38 d 34 35 d 34 33 d 35 29 d
 34 27 d 34 25 d 34 23 d 34 22 d 34 19 d 34 19 d 34 16 d 34 16 d 34 14 d 34 13 d
 34 12 d 34 11 d 34 11 d 34 9 d 34 9 d 34 8 d 34 7 d 34 6 d 34 6 d 34 6 d 34 5 d
 34 4 d 34 4 d 34 4 d 34 3 d 34 2 d 34 3 d 35 2 d 34 2 d 34 1 d 34 1 d s 113 528
 m 34 1 d 35 2 d 34 2 d 34 3 d 34 3 d 34 3 d 34 5 d 34 5 d 34 6 d 34 8 d 34 11 d
 34 14 d 24 13 d 10 8 d 21 17 d 13 13 d 15 18 d 14 22 d 5 8 d 15 28 d 19 40 d 18
 42 d 16 39 d 34 81 d 26 58 d 8 17 d 26 51 d 8 17 d 27 48 d 7 13 d 28 47 d 6 9 d
 34 50 d 34 46 d 34 42 d 34 38 d 34 35 d 34 32 d 35 30 d 34 27 d 34 25 d 34 23 d
 34 22 d 34 19 d 34 19 d 34 16 d 34 16 d 34 14 d 34 13 d 34 12 d 34 11 d 34 11 d
 34 9 d 34 9 d 34 8 d 34 7 d 34 7 d 34 6 d 34 5 d 34 5 d 34 4 d 34 4 d 34 4 d 34
 3 d 34 3 d 34 2 d 35 2 d 34 2 d 34 1 d 34 1 d s 113 528 m 34 1 d 35 2 d 34 2 d
 34 3 d 34 3 d 34 3 d 34 5 d 34 5 d 34 6 d 34 8 d 34 11 d 34 14 d 24 14 d 10 7 d
 21 17 d 13 14 d 15 18 d 14 21 d 5 8 d 15 28 d 19 40 d 18 42 d 16 39 d 34 81 d
 26 58 d 8 17 d 26 52 d 8 16 d 27 49 d 7 13 d 28 46 d 6 10 d 34 50 d 34 46 d 34
 42 d 34 38 d 34 35 d 34 32 d 35 30 d 34 27 d 34 25 d 34 23 d 34 22 d 34 19 d 34
 19 d 34 16 d 34 16 d 34 14 d 34 13 d 34 12 d 34 12 d 34 10 d 34 9 d 34 9 d 34 8
 d 34 7 d 34 7 d 34 6 d 34 5 d 34 5 d 34 5 d 34 4 d 34 3 d 34 3 d 34 3 d 34 2 d
 35 2 d 34 2 d 34 1 d 34 1 d s 113 528 m 34 1 d 35 2 d 34 2 d 34 3 d 34 3 d 34 4
 d 34 4 d 34 5 d 34 6 d 34 8 d 34 11 d 34 14 d 24 14 d 10 7 d 21 17 d 13 14 d 15
 18 d 14 21 d 5 8 d 15 29 d 19 39 d 18 42 d 16 39 d 34 82 d 26 58 d 8 17 d 26 51
 d 8 17 d 27 49 d 7 13 d 28 46 d 6 9 d 34 51 d 34 46 d 34 42 d 34 38 d 34 35 d
 34 32 d 35 30 d 34 27 d 34 25 d 34 23 d 34 22 d 34 20 d 34 18 d 34 17 d 34 15 d
 34 14 d 34 13 d 34 13 d 34 11 d 34 10 d 34 10 d 34 8 d 34 8 d 34 7 d 34 7 d 34
 6 d 34 5 d 34 5 d 34 5 d 34 4 d 34 3 d 34 3 d 34 3 d 34 3 d 35 1 d 34 2 d 34 2
 d 34 1 d s 113 528 m 34 1 d 35 2 d 34 2 d 34 3 d 34 3 d 34 4 d 34 4 d 34 5 d 34
 6 d 34 8 d 34 11 d 34 14 d 24 14 d 10 7 d 21 17 d 13 14 d 15 18 d 14 21 d 5 8 d
 15 29 d 19 40 d 18 42 d 16 39 d 34 81 d 26 58 d 8 17 d 26 52 d 8 17 d 27 48 d 7
 13 d 28 47 d 6 9 d 34 51 d 34 45 d 34 42 d 34 39 d 34 35 d 34 32 d 35 30 d 34
 27 d 34 25 d 34 24 d 34 21 d 34 20 d 34 18 d 34 17 d 34 15 d 34 14 d 34 14 d 34
 12 d 34 11 d 34 10 d 34 10 d 34 8 d 34 8 d 34 8 d 34 6 d 34 6 d 34 6 d 34 5 d
 34 4 d 34 4 d 34 4 d 34 3 d 34 2 d 34 3 d 35 2 d 34 1 d 34 2 d 34 1 d s 113 528
 m 34 1 d 35 2 d 34 2 d 34 3 d 34 3 d 34 4 d 34 4 d 34 5 d 34 6 d 34 8 d 34 11 d
 34 14 d 24 14 d 10 7 d 21 17 d 13 14 d 15 18 d 14 21 d 5 9 d 15 28 d 19 40 d 18
 42 d 16 39 d 34 81 d 26 59 d 8 17 d 26 51 d 8 17 d 27 49 d 7 13 d 28 46 d 6 10
 d 34 50 d 34 46 d 34 42 d 34 39 d 34 35 d 34 32 d 35 30 d 34 27 d 34 25 d 34 24
 d 34 21 d 34 20 d 34 18 d 34 17 d 34 15 d 34 15 d 34 13 d 34 12 d 34 11 d 34 10
 d 34 10 d 34 9 d 34 8 d 34 7 d 34 6 d 34 6 d 34 6 d 34 5 d 34 4 d 34 4 d 34 4 d
 34 3 d 34 3 d 34 2 d 35 2 d 34 2 d 34 1 d 34 1 d s 113 528 m 34 1 d 35 2 d 34 2
 d 34 3 d 34 3 d 34 4 d 34 4 d 34 5 d 34 6 d 34 9 d 34 10 d 34 15 d 24 13 d 10 7
 d 21 18 d 13 13 d 15 18 d 14 21 d 5 9 d 15 28 d 19 40 d 18 42 d 16 39 d 34 82 d
 26 58 d 8 17 d 26 52 d 8 17 d 27 48 d 7 13 d 28 47 d 6 9 d 34 51 d 34 46 d 34
 42 d 34 38 d 34 36 d 34 32 d 35 30 d 34 27 d 34 25 d 34 24 d 34 21 d 34 20 d 34
 18 d 34 17 d 34 15 d 34 15 d 34 13 d 34 12 d 34 11 d 34 11 d 34 9 d 34 9 d 34 8
 d 34 7 d 34 7 d 34 6 d 34 5 d 34 5 d 34 4 d 34 4 d 34 4 d 34 3 d 34 3 d 34 2 d
 35 2 d 34 2 d 34 1 d 34 1 d s 113 528 m 34 1 d 35 2 d 34 3 d 34 2 d 34 3 d 34 4
 d 34 4 d 34 5 d 34 6 d 34 9 d 34 10 d 34 15 d 24 13 d 10 7 d 21 18 d 13 13 d 15
 18 d 14 22 d 5 8 d 15 28 d 19 40 d 18 43 d 16 39 d 34 81 d 26 59 d 8 17 d 26 51
 d 8 17 d 27 49 d 7 13 d 28 47 d 6 9 d 34 51 d 34 46 d 34 42 d 34 38 d 34 36 d
 34 32 d 35 30 d 34 27 d 34 25 d 34 24 d 34 21 d 34 20 d 34 18 d 34 17 d 34 15 d
 34 15 d 34 13 d 34 12 d 34 11 d 34 11 d 34 9 d 34 9 d 34 8 d 34 7 d 34 7 d 34 6
 d 34 5 d 34 5 d 34 5 d 34 4 d 34 3 d 34 3 d 34 3 d 34 2 d 35 2 d 34 2 d 34 2 d
 34 1 d s 113 528 m 34 1 d 35 2 d 34 3 d 34 2 d 34 3 d 34 4 d 34 4 d 34 5 d 34 7
 d 34 8 d 34 10 d 34 15 d 24 13 d 10 7 d 21 18 d 13 13 d 15 19 d 14 21 d 5 8 d
 15 29 d 19 40 d 18 42 d 16 39 d 34 82 d 26 58 d 8 17 d 26 52 d 8 17 d 27 49 d 7
 13 d 28 46 d 6 10 d 34 50 d 34 47 d 34 42 d 34 38 d 34 35 d 34 33 d 35 30 d 34
 27 d 34 25 d 34 24 d 34 21 d 34 20 d 34 18 d 34 17 d 34 16 d 34 14 d 34 13 d 34
 12 d 34 12 d 34 10 d 34 9 d 34 9 d 34 8 d 34 7 d 34 7 d 34 6 d 34 6 d 34 4 d 34
 5 d 34 4 d 34 3 d 34 4 d 34 2 d 34 3 d 35 2 d 34 1 d 34 2 d 34 1 d s 113 528 m
 34 1 d 35 2 d 34 3 d 34 2 d 34 3 d 34 4 d 34 4 d 34 5 d 34 7 d 34 8 d 34 10 d
 34 15 d 24 13 d 10 7 d 21 18 d 13 13 d 15 19 d 14 21 d 5 8 d 15 29 d 19 40 d 18
 42 d 16 39 d 34 82 d 26 59 d 8 17 d 26 52 d 8 16 d 27 49 d 7 13 d 28 47 d 6 9 d
 34 51 d 34 46 d 34 42 d 34 39 d 34 35 d 34 33 d 35 30 d 34 27 d 34 25 d 34 24 d
 34 21 d 34 20 d 34 18 d 34 17 d 34 16 d 34 14 d 34 13 d 34 12 d 34 12 d 34 10 d
 34 10 d 34 8 d 34 8 d 34 8 d 34 6 d 34 6 d 34 6 d 34 5 d 34 4 d 34 4 d 34 4 d
 34 3 d 34 3 d 34 2 d 35 2 d 34 2 d 34 1 d 34 1 d s 113 528 m 34 1 d 35 2 d 34 3
 d 34 2 d 34 3 d 34 4 d 34 4 d 34 5 d 34 7 d 34 8 d 34 10 d 34 15 d 24 13 d 10 8
 d 21 17 d 13 14 d 15 18 d 14 21 d 5 8 d 15 29 d 19 40 d 18 42 d 16 40 d 34 81 d
 26 59 d 8 17 d 26 52 d 8 17 d 27 49 d 7 13 d 28 47 d 6 9 d 34 51 d 34 46 d 34
 42 d 34 39 d 34 35 d 34 33 d 35 29 d 34 28 d 34 25 d 34 24 d 34 21 d 34 20 d 34
 18 d 34 17 d 34 16 d 34 14 d 34 13 d 34 13 d 34 11 d 34 10 d 34 10 d 34 9 d 34
 7 d 34 8 d 34 6 d 34 6 d 34 6 d 34 5 d 34 4 d 34 4 d 34 4 d 34 3 d 34 3 d 34 2
 d 35 2 d 34 2 d 34 1 d 34 1 d s 113 528 m 34 1 d 35 2 d 34 3 d 34 2 d 34 3 d 34
 4 d 34 4 d 34 5 d 34 7 d 34 8 d 34 10 d 34 15 d 24 13 d 10 8 d 21 17 d 13 14 d
 15 18 d 14 21 d 5 9 d 15 28 d 19 40 d 18 43 d 16 39 d 34 82 d 26 59 d 8 17 d 26
 52 d 8 16 d 27 49 d 7 13 d 28 47 d 6 10 d 34 51 d 34 46 d 34 42 d 34 39 d 34 35
 d 34 33 d 35 29 d 34 28 d 34 25 d 34 24 d 34 21 d 34 20 d 34 18 d 34 17 d 34 16
 d 34 14 d 34 14 d 34 12 d 34 11 d 34 10 d 34 10 d 34 9 d 34 8 d 34 7 d 34 7 d
 34 6 d 34 5 d 34 5 d 34 5 d 34 4 d 34 3 d 34 3 d 34 3 d 34 2 d 35 2 d 34 2 d 34
 2 d 34 1 d s 113 528 m 34 1 d 35 2 d 34 3 d 34 2 d 34 3 d 34 4 d 34 4 d 34 5 d
 34 7 d 34 8 d 34 11 d 34 14 d 24 13 d 10 8 d 21 17 d 13 14 d 15 18 d 14 21 d 5
 9 d 15 28 d 19 41 d 18 42 d 16 39 d 34 82 d 26 59 d 8 17 d 26 52 d 8 17 d 27 49
 d 7 13 d 28 47 d 6 9 d 34 51 d 34 47 d 34 42 d 34 39 d 34 35 d 34 32 d 35 30 d
 34 28 d 34 25 d 34 24 d 34 21 d 34 20 d 34 18 d 34 17 d 34 16 d 34 14 d 34 14 d
 34 12 d 34 11 d 34 11 d 34 9 d 34 9 d 34 8 d 34 7 d 34 7 d 34 6 d 34 5 d 34 5 d
 34 5 d 34 4 d 34 3 d 34 4 d 34 2 d 34 3 d 35 2 d 34 1 d 34 2 d 34 1 d s 113 528
 m 34 1 d 35 2 d 34 3 d 34 2 d 34 3 d 34 4 d 34 4 d 34 5 d 34 7 d 34 8 d 34 11 d
 34 14 d 24 14 d 10 7 d 21 17 d 13 14 d 15 18 d 14 22 d 5 8 d 15 29 d 19 40 d 18
 42 d 16 40 d 34 82 d 26 59 d 8 17 d 26 52 d 8 16 d 27 50 d 7 13 d 28 47 d 6 9 d
 34 51 d 34 46 d 34 43 d 34 38 d 34 36 d 34 32 d 35 30 d 34 28 d 34 25 d 34 24 d
 34 21 d 34 20 d 34 18 d 34 17 d 34 16 d 34 14 d 34 14 d 34 12 d 34 11 d 34 11 d
 34 9 d 34 9 d 34 8 d 34 7 d 34 7 d 34 6 d 34 6 d 34 5 d 34 4 d 34 4 d 34 4 d 34
 3 d 34 3 d 34 2 d 35 2 d 34 2 d 34 1 d 34 1 d s 113 528 m 34 1 d 35 2 d 34 3 d
 34 2 d 34 3 d 34 4 d 34 4 d 34 5 d 34 7 d 34 8 d 34 11 d 34 14 d 24 14 d 10 7 d
 21 17 d 13 14 d 15 18 d 14 22 d 5 8 d 15 29 d 19 40 d 18 43 d 16 39 d 34 82 d
 26 59 d 8 17 d 26 52 d 8 17 d 27 49 d 7 13 d 28 47 d 6 10 d 34 51 d 34 46 d 34
 42 d 34 39 d 34 36 d 34 32 d 35 30 d 34 28 d 34 25 d 34 24 d 34 21 d 34 20 d 34
 19 d 34 16 d 34 16 d 34 15 d 34 13 d 34 12 d 34 12 d 34 10 d 34 9 d 34 9 d 34 8
 d 34 8 d 34 6 d 34 6 d 34 6 d 34 5 d 34 4 d 34 4 d 34 4 d 34 3 d 34 3 d 34 2 d
 35 2 d 34 2 d 34 1 d 34 1 d s 113 528 m 34 1 d 35 2 d 34 3 d 34 2 d 34 3 d 34 4
 d 34 4 d 34 5 d 34 7 d 34 8 d 34 11 d 34 14 d 24 14 d 10 7 d 21 18 d 13 13 d 15
 19 d 14 21 d 5 8 d 15 29 d 19 40 d 18 43 d 16 39 d 34 82 d 26 60 d 8 17 d 26 52
 d 8 17 d 27 49 d 7 13 d 28 47 d 6 9 d 34 51 d 34 47 d 34 42 d 34 39 d 34 36 d
 34 32 d 35 30 d 34 28 d 34 25 d 34 24 d 34 21 d 34 20 d 34 19 d 34 17 d 34 15 d
 34 15 d 34 13 d 34 12 d 34 12 d 34 10 d 34 10 d 34 8 d 34 8 d 34 8 d 34 6 d 34
 6 d 34 6 d 34 5 d 34 5 d 34 4 d 34 3 d 34 3 d 34 3 d 34 2 d 35 2 d 34 2 d 34 2
 d 34 1 d s 113 528 m 34 1 d 35 2 d 34 3 d 34 2 d 34 3 d 34 4 d 34 4 d 34 5 d 34
 7 d 34 8 d 34 11 d 34 14 d 24 14 d 10 7 d 21 18 d 13 13 d 15 19 d 14 21 d 5 8 d
 15 29 d 19 41 d 18 42 d 16 40 d 34 82 d 26 59 d 8 17 d 26 52 d 8 17 d 27 49 d 7
 14 d 28 47 d 6 9 d 34 51 d 34 47 d 34 42 d 34 39 d 34 35 d 34 33 d 35 30 d 34
 28 d 34 25 d 34 24 d 34 21 d 34 20 d 34 19 d 34 17 d 34 15 d 34 15 d 34 13 d 34
 12 d 34 12 d 34 10 d 34 10 d 34 9 d 34 8 d 34 7 d 34 7 d 34 6 d 34 5 d 34 5 d
 34 5 d 34 4 d 34 3 d 34 3 d 34 3 d 34 3 d 35 2 d 34 1 d 34 2 d 34 1 d s 113 528
 m 34 2 d 35 1 d 34 3 d 34 2 d 34 3 d 34 4 d 34 4 d 34 5 d 34 7 d 34 8 d 34 11 d
 34 14 d 24 14 d 10 7 d 21 18 d 13 13 d 15 19 d 14 21 d 5 9 d 15 29 d 19 40 d 18
 42 d 16 40 d 34 82 d 26 59 d 8 18 d 26 52 d 8 17 d 27 49 d 7 13 d 28 47 d 6 10
 d 34 51 d 34 46 d 34 43 d 34 39 d 34 35 d 34 33 d 35 30 d 34 28 d 34 25 d 34 24
 d 34 21 d 34 20 d 34 19 d 34 17 d 34 15 d 34 15 d 34 13 d 34 13 d 34 11 d 34 10
 d 34 10 d 34 9 d 34 8 d 34 7 d 34 7 d 34 6 d 34 5 d 34 5 d 34 5 d 34 4 d 34 4 d
 34 3 d 34 2 d 34 3 d 35 2 d 34 2 d 34 1 d 34 1 d s 8 lw 0 0 1 c 669 740 m 21 Y
 s 669 784 m 20 Y s /w 23 def /w2 {w 2 div} def /w3 {w 3 div} def 669 772 m20
 1037 1312 m 38 Y s 1037 1373 m 38 Y s 1037 1361 m20 1396 1608 m 14 Y s 1396
 1644 m 15 Y s 1396 1633 m20 1 0 0 c 1599 1633 m 4 Y s 1599 1660 m 4 Y s 1599
 1649 m20 1700 1645 m 24 Y s 1700 1692 m 24 Y s 1700 1681 m20 1836 1695 m 24 Y s
 1836 1742 m 24 Y s 1836 1730 m20
 gr  gr 
showpage
end
%%EOF
