\relax 
\providecommand\hyper@newdestlabel[2]{}
\providecommand\HyperFirstAtBeginDocument{\AtBeginDocument}
\HyperFirstAtBeginDocument{\ifx\hyper@anchor\@undefined
\global\let\oldcontentsline\contentsline
\gdef\contentsline#1#2#3#4{\oldcontentsline{#1}{#2}{#3}}
\global\let\oldnewlabel\newlabel
\gdef\newlabel#1#2{\newlabelxx{#1}#2}
\gdef\newlabelxx#1#2#3#4#5#6{\oldnewlabel{#1}{{#2}{#3}}}
\AtEndDocument{\ifx\hyper@anchor\@undefined
\let\contentsline\oldcontentsline
\let\newlabel\oldnewlabel
\fi}
\fi}
\global\let\hyper@last\relax 
\gdef\HyperFirstAtBeginDocument#1{#1}
\providecommand\HyField@AuxAddToFields[1]{}
\providecommand\HyField@AuxAddToCoFields[2]{}
\select@language{english}
\@writefile{toc}{\select@language{english}}
\@writefile{lof}{\select@language{english}}
\@writefile{lot}{\select@language{english}}
\@writefile{toc}{\contentsline {chapter}{\numberline {1}Physics of flavor}{9}{chapter.1}}
\@writefile{lof}{\addvspace {10\p@ }}
\@writefile{lot}{\addvspace {10\p@ }}
\newlabel{ch:physicsofflavor}{{1}{9}{Physics of flavor}{chapter.1}{}}
\@writefile{toc}{\contentsline {section}{\numberline {1.1}The SM Lagrangian}{9}{section.1.1}}
\@writefile{toc}{\contentsline {subsection}{\numberline {1.1.1}Bosons}{10}{subsection.1.1.1}}
\@writefile{toc}{\contentsline {subsection}{\numberline {1.1.2}Fermions and flavor}{12}{subsection.1.1.2}}
\newlabel{eq:EWlagr}{{1.28}{12}{Fermions and flavor}{equation.1.1.28}{}}
\newlabel{eq:Zcoupling}{{1.29}{13}{Fermions and flavor}{equation.1.1.29}{}}
\@writefile{toc}{\contentsline {subsection}{\numberline {1.1.3}The SM Lagrangian}{16}{subsection.1.1.3}}
\@writefile{toc}{\contentsline {section}{\numberline {1.2}Discrete symmetries }{17}{section.1.2}}
\@writefile{toc}{\contentsline {subsection}{\numberline {1.2.1}Sakharov conditions}{20}{subsection.1.2.1}}
\@writefile{toc}{\contentsline {section}{\numberline {1.3}Neutrino masses}{22}{section.1.3}}
\@writefile{toc}{\contentsline {subsection}{\numberline {1.3.1}Dirac and Majorana mass terms}{22}{subsection.1.3.1}}
\@writefile{toc}{\contentsline {subsubsection}{The see-saw mechanism}{23}{subsubsection*.7}}
\@writefile{toc}{\contentsline {subsection}{\numberline {1.3.2}The SM flavor group}{25}{subsection.1.3.2}}
\@writefile{toc}{\contentsline {subsection}{\numberline {1.3.3}Processes in flavor physics}{26}{subsection.1.3.3}}
\@writefile{toc}{\contentsline {subsubsection}{Muon decay}{26}{subsubsection*.8}}
\@writefile{toc}{\contentsline {subsubsection}{Lepton flavor violation}{27}{subsubsection*.9}}
\@writefile{toc}{\contentsline {subsubsection}{Neutrinoless double beta decay}{28}{subsubsection*.10}}
\@writefile{toc}{\contentsline {section}{\numberline {1.4}Chiral symmetries of QCD }{29}{section.1.4}}
\@writefile{toc}{\contentsline {section}{\numberline {1.5}The $V_{\mathrm  {CKM}}$ matrix}{33}{section.1.5}}
\@writefile{toc}{\contentsline {subsection}{\numberline {1.5.1}$V_{\mathrm  {CKM}}$ matrix elements}{33}{subsection.1.5.1}}
\@writefile{toc}{\contentsline {subsubsection}{$|V_{ud}|$ -- superallowed $\beta -$decays}{33}{subsubsection*.14}}
\@writefile{toc}{\contentsline {subsubsection}{$|V_{us}|$ -- semileptonic kaon decay}{35}{subsubsection*.15}}
\@writefile{toc}{\contentsline {subsubsection}{$|V_{cb}|$ and $|V_{ub}|$ -- $B$ mesons semileptonic decays}{36}{subsubsection*.16}}
\@writefile{toc}{\contentsline {subsubsection}{Summary and $|V_{ti}|$ elements}{36}{subsubsection*.17}}
\@writefile{toc}{\contentsline {subsection}{\numberline {1.5.2}Unitarity triangle and $CP$ violation}{37}{subsection.1.5.2}}
\newlabel{eq:VCKM}{{1.227}{38}{Unitarity triangle and $CP$ violation}{equation.1.5.227}{}}
\newlabel{eq:triangle}{{1.234}{39}{Unitarity triangle and $CP$ violation}{equation.1.5.234}{}}
\@writefile{lof}{\contentsline {figure}{\numberline {1.1}{\ignorespaces Level sets of $S_{\psi k_{s}}$ varying the value of $\beta $.\relax }}{40}{figure.caption.18}}
\providecommand*\caption@xref[2]{\@setref\relax\@undefined{#1}}
\newlabel{fig:S}{{1.1}{40}{Level sets of $S_{\psi k_{s}}$ varying the value of $\beta $.\relax }{figure.caption.18}{}}
\@writefile{lof}{\contentsline {figure}{\numberline {1.2}{\ignorespaces Qualitative plot of precision consistency check of $V_{\mathrm  {CKM}}$ parameters.\relax }}{41}{figure.caption.19}}
\newlabel{fig:flavor}{{1.2}{41}{Qualitative plot of precision consistency check of $V\ut {CKM}$ parameters.\relax }{figure.caption.19}{}}
\@writefile{toc}{\contentsline {section}{\numberline {1.6}Lepton flavor universality}{42}{section.1.6}}
\@writefile{toc}{\contentsline {subsection}{\numberline {1.6.1}Pion decay}{42}{subsection.1.6.1}}
\newlabel{eq:piondecayconstant}{{1.248}{42}{Pion decay}{equation.1.6.248}{}}
\newlabel{eq:piondecay}{{1.268}{44}{Pion decay}{equation.1.6.268}{}}
\newlabel{eq:ratioGammaemu}{{1.269}{44}{Pion decay}{equation.1.6.269}{}}
\@writefile{toc}{\contentsline {subsection}{\numberline {1.6.2}Tau decays}{45}{subsection.1.6.2}}
\@writefile{toc}{\contentsline {section}{\numberline {1.7}Neutrino oscillation}{47}{section.1.7}}
\@writefile{toc}{\contentsline {subsection}{\numberline {1.7.1}Oscillation in vacuum}{47}{subsection.1.7.1}}
\newlabel{eq:nuosc}{{1.297}{48}{}{equation.1.7.297}{}}
\@writefile{lof}{\contentsline {figure}{\numberline {1.3}{\ignorespaces Probability to find an electronic neutrino from a source of electronic neutrinos as a function of the distance travelled in kilometers. I have chosen $\Delta m^2= 1$ eV$^2$, $E=1$ GeV, $\theta =1$. Notice that on great distances we can average the dependence on the distance and we are sensitive to the angle $\theta $ only: the expected mean probability at great distance is reported dot-dashed.\relax }}{49}{figure.caption.20}}
\newlabel{fig:nuosc}{{1.3}{49}{Probability to find an electronic neutrino from a source of electronic neutrinos as a function of the distance travelled in kilometers. I have chosen $\Delta m^2= 1$ eV$^2$, $E=1$ GeV, $\theta =1$. Notice that on great distances we can average the dependence on the distance and we are sensitive to the angle $\theta $ only: the expected mean probability at great distance is reported dot-dashed.\relax }{figure.caption.20}{}}
\newlabel{eq:oscprob1}{{1.304}{50}{}{equation.1.7.304}{}}
\newlabel{eq:sum||||}{{1.307}{50}{}{equation.1.7.307}{}}
\@writefile{toc}{\contentsline {subsection}{\numberline {1.7.2}Oscillation in matter and the MSW effect}{52}{subsection.1.7.2}}
\@writefile{lof}{\contentsline {figure}{\numberline {1.4}{\ignorespaces The solar neutrinos expected flux spectrum. We show the neutrino flux spectra for different nuclear reaction producing electronic neutrinos, together with their uncertainties. On the top we show the energy range of neutrino experiments (Homestake -- Chlorine, Gallex -- Gallium, SNO, Super Kamiokande).\relax }}{53}{figure.caption.22}}
\newlabel{fig:solarnu}{{1.4}{53}{The solar neutrinos expected flux spectrum. We show the neutrino flux spectra for different nuclear reaction producing electronic neutrinos, together with their uncertainties. On the top we show the energy range of neutrino experiments (Homestake -- Chlorine, Gallex -- Gallium, SNO, Super Kamiokande).\relax }{figure.caption.22}{}}
\newlabel{eq:oscprobmatter}{{1.368}{58}{Oscillation in matter and the MSW effect}{equation.1.7.368}{}}
\newlabel{eq:cos2thetam}{{1.371}{59}{Oscillation in matter and the MSW effect}{equation.1.7.371}{}}
\@writefile{toc}{\contentsline {chapter}{\numberline {2}EFTs and phenomenology at tree level}{61}{chapter.2}}
\@writefile{lof}{\addvspace {10\p@ }}
\@writefile{lot}{\addvspace {10\p@ }}
\newlabel{ch:EWgaugetheory}{{2}{61}{EFTs and phenomenology at tree level}{chapter.2}{}}
\@writefile{toc}{\contentsline {section}{\numberline {2.1}Construction of EFTs}{61}{section.2.1}}
\newlabel{sec:EFT}{{2.1}{61}{Construction of EFTs}{section.2.1}{}}
\@writefile{toc}{\contentsline {subsubsection}{$\psi -\phi $ Yukawa toy model}{61}{subsubsection*.23}}
\@writefile{toc}{\contentsline {subsubsection}{Fermi theory and the values of $G_F$ and $v$}{63}{subsubsection*.24}}
\newlabel{eq:LWeff}{{2.14}{63}{Fermi theory and the values of $G_F$ and $v$}{equation.2.1.14}{}}
\newlabel{eq:Weff}{{2.18}{63}{Fermi theory and the values of $G_F$ and $v$}{equation.2.1.18}{}}
\newlabel{eq:LWeffFin}{{2.19}{64}{Fermi theory and the values of $G_F$ and $v$}{equation.2.1.19}{}}
\newlabel{eq:Zeff}{{2.21}{64}{Fermi theory and the values of $G_F$ and $v$}{equation.2.1.21}{}}
\newlabel{eq:LZeffFin}{{2.22}{64}{Fermi theory and the values of $G_F$ and $v$}{equation.2.1.22}{}}
\newlabel{eq:GFMW}{{2.31}{64}{Fermi theory and the values of $G_F$ and $v$}{equation.2.1.31}{}}
\@writefile{toc}{\contentsline {subsubsection}{See-saw mechanism and the dimension 5 Weinberg operator}{65}{subsubsection*.25}}
\@writefile{toc}{\contentsline {section}{\numberline {2.2}NC processes and the values of $\lowercase {g}_V$ and $\lowercase {g}_A$ }{65}{section.2.2}}
\newlabel{sec:NCgVgA}{{2.2}{65}{NC processes and the values of $\lowercase {g}_V$ and $\lowercase {g}_A$ }{section.2.2}{}}
\newlabel{eq:unpolamp_nue}{{2.47}{66}{NC processes and the values of $\lowercase {g}_V$ and $\lowercase {g}_A$ }{equation.2.2.47}{}}
\newlabel{eq:crossnumue}{{2.56}{67}{NC processes and the values of $\lowercase {g}_V$ and $\lowercase {g}_A$ }{equation.2.2.56}{}}
\newlabel{eq:crossantinumue}{{2.61}{68}{NC processes and the values of $\lowercase {g}_V$ and $\lowercase {g}_A$ }{equation.2.2.61}{}}
\newlabel{eq:MCC}{{2.64}{68}{NC processes and the values of $\lowercase {g}_V$ and $\lowercase {g}_A$ }{equation.2.2.64}{}}
\newlabel{eq:crossantinuee}{{2.67}{69}{NC processes and the values of $\lowercase {g}_V$ and $\lowercase {g}_A$ }{equation.2.2.67}{}}
\@writefile{toc}{\contentsline {section}{\numberline {2.3}The \lowercase {$e^+ e^- \rightarrow \mu ^+\mu ^-$} process in the SM}{69}{section.2.3}}
\newlabel{sec:e+e-mu+mu-}{{2.3}{69}{The \lowercase {$e^+ e^- \rightarrow \mu ^+\mu ^-$} process in the SM}{section.2.3}{}}
\@writefile{lof}{\contentsline {figure}{\numberline {2.1}{\ignorespaces Qualitative plot of consistency check of the NC sector of EW theory.\relax }}{70}{figure.caption.26}}
\newlabel{fig:flavor}{{2.1}{70}{Qualitative plot of consistency check of the NC sector of EW theory.\relax }{figure.caption.26}{}}
\@writefile{toc}{\contentsline {subsection}{\numberline {2.3.1}Low energy limit $G_Fs\ll 1$}{70}{subsection.2.3.1}}
\newlabel{eq:e+e-mu+mu-_Fermi}{{2.78}{71}{Low energy limit $G_Fs\ll 1$}{equation.2.3.78}{}}
\newlabel{eq:defABe+e-mu+mu-}{{2.89}{72}{Low energy limit $G_Fs\ll 1$}{equation.2.3.89}{}}
\@writefile{toc}{\contentsline {subsection}{\numberline {2.3.2}LEP energy limit: $\sqrt  {s}\sim M_Z$}{73}{subsection.2.3.2}}
\newlabel{eq:opt1}{{2.107}{74}{LEP energy limit: $\sqrt {s}\sim M_Z$}{equation.2.3.107}{}}
\newlabel{eq:opt2}{{2.110}{74}{LEP energy limit: $\sqrt {s}\sim M_Z$}{equation.2.3.110}{}}
\newlabel{eq:genopt}{{2.111}{74}{LEP energy limit: $\sqrt {s}\sim M_Z$}{equation.2.3.111}{}}
\newlabel{eq:ImTZZ}{{2.114}{74}{LEP energy limit: $\sqrt {s}\sim M_Z$}{equation.2.3.114}{}}
\newlabel{eq:crossZpole}{{2.131}{76}{LEP energy limit: $\sqrt {s}\sim M_Z$}{equation.2.3.131}{}}
\@writefile{lof}{\contentsline {figure}{\numberline {2.2}{\ignorespaces Qualitative plot of the cross section for the $e^+e^-\rightarrow \mu ^+\mu ^-$ process near the $Z$ pole.\relax }}{77}{figure.caption.27}}
\newlabel{fig:crossZpole}{{2.2}{77}{Qualitative plot of the cross section for the $e^+e^-\rightarrow \mu ^+\mu ^-$ process near the $Z$ pole.\relax }{figure.caption.27}{}}
\newlabel{eq:decayZff}{{2.134}{77}{LEP energy limit: $\sqrt {s}\sim M_Z$}{equation.2.3.134}{}}
\newlabel{eq:gammaZ}{{2.136}{77}{LEP energy limit: $\sqrt {s}\sim M_Z$}{equation.2.3.136}{}}
\@writefile{lof}{\contentsline {figure}{\numberline {2.3}{\ignorespaces Measurements of the hadron production cross-section around the Z resonance. The curves indicate the predicted cross-section for two, three and four neutrino species with SM couplings and negligible mass. Figure from \url  {https://arxiv.org/abs/hep-ex/0509008}.\relax }}{78}{figure.caption.28}}
\newlabel{fig:Nnu}{{2.3}{78}{Measurements of the hadron production cross-section around the Z resonance. The curves indicate the predicted cross-section for two, three and four neutrino species with SM couplings and negligible mass. Figure from \url {https://arxiv.org/abs/hep-ex/0509008}.\relax }{figure.caption.28}{}}
\@writefile{toc}{\contentsline {section}{\numberline {2.4}Partial wave unitarity bounds}{78}{section.2.4}}
\newlabel{sec:unitaritybounds}{{2.4}{78}{Partial wave unitarity bounds}{section.2.4}{}}
\newlabel{eq:partialwavedecomposition}{{2.144}{78}{Partial wave unitarity bounds}{equation.2.4.144}{}}
\newlabel{eq:opt_unitarybounds}{{2.150}{79}{Partial wave unitarity bounds}{equation.2.4.150}{}}
\newlabel{eq:unitarityconstraints}{{2.154}{79}{Partial wave unitarity bounds}{equation.2.4.154}{}}
\@writefile{toc}{\contentsline {section}{\numberline {2.5}The test of the non abelian structure of the SM}{80}{section.2.5}}
\newlabel{sec:nonabelianity}{{2.5}{80}{The test of the non abelian structure of the SM}{section.2.5}{}}
\newlabel{eq:highenergypol}{{2.164}{81}{The test of the non abelian structure of the SM}{equation.2.5.164}{}}
\newlabel{diag:rules_egamma_eZ}{{2.166}{82}{The test of the non abelian structure of the SM}{equation.2.5.166}{}}
\@writefile{toc}{\contentsline {subsubsection}{Amplitude for $e_R^-$}{83}{subsubsection*.29}}
\newlabel{eq:eR-}{{2.169}{83}{Amplitude for $e_R^-$}{equation.2.5.169}{}}
\newlabel{eq:eL-s}{{2.173}{84}{}{equation.2.5.173}{}}
\newlabel{eq:badb}{{2.174}{84}{}{equation.2.5.174}{}}
\@writefile{lof}{\contentsline {figure}{\numberline {2.4}{\ignorespaces Plot of the experimental cross section $\sigma (e^+e^- \rightarrow W^+ W^-)$ obtained at LEP2 (figure from \url  {https://arxiv.org/abs/hep-ph/0004103})\relax }}{85}{figure.caption.30}}
\newlabel{fig:LEPeeWW}{{2.4}{85}{Plot of the experimental cross section $\sigma (e^+e^- \rightarrow W^+ W^-)$ obtained at LEP2 (figure from \url {https://arxiv.org/abs/hep-ph/0004103})\relax }{figure.caption.30}{}}
\@writefile{toc}{\contentsline {section}{\numberline {2.6}The Goldstone boson equivalence theorem}{85}{section.2.6}}
\newlabel{sec:GBET}{{2.6}{85}{The Goldstone boson equivalence theorem}{section.2.6}{}}
\newlabel{eq:Lcase}{{2.190}{87}{}{equation.2.6.190}{}}
\newlabel{eq:GammatWb}{{2.196}{88}{}{equation.2.6.196}{}}
\@writefile{toc}{\contentsline {chapter}{\numberline {3}Phenomenology at loop level}{93}{chapter.3}}
\@writefile{lof}{\addvspace {10\p@ }}
\@writefile{lot}{\addvspace {10\p@ }}
\newlabel{ch:loop}{{3}{93}{Phenomenology at loop level}{chapter.3}{}}
\@writefile{toc}{\contentsline {section}{\numberline {3.1}Renormalization and dimensional regularization}{94}{section.3.1}}
\newlabel{sec:renormalization}{{3.1}{94}{Renormalization and dimensional regularization}{section.3.1}{}}
\newlabel{eq:divdiagQED}{{3.5}{95}{Renormalization and dimensional regularization}{equation.3.1.5}{}}
\@writefile{toc}{\contentsline {subsection}{\numberline {3.1.1}Renormalization program: two steps}{95}{subsection.3.1.1}}
\@writefile{toc}{\contentsline {subsection}{\numberline {3.1.2}Dimensional regularization and subtraction scheme}{95}{subsection.3.1.2}}
\newlabel{eq:renLagQED}{{3.16}{96}{Dimensional regularization and subtraction scheme}{equation.3.1.16}{}}
\newlabel{eq:counterterms}{{3.17}{96}{Dimensional regularization and subtraction scheme}{equation.3.1.17}{}}
\newlabel{eq:Z}{{3.18}{97}{Dimensional regularization and subtraction scheme}{equation.3.1.18}{}}
\newlabel{eq:loopint}{{3.22}{97}{}{equation.3.1.22}{}}
\newlabel{eq:tensormaster}{{3.33}{98}{}{equation.3.1.33}{}}
\newlabel{eq:Irmpoles}{{3.34}{98}{}{equation.3.1.34}{}}
\@writefile{toc}{\contentsline {section}{\numberline {3.2}Vacuum polarization}{100}{section.3.2}}
\newlabel{sec:vacuum}{{3.2}{100}{Vacuum polarization}{section.3.2}{}}
\newlabel{eq:renField}{{3.46}{100}{Vacuum polarization}{equation.3.2.46}{}}
\newlabel{eq:muM}{{3.60}{101}{Vacuum polarization}{equation.3.2.60}{}}
\newlabel{eq:effch}{{3.72}{103}{Vacuum polarization}{equation.3.2.72}{}}
\@writefile{lof}{\contentsline {figure}{\numberline {3.1}{\ignorespaces Sketch of the vacuum polarization effect: virtual $e^+e^-$ pairs are effectively dipoles of length $\sim 1/m$ which screen the bare charge of the electron.\relax }}{104}{figure.caption.31}}
\newlabel{fig:vacpol}{{3.1}{104}{Sketch of the vacuum polarization effect: virtual $e^+e^-$ pairs are effectively dipoles of length $\sim 1/m$ which screen the bare charge of the electron.\relax }{figure.caption.31}{}}
\@writefile{lof}{\contentsline {figure}{\numberline {3.2}{\ignorespaces Plot of the behavior of coupling constants of the SM fundamental interactions (strong, electromagnetic, weak) as a function of the energy scale of physical processes. Note how the lines intersecate at the GUT scales.\relax }}{104}{figure.caption.32}}
\newlabel{fig:coupling}{{3.2}{104}{Plot of the behavior of coupling constants of the SM fundamental interactions (strong, electromagnetic, weak) as a function of the energy scale of physical processes. Note how the lines intersecate at the GUT scales.\relax }{figure.caption.32}{}}
\@writefile{toc}{\contentsline {section}{\numberline {3.3}Electron self-energy}{105}{section.3.3}}
\@writefile{toc}{\contentsline {section}{\numberline {3.4}Vertex correction}{106}{section.3.4}}
\newlabel{sec:vertex}{{3.4}{106}{Vertex correction}{section.3.4}{}}
\@writefile{toc}{\contentsline {subsection}{\numberline {3.4.1}The anomalous magnetic moment $g-2$}{108}{subsection.3.4.1}}
\newlabel{eq:KGlike}{{3.125}{110}{The anomalous magnetic moment $g-2$}{equation.3.4.125}{}}
\newlabel{eq:HamAnomalous}{{3.127}{110}{The anomalous magnetic moment $g-2$}{equation.3.4.127}{}}
\@writefile{toc}{\contentsline {subsection}{\numberline {3.4.2}The vertex renormalization and Ward identity of QED}{111}{subsection.3.4.2}}
\@writefile{toc}{\contentsline {section}{\numberline {3.5}ElectroWeak Precision Tests}{115}{section.3.5}}
\newlabel{sec:EWPT}{{3.5}{115}{ElectroWeak Precision Tests}{section.3.5}{}}
\@writefile{toc}{\contentsline {subsection}{\numberline {3.5.1}Oblique corrections}{117}{subsection.3.5.1}}
\newlabel{eq:doubleblob}{{3.183}{118}{}{equation.3.5.183}{}}
\newlabel{eq:G1loop}{{3.192}{119}{}{equation.3.5.192}{}}
\newlabel{eq:Pi'}{{3.203}{121}{}{equation.3.5.203}{}}
\newlabel{eq:alpha1loop}{{3.204}{121}{}{equation.3.5.204}{}}
\newlabel{eq:GF1loop}{{3.205}{121}{}{equation.3.5.205}{}}
\newlabel{eq:M1loop}{{3.206}{121}{}{equation.3.5.206}{}}
\@writefile{toc}{\contentsline {subsubsection}{Computation of EW vacuum polarization loops}{122}{subsubsection*.33}}
\@writefile{toc}{\contentsline {subsection}{\numberline {3.5.2}Custodial $SU(2)_C$ symmetry}{125}{subsection.3.5.2}}
\newlabel{STUparams}{{3.279}{132}{}{equation.3.5.279}{}}
\@writefile{lof}{\contentsline {figure}{\numberline {3.3}{\ignorespaces Contours of 68\%, 95\%, and 99\% CL in the $\mathcal  {TS}$-plane. The dark region shows the prediction within the SM. $M_h$=120 GeV and $m_t$=173.1 GeV defines the reference point at which all oblique parameters vanish. Contours from fits to the EW precision data, predictions within the SM, and predictions from various new physics models are compared ($M_h$ and new physics parameters are floating parameters). Figure from the GFitter collaboration \url  {http://gfitter.desy.de/Oblique_Parameters/2011_08_19_index.html}.\relax }}{133}{figure.caption.35}}
\newlabel{fig:STU}{{3.3}{133}{Contours of 68\%, 95\%, and 99\% CL in the $\mathcal {TS}$-plane. The dark region shows the prediction within the SM. $M_h$=120 GeV and $m_t$=173.1 GeV defines the reference point at which all oblique parameters vanish. Contours from fits to the EW precision data, predictions within the SM, and predictions from various new physics models are compared ($M_h$ and new physics parameters are floating parameters). Figure from the GFitter collaboration \url {http://gfitter.desy.de/Oblique_Parameters/2011_08_19_index.html}.\relax }{figure.caption.35}{}}
\newlabel{eq:GammaZff1loop}{{3.287}{134}{}{equation.3.5.287}{}}
\newlabel{eq:Zbblag}{{3.315}{138}{}{equation.3.5.315}{}}
\newlabel{eq:ZbbFrules}{{3.316}{139}{}{equation.3.5.316}{}}
\newlabel{eq:ZbbLeff}{{3.317}{139}{}{equation.3.5.317}{}}
\@writefile{toc}{\contentsline {section}{\numberline {3.6}Flavor Changing Neutral Currents}{145}{section.3.6}}
\newlabel{sec:FCNC}{{3.6}{145}{Flavor Changing Neutral Currents}{section.3.6}{}}
\@writefile{toc}{\contentsline {subsection}{\numberline {3.6.1}Meson-antimeson oscillation}{145}{subsection.3.6.1}}
\newlabel{par:mantimosc}{{3.6.1}{145}{Meson-antimeson oscillation}{subsection.3.6.1}{}}
\newlabel{eq:deltamdeltagamma}{{3.383}{147}{Meson-antimeson oscillation}{equation.3.6.383}{}}
\newlabel{eq:q/p^2}{{3.392}{148}{Meson-antimeson oscillation}{equation.3.6.392}{}}
\@writefile{toc}{\contentsline {subsection}{\numberline {3.6.2}FCNC in the SM and the GIM mechanism}{149}{subsection.3.6.2}}
\newlabel{par:SMFCNC}{{3.6.2}{149}{FCNC in the SM and the GIM mechanism}{subsection.3.6.2}{}}
\newlabel{eq:deltas}{{3.407}{150}{FCNC in the SM and the GIM mechanism}{equation.3.6.407}{}}
\@writefile{toc}{\contentsline {subsection}{\numberline {3.6.3}The hierarchy problem}{151}{subsection.3.6.3}}
\@writefile{toc}{\contentsline {section}{\numberline {3.7}Anomalies}{152}{section.3.7}}
\newlabel{sec:anomalies}{{3.7}{152}{Anomalies}{section.3.7}{}}
\@writefile{toc}{\contentsline {subsection}{\numberline {3.7.1}Axial-vector current Ward identity anomaly and $\pi ^0 \rightarrow \gamma \gamma $}{153}{subsection.3.7.1}}
\newlabel{par:axialWard}{{3.7.1}{153}{Axial-vector current Ward identity anomaly and $\pi ^0 \rightarrow \gamma \gamma $}{subsection.3.7.1}{}}
\newlabel{eq:axialWard1loop}{{3.442}{155}{}{equation.3.7.442}{}}
\newlabel{eq:Deltaint}{{3.443}{155}{}{equation.3.7.443}{}}
\newlabel{eq:linshift}{{3.451}{156}{}{equation.3.7.451}{}}
\newlabel{eq:ashift}{{3.452}{157}{}{equation.3.7.452}{}}
\newlabel{eq:ambiguity}{{3.453}{157}{}{equation.3.7.453}{}}
\newlabel{eq:axialanomaly}{{3.460}{157}{}{equation.3.7.460}{}}
\newlabel{eq:vectoranomaly}{{3.464}{158}{}{equation.3.7.464}{}}
\@writefile{toc}{\contentsline {subsection}{\numberline {3.7.2}ABJ anomalies in non-abelian theories }{159}{subsection.3.7.2}}
\newlabel{par:ABJSM}{{3.7.2}{159}{ABJ anomalies in non-abelian theories }{subsection.3.7.2}{}}
\newlabel{eq:baryonanomaly}{{3.480}{161}{}{equation.3.7.480}{}}
\newlabel{eq:leptonanomaly}{{3.482}{161}{}{equation.3.7.482}{}}
\@writefile{toc}{\contentsline {section}{\numberline {3.8}Higgs physics}{161}{section.3.8}}
\newlabel{sec:higgs}{{3.8}{161}{Higgs physics}{section.3.8}{}}
\@writefile{toc}{\contentsline {subsection}{\numberline {3.8.1}Theoretical bounds on $M_h$: triviality and vacuum stability bounds}{161}{subsection.3.8.1}}
\@writefile{lof}{\contentsline {figure}{\numberline {3.4}{\ignorespaces Plot of the Higgs resonant peak at $M_h \approx 125$ GeV in the $gg \rightarrow \gamma \gamma $ channel at CMS (LHC) at CERN. Figure from \url  {https://arxiv.org/abs/1510.01924}.\relax }}{162}{figure.caption.37}}
\newlabel{fig:higgsdisco}{{3.4}{162}{Plot of the Higgs resonant peak at $M_h \approx 125$ GeV in the $gg \rightarrow \gamma \gamma $ channel at CMS (LHC) at CERN. Figure from \url {https://arxiv.org/abs/1510.01924}.\relax }{figure.caption.37}{}}
\newlabel{eq:beta}{{3.500}{164}{}{equation.3.8.500}{}}
\newlabel{eq:betaeq}{{3.515}{167}{}{equation.3.8.515}{}}
\newlabel{eq:betaeq}{{3.522}{168}{}{equation.3.8.522}{}}
\newlabel{eq:betalambda}{{3.525}{168}{}{equation.3.8.525}{}}
\@writefile{lof}{\contentsline {figure}{\numberline {3.5}{\ignorespaces Perturbativity (triviality) bounds for two arbitrary values of $\lambda (v)$ and vacuum stability bound on the Higgs mass. The regions probed by LEP and Tevatron in which no Higgs boson was found are also shown. The allowed region for the Higgs mass is below the $\lambda $ curves and above the stability bound. Figure from \url  {https://arxiv.org/abs/0906.0954}.\relax }}{170}{figure.caption.38}}
\newlabel{fig:triviality}{{3.5}{170}{Perturbativity (triviality) bounds for two arbitrary values of $\lambda (v)$ and vacuum stability bound on the Higgs mass. The regions probed by LEP and Tevatron in which no Higgs boson was found are also shown. The allowed region for the Higgs mass is below the $\lambda $ curves and above the stability bound. Figure from \url {https://arxiv.org/abs/0906.0954}.\relax }{figure.caption.38}{}}
\@writefile{lof}{\contentsline {figure}{\numberline {3.6}{\ignorespaces Left -- regions of absolute stability, meta-stability and instability of the SM vacuum in the $M_h - m_t$ (pole masses) plane. Right -- Zoom in the region of the preferred experimental range of $M_h$ and $m_t$; the gray areas denote the allowed regions at 1, 2 and $3\sigma $. The three boundary lines correspond to $\alpha _s (M_Z)= 0.1184\pm 0.0007$, and the grading of the colors indicates the size of the theoretical error. The dotted countour-lines show the instability scale $\Lambda $ in GeV assuming $\alpha _s(M_Z)=0.1184$. Figure from \url  {https://arxiv.org/abs/1205.6497}.\relax }}{170}{figure.caption.39}}
\newlabel{fig:stability}{{3.6}{170}{Left -- regions of absolute stability, meta-stability and instability of the SM vacuum in the $M_h - m_t$ (pole masses) plane. Right -- Zoom in the region of the preferred experimental range of $M_h$ and $m_t$; the gray areas denote the allowed regions at 1, 2 and $3\sigma $. The three boundary lines correspond to $\alpha _s (M_Z)= 0.1184\pm 0.0007$, and the grading of the colors indicates the size of the theoretical error. The dotted countour-lines show the instability scale $\Lambda $ in GeV assuming $\alpha _s(M_Z)=0.1184$. Figure from \url {https://arxiv.org/abs/1205.6497}.\relax }{figure.caption.39}{}}
\@writefile{toc}{\contentsline {subsection}{\numberline {3.8.2}Experimental bounds on $M_h$}{170}{subsection.3.8.2}}
\@writefile{lof}{\contentsline {figure}{\numberline {3.7}{\ignorespaces Dependence on Higgs boson mass $M_h$ of the $\Delta \chi ^2$ function obtained from the global fit of the SM parameters to precision electroweak data, excluding (left) or including (right) the results from direct searches at LEP and the Tevatron. Figure from \url  {https://arxiv.org/abs/0906.0954}.\relax }}{172}{figure.caption.40}}
\newlabel{fig:higgsfit}{{3.7}{172}{Dependence on Higgs boson mass $M_h$ of the $\Delta \chi ^2$ function obtained from the global fit of the SM parameters to precision electroweak data, excluding (left) or including (right) the results from direct searches at LEP and the Tevatron. Figure from \url {https://arxiv.org/abs/0906.0954}.\relax }{figure.caption.40}{}}
\@writefile{toc}{\contentsline {subsection}{\numberline {3.8.3}Higgs production: gluon-gluon fusion and the parton model}{173}{subsection.3.8.3}}
\@writefile{lof}{\contentsline {figure}{\numberline {3.8}{\ignorespaces The NNPDF3.1 NNLO PDFs, evaluated at $\mu ^2=10$ GeV$^2$ (left) and $\mu ^2=10^4$ GeV$^2$ (right) obtained by the NNPDF collaboration from high-precision collider data. Figure from \url  {https://arxiv.org/abs/1706.00428} .\relax }}{174}{figure.caption.41}}
\newlabel{fig:parton}{{3.8}{174}{The NNPDF3.1 NNLO PDFs, evaluated at $\mu ^2=10$ GeV$^2$ (left) and $\mu ^2=10^4$ GeV$^2$ (right) obtained by the NNPDF collaboration from high-precision collider data. Figure from \url {https://arxiv.org/abs/1706.00428} .\relax }{figure.caption.41}{}}
\@writefile{lof}{\contentsline {figure}{\numberline {3.9}{\ignorespaces Gluon-gluon fusion cross section at $\sqrt  {S} = 7$ and 14 TeV for $pp$ collisions at the LHC and at $\sqrt  {S} = 1.96$ TeV for $\mkern 1.5mu\overline  {\mkern -1.5mup\mkern -1.5mu}\mkern 1.5mup$ collisions at Tevatron. \relax }}{175}{figure.caption.42}}
\newlabel{fig:higgshgg}{{3.9}{175}{Gluon-gluon fusion cross section at $\sqrt {S} = 7$ and 14 TeV for $pp$ collisions at the LHC and at $\sqrt {S} = 1.96$ TeV for $\obar {p}p$ collisions at Tevatron. \relax }{figure.caption.42}{}}
\@writefile{toc}{\contentsline {subsection}{\numberline {3.8.4}Higgs decay modes}{175}{subsection.3.8.4}}
\@writefile{lof}{\contentsline {figure}{\numberline {3.10}{\ignorespaces Higgs decays branching ratios as functions of the Higgs boson mass, including NLO corrections. Figure from \url  {https://arxiv.org/abs/hep-ph/9712334}\relax }}{177}{figure.caption.43}}
\newlabel{fig:higgsBR}{{3.10}{177}{Higgs decays branching ratios as functions of the Higgs boson mass, including NLO corrections. Figure from \url {https://arxiv.org/abs/hep-ph/9712334}\relax }{figure.caption.43}{}}
\newlabel{eq:hgg}{{3.554}{177}{}{equation.3.8.554}{}}
\@writefile{toc}{\contentsline {subsubsection}{Full calculation of the diagrams*}{178}{subsubsection*.45}}
\@writefile{toc}{\contentsline {chapter}{\numberline {4}Exercises}{189}{chapter.4}}
\@writefile{lof}{\addvspace {10\p@ }}
\@writefile{lot}{\addvspace {10\p@ }}
\@writefile{toc}{\contentsline {section}{\numberline {4.1}Exercise 1}{189}{section.4.1}}
\newlabel{ex:1}{{4.1}{189}{Exercise 1}{section.4.1}{}}
\@writefile{toc}{\contentsline {subparagraph}{Text}{189}{subparagraph*.46}}
\@writefile{toc}{\contentsline {subparagraph}{Solution}{189}{subparagraph*.47}}
\@writefile{toc}{\contentsline {section}{\numberline {4.2}Exercise 2}{193}{section.4.2}}
\@writefile{lof}{\contentsline {figure}{\numberline {4.1}{\ignorespaces Zoom at low energies of the total cross section for different values of the electron mass. In red we show the low-energy approximation in the massless limit: we see that the approximation fits perfectly the general expression for $m_e \not =0$.\relax }}{196}{figure.caption.48}}
\newlabel{fig:Lecross}{{4.1}{196}{Zoom at low energies of the total cross section for different values of the electron mass. In red we show the low-energy approximation in the massless limit: we see that the approximation fits perfectly the general expression for $m_e \neq 0$.\relax }{figure.caption.48}{}}
\@writefile{lof}{\contentsline {figure}{\numberline {4.2}{\ignorespaces Plot of the total cross section and comparison with the high-energy and low-energy approximations in the massless limit. Both the general cross-section and the high energy approximation converge to about $4.29\times 10^{-8}$ GeV$^{-1}$.\relax }}{196}{figure.caption.49}}
\newlabel{fig:cross2}{{4.2}{196}{Plot of the total cross section and comparison with the high-energy and low-energy approximations in the massless limit. Both the general cross-section and the high energy approximation converge to about $4.29\times 10^{-8}$ GeV$^{-1}$.\relax }{figure.caption.49}{}}
\newlabel{eq:crossHE}{{4.80}{198}{}{equation.4.2.80}{}}
\@writefile{lof}{\contentsline {figure}{\numberline {4.3}{\ignorespaces Comparison between the general ($m=0.511$ Mev) cross sections of the first two processes.\relax }}{199}{figure.caption.50}}
\newlabel{fig:comparison}{{4.3}{199}{Comparison between the general ($m=0.511$ Mev) cross sections of the first two processes.\relax }{figure.caption.50}{}}
\newlabel{eq:bellissima}{{4.92}{200}{}{equation.4.2.92}{}}
\@writefile{lof}{\contentsline {figure}{\numberline {4.4}{\ignorespaces Comparison between the cross-sections computed in the exercise. The $m_e=0$ approximation exploited in the last two is an excellent one.\relax }}{202}{figure.caption.51}}
\newlabel{fig:crosstutte}{{4.4}{202}{Comparison between the cross-sections computed in the exercise. The $m_e=0$ approximation exploited in the last two is an excellent one.\relax }{figure.caption.51}{}}
\@writefile{toc}{\contentsline {section}{\numberline {4.3}Exercise 3}{202}{section.4.3}}
\@writefile{toc}{\contentsline {section}{\numberline {4.4}Exercise 4}{206}{section.4.4}}
\newlabel{eq:Zdecay}{{4.139}{207}{}{equation.4.4.139}{}}
\@writefile{toc}{\contentsline {section}{\numberline {4.5}Exercise 5}{209}{section.4.5}}
\@writefile{toc}{\contentsline {subparagraph}{Text}{209}{subparagraph*.54}}
\@writefile{toc}{\contentsline {subparagraph}{Solution}{210}{subparagraph*.55}}
\newlabel{eq:NW}{{4.185}{212}{Solution}{equation.4.5.185}{}}
\@writefile{toc}{\contentsline {chapter}{\numberline {A}Reference formulae}{217}{appendix.A}}
\@writefile{lof}{\addvspace {10\p@ }}
\@writefile{lot}{\addvspace {10\p@ }}
\@writefile{toc}{\contentsline {section}{\numberline {A.1}$\lowercase {\gamma }$ matrices and Fierz identities}{217}{section.A.1}}
\newlabel{eq:gammatraces}{{A.1}{217}{$\lowercase {\gamma }$ matrices and Fierz identities}{equation.A.1.1}{}}
\@writefile{toc}{\contentsline {section}{\numberline {A.2}Cross sections and decay rates}{218}{section.A.2}}
\newlabel{eq:crosssection}{{A.8}{218}{Cross sections and decay rates}{equation.A.2.8}{}}
\newlabel{eq:decayrate_2body}{{A.11}{218}{Cross sections and decay rates}{equation.A.2.11}{}}
