%!PS-Adobe-2.0 EPSF-2.0
%%BoundingBox:  0 0 567 384
%%Title: : A Gfitter plot of S versus T parameter
%%Creator: ROOT Version 5.26/00b
%%CreationDate: Thu Aug 19 16:57:34 2010
%%EndComments
%%BeginProlog
80 dict begin
/s {stroke} def /l {lineto} def /m {moveto} def /t {translate} def
/sw {stringwidth} def /r {rotate} def /rl {roll}  def /R {repeat} def
/d {rlineto} def /rm {rmoveto} def /gr {grestore} def /f {eofill} def
/c {setrgbcolor} def /black {0 setgray} def /sd {setdash} def
/cl {closepath} def /sf {scalefont setfont} def /lw {setlinewidth} def
/box {m dup 0 exch d exch 0 d 0 exch neg d cl} def
/NC{systemdict begin initclip end}def/C{NC box clip newpath}def
/bl {box s} def /bf {box f} def /Y { 0 exch d} def /X { 0 d} def 
/mp {newpath /y exch def /x exch def} def
/side {[w .77 mul w .23 mul] .385 w mul sd w 0 l currentpoint t -144 r} def
/mr {mp x y w2 0 360 arc} def /m24 {mr s} def /m20 {mr f} def
/mb {mp x y w2 add m w2 neg 0 d 0 w neg d w 0 d 0 w d cl} def
/mt {mp x y w2 add m w2 neg w neg d w 0 d cl} def
/m21 {mb f} def /m25 {mb s} def /m22 {mt f} def /m26{mt s} def
/m23 {mp x y w2 sub m w2 w d w neg 0 d cl f} def
/m27 {mp x y w2 add m w3 neg w2 neg d w3 w2 neg d w3 w2 d cl s} def
/m28 {mp x w2 sub y w2 sub w3 add m w3 0 d  0 w3 neg d w3 0 d 0 w3 d w3 0 d  0 w3 d w3 neg 0 d 0 w3 d w3 neg 0 d
 0 w3 neg d w3 neg 0 d cl s } def
/m29 {mp gsave x w2 sub y w2 add w3 sub m currentpoint t
 4 {side} repeat cl fill gr} def
/m30 {mp gsave x w2 sub y w2 add w3 sub m currentpoint t
 4 {side} repeat cl s gr} def
/m31 {mp x y w2 sub m 0 w d x w2 sub y m w 0 d x w2 sub y w2 add m w w neg d x w2 sub y w2
 sub m w w d s} def
/m2 {mp x y w2 sub m 0 w d x w2 sub y m w 0 d s} def
/m5 {mp x w2 sub y w2 sub m w w d x w2 sub y w2 add m w w neg d s} def
/reEncode {exch findfont dup length dict begin {1 index /FID eq  {pop pop} {def} ifelse } forall /Encoding exch def currentdict end dup /FontName get exch definefont pop } def [/Times-Bold /Times-Italic /Times-BoldItalic /Helvetica
 /Helvetica-Oblique /Helvetica-Bold /Helvetica-BoldOblique /Courier /Courier-Oblique /Courier-Bold /Courier-BoldOblique /Times-Roman /AvantGarde-Book /AvantGarde-BookOblique /AvantGarde-Demi /AvantGarde-DemiOblique /Bookman-Demi
 /Bookman-DemiItalic /Bookman-Light /Bookman-LightItalic /Helvetica-Narrow /Helvetica-Narrow-Bold /Helvetica-Narrow-BoldOblique /Helvetica-Narrow-Oblique /NewCenturySchlbk-Roman /NewCenturySchlbk-Bold
 /NewCenturySchlbk-BoldItalic /NewCenturySchlbk-Italic /Palatino-Bold /Palatino-BoldItalic /Palatino-Italic /Palatino-Roman ] {ISOLatin1Encoding reEncode } forall
/oshow {gsave [] 0 sd true charpath stroke gr} def
/stwn { /fs exch def /fn exch def /text exch def fn findfont fs sf
 text sw pop xs add /xs exch def} def
/stwb { /fs exch def /fn exch def /nbas exch def /textf exch deftextf length /tlen exch def nbas tlen gt {/nbas tlendef} iffn findfont fs sf textf dup length nbas sub nbas getinterval sw
pop neg xs add /xs exch def} def
%%EndProlog
%%BeginSetup
%%EndSetup
newpath  gsave  .25 .25 scale  gsave  0 0 t black[  ] 0 sd 3 lw 1 1 1 c 2268 1538 0 0 bf black 1 1 1 c 1882 1261 272 185 bf black 1882 1261 272 185 bl 1 1 1 c 1882 1261 272 185 bf black 1882 1261 272 185 bl 272 185 m 1882 X s
 gsave  2268 1538 0 0 C 2111 13 t 0 r /Helvetica-Bold findfont 65.1643 sf 0 0 m (S) show NC gr  272 223 m -38 Y s 313 204 m -19 Y s 355 204 m -19 Y s 396 204 m -19 Y s 438 204 m -19 Y s 479 223 m -38 Y s 520 204 m -19 Y s 562 204 m -19 Y s 603 204 m
 -19 Y s 644 204 m -19 Y s 686 223 m -38 Y s 727 204 m -19 Y s 769 204 m -19 Y s 810 204 m -19 Y s 851 204 m -19 Y s 893 223 m -38 Y s 934 204 m -19 Y s 975 204 m -19 Y s 1017 204 m -19 Y s 1058 204 m -19 Y s 1099 223 m -38 Y s 1141 204 m -19 Y s
 1182 204 m -19 Y s 1224 204 m -19 Y s 1265 204 m -19 Y s 1306 223 m -38 Y s 1348 204 m -19 Y s 1389 204 m -19 Y s 1430 204 m -19 Y s 1472 204 m -19 Y s 1513 223 m -38 Y s 1555 204 m -19 Y s 1596 204 m -19 Y s 1637 204 m -19 Y s 1679 204 m -19 Y s
 1720 223 m -38 Y s 1761 204 m -19 Y s 1803 204 m -19 Y s 1844 204 m -19 Y s 1885 204 m -19 Y s 1927 223 m -38 Y s 1968 204 m -19 Y s 2010 204 m -19 Y s 2051 204 m -19 Y s 2092 204 m -19 Y s 2134 223 m -38 Y s 2134 223 m -38 Y s
 gsave  2268 1538 0 0 C 218 117 t 0 r /Helvetica-Bold findfont 58.6478 sf 0 0 m (\2550.4) show NC gr 
 gsave  2268 1538 0 0 C 427 117 t 0 r /Helvetica-Bold findfont 58.6478 sf 0 0 m (\2550.3) show NC gr 
 gsave  2268 1538 0 0 C 632 117 t 0 r /Helvetica-Bold findfont 58.6478 sf 0 0 m (\2550.2) show NC gr 
 gsave  2268 1538 0 0 C 841 117 t 0 r /Helvetica-Bold findfont 58.6478 sf 0 0 m (\2550.1) show NC gr 
 gsave  2268 1538 0 0 C 1082 117 t 0 r /Helvetica-Bold findfont 58.6478 sf 0 0 m (0) show NC gr 
 gsave  2268 1538 0 0 C 1264 117 t 0 r /Helvetica-Bold findfont 58.6478 sf 0 0 m (0.1) show NC gr 
 gsave  2268 1538 0 0 C 1469 117 t 0 r /Helvetica-Bold findfont 58.6478 sf 0 0 m (0.2) show NC gr 
 gsave  2268 1538 0 0 C 1675 117 t 0 r /Helvetica-Bold findfont 58.6478 sf 0 0 m (0.3) show NC gr 
 gsave  2268 1538 0 0 C 1883 117 t 0 r /Helvetica-Bold findfont 58.6478 sf 0 0 m (0.4) show NC gr 
 gsave  2268 1538 0 0 C 2089 117 t 0 r /Helvetica-Bold findfont 58.6478 sf 0 0 m (0.5) show NC gr  272 1446 m 1882 X s 272 1407 m 39 Y s 313 1426 m 20 Y s 355 1426 m 20 Y s 396 1426 m 20 Y s 438 1426 m 20 Y s 479 1407 m 39 Y s 520 1426 m 20 Y s 562
 1426 m 20 Y s 603 1426 m 20 Y s 644 1426 m 20 Y s 686 1407 m 39 Y s 727 1426 m 20 Y s 769 1426 m 20 Y s 810 1426 m 20 Y s 851 1426 m 20 Y s 893 1407 m 39 Y s 934 1426 m 20 Y s 975 1426 m 20 Y s 1017 1426 m 20 Y s 1058 1426 m 20 Y s 1099 1407 m 39 Y
 s 1141 1426 m 20 Y s 1182 1426 m 20 Y s 1224 1426 m 20 Y s 1265 1426 m 20 Y s 1306 1407 m 39 Y s 1348 1426 m 20 Y s 1389 1426 m 20 Y s 1430 1426 m 20 Y s 1472 1426 m 20 Y s 1513 1407 m 39 Y s 1555 1426 m 20 Y s 1596 1426 m 20 Y s 1637 1426 m 20 Y s
 1679 1426 m 20 Y s 1720 1407 m 39 Y s 1761 1426 m 20 Y s 1803 1426 m 20 Y s 1844 1426 m 20 Y s 1885 1426 m 20 Y s 1927 1407 m 39 Y s 1968 1426 m 20 Y s 2010 1426 m 20 Y s 2051 1426 m 20 Y s 2092 1426 m 20 Y s 2134 1407 m 39 Y s 2134 1407 m 39 Y s
 272 185 m 1261 Y s
 gsave  2268 1538 0 0 C 91 1408 t 90 r /Helvetica-Bold findfont 65.1643 sf 0 0 m (T) show NC gr  328 185 m -56 X s 300 213 m -28 X s 300 241 m -28 X s 300 269 m -28 X s 300 297 m -28 X s 328 325 m -56 X s 300 353 m -28 X s 300 381 m -28 X s 300 409
 m -28 X s 300 437 m -28 X s 328 465 m -56 X s 300 493 m -28 X s 300 521 m -28 X s 300 549 m -28 X s 300 577 m -28 X s 328 605 m -56 X s 300 633 m -28 X s 300 661 m -28 X s 300 689 m -28 X s 300 717 m -28 X s 328 745 m -56 X s 300 773 m -28 X s 300
 801 m -28 X s 300 829 m -28 X s 300 857 m -28 X s 328 885 m -56 X s 300 913 m -28 X s 300 941 m -28 X s 300 969 m -28 X s 300 997 m -28 X s 328 1025 m -56 X s 300 1053 m -28 X s 300 1081 m -28 X s 300 1109 m -28 X s 300 1137 m -28 X s 328 1165 m
 -56 X s 300 1193 m -28 X s 300 1221 m -28 X s 300 1249 m -28 X s 300 1277 m -28 X s 328 1305 m -56 X s 300 1334 m -28 X s 300 1362 m -28 X s 300 1390 m -28 X s 300 1418 m -28 X s 328 1446 m -56 X s
 gsave  2268 1538 0 0 C 143 163 t 0 r /Helvetica-Bold findfont 58.6478 sf 0 0 m (\2550.4) show NC gr 
 gsave  2268 1538 0 0 C 143 303 t 0 r /Helvetica-Bold findfont 58.6478 sf 0 0 m (\2550.3) show NC gr 
 gsave  2268 1538 0 0 C 143 443 t 0 r /Helvetica-Bold findfont 58.6478 sf 0 0 m (\2550.2) show NC gr 
 gsave  2268 1538 0 0 C 150 583 t 0 r /Helvetica-Bold findfont 58.6478 sf 0 0 m (\2550.1) show NC gr 
 gsave  2268 1538 0 0 C 212 723 t 0 r /Helvetica-Bold findfont 58.6478 sf 0 0 m (0) show NC gr 
 gsave  2268 1538 0 0 C 169 863 t 0 r /Helvetica-Bold findfont 58.6478 sf 0 0 m (0.1) show NC gr 
 gsave  2268 1538 0 0 C 163 1004 t 0 r /Helvetica-Bold findfont 58.6478 sf 0 0 m (0.2) show NC gr 
 gsave  2268 1538 0 0 C 163 1144 t 0 r /Helvetica-Bold findfont 58.6478 sf 0 0 m (0.3) show NC gr 
 gsave  2268 1538 0 0 C 163 1284 t 0 r /Helvetica-Bold findfont 58.6478 sf 0 0 m (0.4) show NC gr 
 gsave  2268 1538 0 0 C 163 1424 t 0 r /Helvetica-Bold findfont 58.6478 sf 0 0 m (0.5) show NC gr  2154 185 m 1261 Y s 2099 185 m 55 X s 2126 213 m 28 X s 2126 241 m 28 X s 2126 269 m 28 X s 2126 297 m 28 X s 2099 325 m 55 X s 2126 353 m 28 X s 2126
 381 m 28 X s 2126 409 m 28 X s 2126 437 m 28 X s 2099 465 m 55 X s 2126 493 m 28 X s 2126 521 m 28 X s 2126 549 m 28 X s 2126 577 m 28 X s 2099 605 m 55 X s 2126 633 m 28 X s 2126 661 m 28 X s 2126 689 m 28 X s 2126 717 m 28 X s 2099 745 m 55 X s
 2126 773 m 28 X s 2126 801 m 28 X s 2126 829 m 28 X s 2126 857 m 28 X s 2099 885 m 55 X s 2126 913 m 28 X s 2126 941 m 28 X s 2126 969 m 28 X s 2126 997 m 28 X s 2099 1025 m 55 X s 2126 1053 m 28 X s 2126 1081 m 28 X s 2126 1109 m 28 X s 2126 1137
 m 28 X s 2099 1165 m 55 X s 2126 1193 m 28 X s 2126 1221 m 28 X s 2126 1249 m 28 X s 2126 1277 m 28 X s 2099 1305 m 55 X s 2126 1334 m 28 X s 2126 1362 m 28 X s 2126 1390 m 28 X s 2126 1418 m 28 X s 2099 1446 m 55 X s 1 1 0 c 1760 1239 m 2 -1 d 13
 -8 d 2 -3 d 7 -11 d 2 -11 d -1 -12 d -3 -11 d -4 -11 d -3 -6 d -3 -5 d -6 -11 d -6 -9 d -1 -3 d -8 -11 d -5 -6 d -4 -5 d -9 -11 d -2 -2 d -7 -9 d -7 -8 d -4 -4 d -11 -11 d -10 -11 d -4 -4 d -8 -7 d -7 -7 d -4 -5 d -10 -8 d -3 -3 d -12 -10 d -1 -1 d
 -13 -11 d -13 -11 d -1 -2 d -12 -10 d -3 -2 d -11 -9 d -3 -3 d -11 -8 d -4 -3 d -10 -8 d -4 -3 d -11 -8 d -4 -3 d -11 -9 d -3 -2 d -12 -9 d -3 -2 d -13 -9 d -1 -1 d -15 -10 d -14 -11 d -2 X -13 -10 d -3 -2 d -11 -8 d -5 -3 d -10 -7 d -7 -4 d -7 -5
 d -10 -6 d -5 -3 d -13 -9 d -1 X -15 -10 d -1 -1 d -13 -8 d -5 -3 d -10 -6 d -8 -5 d -6 -4 d -13 -7 d -2 -1 d -14 -9 d -3 -2 d -11 -7 d -8 -4 d -7 -4 d -13 -7 d -1 -1 d -15 -8 d -3 -2 d -11 -7 d -9 -4 d -6 -4 d -14 -7 d -1 -1 d -14 -7 d -7 -4 d -7
 -4 d -15 -7 d -14 -8 d -7 -3 d -8 -4 d -14 -7 d -1 X -14 -8 d -8 -4 d -6 -3 d -15 -7 d -3 -1 d -11 -6 d -13 -5 d -2 -1 d -14 -7 d -9 -3 d -6 -3 d -14 -6 d -5 -2 d -10 -5 d -14 -6 d -3 -1 d -11 -5 d -15 -5 d -2 -1 d -12 -5 d -15 -5 d -2 -1 d -12 -5
 d -15 -5 d -5 -1 d -9 -4 d -15 -5 d -10 -3 d -4 -1 d -15 -5 d -14 -4 d -5 -1 d -10 -3 d -14 -3 d -15 -3 d -8 -2 d -6 -1 d -15 -3 d -14 -2 d -15 -2 d -29 X -14 1 d -15 3 d -9 4 d -5 2 d -11 9 d -3 7 d -3 4 d -2 12 d 1 11 d 3 11 d 1 1 d 3 10 d 5 12 d
 6 9 d 1 2 d 7 11 d 6 9 d 2 2 d 9 11 d 4 5 d 5 7 d 9 10 d 1 1 d 10 11 d 4 4 d 6 7 d 8 8 d 3 3 d 12 11 d 1 Y 12 11 d 2 2 d 10 9 d 5 4 d 7 7 d 7 6 d 6 5 d 9 8 d 4 4 d 10 8 d 4 3 d 11 8 d 3 3 d 11 9 d 3 2 d 12 9 d 2 2 d 12 9 d 3 3 d 12 8 d 3 3 d 11 8 d
 4 3 d 11 8 d 5 3 d 9 7 d 6 5 d 9 5 d 7 6 d 7 5 d 10 6 d 5 3 d 11 8 d 3 2 d 14 9 d 1 X 14 10 d 2 2 d 12 8 d 5 3 d 10 6 d 8 5 d 6 4 d 12 7 d 3 2 d 14 9 d 2 X 13 9 d 5 3 d 9 6 d 10 5 d 5 3 d 14 8 d 1 X 14 9 d 4 2 d 10 6 d 10 5 d 5 3 d 14 8 d 2 1 d 13
 7 d 7 4 d 7 4 d 15 7 d 14 8 d 6 3 d 9 5 d 14 7 d 15 8 d 7 3 d 7 4 d 14 6 d 2 1 d 13 7 d 10 4 d 4 2 d 15 7 d 5 2 d 9 5 d 15 6 d 1 1 d 13 6 d 13 5 d 2 1 d 14 6 d 10 4 d 5 2 d 14 6 d 9 3 d 6 3 d 14 5 d 9 3 d 6 3 d 14 5 d 12 4 d 3 1 d 14 5 d 15 4 d 2 1
 d 12 4 d 15 4 d 11 3 d 3 1 d 15 4 d 14 3 d 14 3 d 1 X 14 3 d 14 2 d 15 2 d 14 1 d 29 X 15 -2 d 14 -5 d f 0.501961 0 0 c 645 528 m -9 4 d s 660 525 m -15 3 d s 674 524 m -14 1 d s 689 524 m -15 X s 703 524 m -14 X s 718 526 m -15 -2 d s 732 528 m
 -14 -2 d s 747 531 m -15 -3 d s 753 532 m -6 -1 d s 631 534 m -11 9 d s 636 532 m -5 2 d s 761 534 m -8 -2 d s 776 537 m -15 -3 d s 790 540 m -14 -3 d s 800 543 m -10 -3 d s 617 550 m -3 4 d s 620 543 m -3 7 d s 805 544 m -5 -1 d s 819 548 m -14 -4
 d s 834 553 m -15 -5 d s 838 554 m -4 -1 d s 614 554 m -2 12 d s 848 557 m -10 -3 d s 863 562 m -15 -5 d s 872 566 m -9 -4 d s 612 566 m 1 11 d s 877 567 m -5 -1 d s 892 572 m -15 -5 d s 904 577 m -12 -5 d s 613 577 m 3 11 d s 906 578 m -2 -1 d s
 921 583 m -15 -5 d s 933 588 m -12 -5 d s 616 588 m 1 1 d s 617 589 m 3 10 d s 935 589 m -2 -1 d s 950 594 m -15 -5 d s 961 599 m -11 -5 d s 620 599 m 5 12 d s 964 600 m -3 -1 d s 978 606 m -14 -6 d s 988 611 m -10 -5 d s 625 611 m 6 9 d s 631 620
 m 1 2 d s 993 613 m -5 -2 d s 1007 619 m -14 -6 d s 1013 622 m -6 -3 d s 632 622 m 7 11 d s 1022 625 m -9 -3 d s 1036 632 m -14 -7 d s 1038 633 m -2 -1 d s 639 633 m 6 9 d s 645 642 m 2 2 d s 1051 638 m -13 -5 d s 1062 644 m -11 -6 d s 647 644 m 9
 11 d s 1065 645 m -3 -1 d s 1080 652 m -15 -7 d s 1086 655 m -6 -3 d s 656 655 m 4 5 d s 660 660 m 5 7 d s 1094 659 m -8 -4 d s 1108 667 m -14 -8 d s 665 667 m 9 10 d s 674 677 m 1 1 d s 1109 667 m -1 X s 1123 674 m -14 -7 d s 1131 678 m -8 -4 d s
 675 678 m 10 11 d s 1138 681 m -7 -3 d s 1152 689 m -14 -8 d s 685 689 m 4 4 d s 689 693 m 6 7 d s 1152 689 m s 1167 696 m -15 -7 d s 1174 700 m -7 -4 d s 695 700 m 8 8 d s 703 708 m 3 3 d s 1181 704 m -7 -4 d s 1195 711 m -14 -7 d s 706 711 m 12
 11 d s 718 722 m 1 Y s 1196 712 m -1 -1 d s 1210 719 m -14 -7 d s 1216 723 m -6 -4 d s 718 723 m 12 11 d s 1225 727 m -9 -4 d s 1236 734 m -11 -7 d s 730 734 m 2 2 d s 732 736 m 10 9 d s 1239 736 m -3 -2 d s 1254 744 m -15 -8 d s 1255 745 m -1 -1 d
 s 742 745 m 5 4 d s 747 749 m 7 7 d s 1268 752 m -13 -7 d s 1275 756 m -7 -4 d s 754 756 m 7 6 d s 761 762 m 6 5 d s 1283 760 m -8 -4 d s 1294 767 m -11 -7 d s 767 767 m 9 8 d s 776 775 m 4 4 d s 1297 769 m -3 -2 d s 1311 778 m -14 -9 d s 1313 779
 m -2 -1 d s 780 779 m 10 8 d s 790 787 m 4 3 d s 1326 786 m -13 -7 d s 1332 790 m -6 -4 d s 794 790 m 11 8 d s 805 798 m 3 3 d s 1340 795 m -8 -5 d s 1350 801 m -10 -6 d s 808 801 m 11 9 d s 819 810 m 3 2 d s 1355 804 m -5 -3 d s 1368 812 m -13 -8
 d s 822 812 m 12 9 d s 834 821 m 2 2 d s 1369 813 m -1 -1 d s 1384 823 m -15 -10 d s 1385 823 m -1 X s 836 823 m 12 9 d s 848 832 m 3 3 d s 1398 832 m -13 -9 d s 1403 835 m -5 -3 d s 851 835 m 12 8 d s 863 843 m 3 3 d s 1413 841 m -10 -6 d s 1420
 846 m -7 -5 d s 866 846 m 11 8 d s 877 854 m 4 3 d s 1427 850 m -7 -4 d s 1437 857 m -10 -7 d s 881 857 m 11 8 d s 892 865 m 5 3 d s 1442 860 m -5 -3 d s 1453 868 m -11 -8 d s 897 868 m 9 7 d s 906 875 m 6 5 d s 1456 870 m -3 -2 d s 1469 880 m -13
 -10 d s 912 880 m 9 5 d s 921 885 m 7 6 d s 1471 880 m -2 X s 1485 891 m -14 -11 d s 928 891 m 7 5 d s 935 896 m 10 6 d s 1485 891 m s 1500 901 m -15 -10 d s 1501 902 m -1 -1 d s 945 902 m 5 3 d s 950 905 m 11 8 d s 1514 911 m -13 -9 d s 1517 913 m
 -3 -2 d s 961 913 m 3 2 d s 964 915 m 14 9 d s 978 924 m 1 X s 1529 922 m -12 -9 d s 1532 924 m -3 -2 d s 979 924 m 14 10 d s 993 934 m 2 2 d s 1543 933 m -11 -9 d s 1547 936 m -4 -3 d s 995 936 m 12 8 d s 1007 944 m 5 3 d s 1558 944 m -11 -8 d s
 1562 947 m -4 -3 d s 1012 947 m 10 6 d s 1022 953 m 8 5 d s 1572 955 m -10 -8 d s 1576 958 m -4 -3 d s 1030 958 m 6 4 d s 1036 962 m 12 7 d s 1587 966 m -11 -8 d s 1590 969 m -3 -3 d s 1048 969 m 3 2 d s 1051 971 m 14 9 d s 1065 980 m 2 X s 1601
 978 m -11 -9 d s 1604 980 m -3 -2 d s 1067 980 m 13 9 d s 1080 989 m 5 3 d s 1616 990 m -12 -10 d s 1617 992 m -1 -2 d s 1085 992 m 9 6 d s 1094 998 m 10 5 d s 1630 1003 m -13 -11 d s 1630 1003 m s 1104 1003 m 5 3 d s 1109 1006 m 14 8 d s 1123 1014
 m 1 X s 1643 1014 m -13 -11 d s 1124 1014 m 14 9 d s 1138 1023 m 4 2 d s 1644 1015 m -1 -1 d s 1656 1025 m -12 -10 d s 1142 1025 m 10 6 d s 1152 1031 m 10 5 d s 1659 1028 m -3 -3 d s 1669 1036 m -10 -8 d s 1162 1036 m 5 3 d s 1167 1039 m 14 8 d s
 1181 1047 m 2 1 d s 1673 1041 m -4 -5 d s 1680 1048 m -7 -7 d s 1183 1048 m 13 7 d s 1196 1055 m 7 4 d s 1688 1055 m -8 -7 d s 1692 1059 m -4 -4 d s 1203 1059 m 7 4 d s 1210 1063 m 15 7 d s 1702 1070 m -10 -11 d s 1225 1070 m s 1225 1070 m 14 8 d s
 1239 1078 m 6 3 d s 1702 1070 m s 1713 1081 m -11 -11 d s 1245 1081 m 9 5 d s 1254 1086 m 14 7 d s 1717 1085 m -4 -4 d s 1724 1093 m -7 -8 d s 1268 1093 m s 1268 1093 m 15 8 d s 1283 1101 m 7 3 d s 1731 1102 m -7 -9 d s 1733 1104 m -2 -2 d s 1290
 1104 m 7 4 d s 1297 1108 m 14 6 d s 1311 1114 m 2 1 d s 1742 1115 m -9 -11 d s 1313 1115 m 13 7 d s 1326 1122 m 10 4 d s 1746 1120 m -4 -5 d s 1751 1126 m -5 -6 d s 1336 1126 m 4 2 d s 1340 1128 m 15 7 d s 1355 1135 m 5 2 d s 1759 1137 m -8 -11 d s
 1360 1137 m 9 5 d s 1369 1142 m 15 6 d s 1384 1148 m 1 1 d s 1760 1140 m -1 -3 d s 1766 1149 m -6 -9 d s 1385 1149 m 13 6 d s 1398 1155 m 13 5 d s 1772 1160 m -6 -11 d s 1411 1160 m 2 1 d s 1413 1161 m 14 6 d s 1427 1167 m 10 4 d s 1775 1165 m -3
 -5 d s 1778 1171 m -3 -6 d s 1437 1171 m 5 2 d s 1442 1173 m 14 6 d s 1456 1179 m 9 3 d s 1782 1182 m -4 -11 d s 1465 1182 m 6 3 d s 1471 1185 m 14 5 d s 1485 1190 m 9 3 d s 1785 1193 m -3 -11 d s 1494 1193 m 6 3 d s 1500 1196 m 14 5 d s 1514 1201
 m 12 4 d s 1786 1205 m -1 -12 d s 1526 1205 m 3 1 d s 1529 1206 m 14 5 d s 1543 1211 m 15 4 d s 1558 1215 m 2 1 d s 1784 1216 m 2 -11 d s 1560 1216 m 12 4 d s 1572 1220 m 15 4 d s 1587 1224 m 11 3 d s 1777 1227 m 7 -11 d s 1598 1227 m 3 1 d s 1601
 1228 m 15 4 d s 1616 1232 m 14 3 d s 1630 1235 m 14 3 d s 1644 1238 m 1 X s 1762 1238 m 13 -8 d s 1775 1230 m 2 -3 d s 1645 1238 m 14 3 d s 1659 1241 m 14 2 d s 1673 1243 m 15 2 d s 1688 1245 m 14 1 d s 1702 1246 m 15 X s 1717 1246 m 14 X s 1731
 1246 m 15 -2 d s 1746 1244 m 14 -5 d s 1760 1239 m 2 -1 d s 1 0.8 0 c 1651 1171 m 8 -5 d 7 -6 d 5 -11 d 1 -12 d -2 -11 d -4 -11 d -6 -11 d -1 -2 d -6 -9 d -8 -12 d -1 -1 d -7 -10 d -7 -8 d -2 -3 d -10 -11 d -2 -3 d -8 -9 d -7 -6 d -5 -5 d -9 -9 d
 -2 -2 d -12 -11 d -1 -1 d -12 -10 d -2 -3 d -10 -9 d -5 -3 d -8 -8 d -6 -5 d -8 -6 d -7 -5 d -7 -6 d -7 -6 d -7 -5 d -8 -6 d -7 -6 d -7 -5 d -8 -6 d -7 -5 d -8 -6 d -6 -4 d -10 -7 d -5 -3 d -11 -8 d -3 -2 d -14 -10 d -1 X -14 -10 d -1 -1 d -14 -9 d
 -3 -2 d -11 -7 d -7 -4 d -8 -6 d -9 -6 d -5 -3 d -14 -8 d -1 X -14 -9 d -3 -2 d -11 -7 d -8 -4 d -7 -5 d -12 -6 d -2 -2 d -15 -8 d -3 -2 d -11 -7 d -9 -4 d -6 -3 d -14 -8 d -1 X -14 -8 d -6 -3 d -8 -5 d -14 -6 d -1 -1 d -14 -8 d -7 -3 d -8 -4 d -14
 -7 d -1 X -14 -7 d -9 -4 d -5 -3 d -15 -6 d -4 -2 d -10 -5 d -15 -6 d -1 X -13 -7 d -13 -5 d -2 X -14 -6 d -12 -5 d -3 -1 d -14 -6 d -13 -4 d -1 -1 d -15 -5 d -14 -5 d -2 X -13 -5 d -14 -4 d -10 -2 d -5 -2 d -14 -4 d -15 -3 d -14 -3 d -15 -2 d -14
 -2 d -15 -1 d -14 X -15 1 d -14 4 d -15 10 d -1 2 d -5 11 d 11 Y 2 11 d 4 11 d 1 X 5 12 d 7 11 d 2 2 d 5 9 d 9 11 d 9 11 d 6 6 d 4 6 d 10 10 d 1 1 d 11 11 d 3 3 d 8 8 d 6 6 d 6 5 d 9 8 d 4 4 d 10 9 d 3 2 d 12 10 d 1 1 d 13 11 d 1 X 14 11 d 14 12 d
 15 11 d 14 11 d 1 X 14 10 d 1 1 d 13 10 d 2 2 d 12 8 d 4 3 d 11 7 d 6 4 d 8 6 d 8 5 d 7 5 d 10 6 d 4 3 d 14 9 d 1 X 14 9 d 3 2 d 12 8 d 6 3 d 8 6 d 10 5 d 5 3 d 14 8 d 15 9 d 4 3 d 10 6 d 10 5 d 5 3 d 14 8 d 1 X 14 8 d 6 3 d 8 5 d 14 6 d 1 1 d 14 8
 d 6 3 d 9 4 d 13 7 d 1 X 15 8 d 7 3 d 7 4 d 14 6 d 2 1 d 13 7 d 12 5 d 2 1 d 15 7 d 8 3 d 6 3 d 15 6 d 5 2 d 9 4 d 15 6 d 4 1 d 10 4 d 15 6 d 5 1 d 9 4 d 15 5 d 9 3 d 5 2 d 15 4 d 14 4 d 3 1 d 12 3 d 14 4 d 15 3 d 7 1 d 7 1 d 15 3 d 14 1 d 15 1 d
 14 -1 d 14 -3 d 7 -2 d f 0.501961 0 0 c 747 599 m s 761 595 m -14 4 d s 776 594 m -15 1 d s 790 594 m -14 X s 805 595 m -15 -1 d s 819 597 m -14 -2 d s 834 599 m -15 -2 d s 834 599 m s 732 609 m -1 2 d s 747 599 m -15 10 d s 848 602 m -14 -3 d s
 863 605 m -15 -3 d s 877 609 m -14 -4 d s 882 611 m -5 -2 d s 731 611 m -5 11 d s 892 613 m -10 -2 d s 906 617 m -14 -4 d s 919 622 m -13 -5 d s 726 622 m 11 Y s 921 622 m -2 X s 935 627 m -14 -5 d s 950 632 m -15 -5 d s 951 633 m -1 -1 d s 726 633
 m 2 11 d s 964 637 m -13 -4 d s 978 643 m -14 -6 d s 981 644 m -3 -1 d s 728 644 m 4 11 d s 732 655 m 1 X s 993 649 m -12 -5 d s 1007 655 m -14 -6 d s 1009 655 m -2 X s 733 655 m 5 12 d s 1022 660 m -13 -5 d s 1035 667 m -13 -7 d s 738 667 m 7 11 d
 s 1036 667 m -1 X s 1051 673 m -15 -6 d s 1061 678 m -10 -5 d s 745 678 m 2 2 d s 747 680 m 5 9 d s 1065 680 m -4 -2 d s 1080 686 m -15 -6 d s 1085 689 m -5 -3 d s 752 689 m 9 11 d s 761 700 m s 1094 693 m -9 -4 d s 1108 700 m -14 -7 d s 761 700 m
 9 11 d s 1109 700 m -1 X s 1123 707 m -14 -7 d s 1131 711 m -8 -4 d s 770 711 m 6 6 d s 776 717 m 4 6 d s 1138 714 m -7 -3 d s 1152 722 m -14 -8 d s 1153 723 m -1 -1 d s 780 723 m 10 10 d s 790 733 m 1 1 d s 1167 729 m -14 -6 d s 1175 734 m -8 -5 d
 s 791 734 m 11 11 d s 1181 737 m -6 -3 d s 1195 745 m -14 -8 d s 802 745 m 3 3 d s 805 748 m 8 8 d s 1196 745 m -1 X s 1210 753 m -14 -8 d s 1216 756 m -6 -3 d s 813 756 m 6 6 d s 819 762 m 6 5 d s 1225 760 m -9 -4 d s 1236 767 m -11 -7 d s 825 767
 m 9 8 d s 834 775 m 4 4 d s 1239 769 m -3 -2 d s 1254 777 m -15 -8 d s 1256 779 m -2 -2 d s 838 779 m 10 9 d s 848 788 m 3 2 d s 1268 785 m -12 -6 d s 1275 790 m -7 -5 d s 851 790 m 12 10 d s 863 800 m 1 1 d s 1283 794 m -8 -4 d s 1294 801 m -11 -7
 d s 864 801 m 13 11 d s 877 812 m 1 X s 1297 803 m -3 -2 d s 1311 812 m -14 -9 d s 1312 812 m -1 X s 878 812 m 14 11 d s 892 823 m s 1326 820 m -14 -8 d s 1331 823 m -5 -3 d s 892 823 m 14 12 d s 1340 829 m -9 -6 d s 1348 835 m -8 -6 d s 906 835 m
 s 906 835 m 15 11 d s 921 846 m s 1355 839 m -7 -4 d s 1366 846 m -11 -7 d s 921 846 m 14 11 d s 935 857 m 1 X s 1369 848 m -3 -2 d s 1383 857 m -14 -9 d s 936 857 m 14 10 d s 950 867 m 1 1 d s 1384 858 m -1 -1 d s 1398 868 m -14 -10 d s 1399 868 m
 -1 X s 951 868 m 13 10 d s 964 878 m 2 2 d s 1413 878 m -14 -10 d s 1416 880 m -3 -2 d s 966 880 m 12 8 d s 978 888 m 4 3 d s 1427 888 m -11 -8 d s 1432 891 m -5 -3 d s 982 891 m 11 7 d s 993 898 m 6 4 d s 1442 898 m -10 -7 d s 1448 902 m -6 -4 d s
 999 902 m 8 6 d s 1007 908 m 8 5 d s 1456 908 m -8 -6 d s 1463 913 m -7 -5 d s 1015 913 m 7 5 d s 1022 918 m 10 6 d s 1471 919 m -8 -6 d s 1478 924 m -7 -5 d s 1032 924 m 4 3 d s 1036 927 m 14 9 d s 1485 930 m -7 -6 d s 1493 936 m -8 -6 d s 1050
 936 m 1 X s 1051 936 m 14 9 d s 1065 945 m 3 2 d s 1500 941 m -7 -5 d s 1507 947 m -7 -6 d s 1068 947 m 12 8 d s 1080 955 m 6 3 d s 1514 953 m -7 -6 d s 1521 958 m -7 -5 d s 1086 958 m 8 6 d s 1094 964 m 10 5 d s 1529 964 m -8 -6 d s 1535 969 m -6
 -5 d s 1104 969 m 5 3 d s 1109 972 m 14 8 d s 1123 980 m s 1543 977 m -8 -8 d s 1548 980 m -5 -3 d s 1123 980 m 15 9 d s 1138 989 m 4 3 d s 1558 989 m -10 -9 d s 1560 992 m -2 -3 d s 1142 992 m 10 6 d s 1152 998 m 10 5 d s 1572 1002 m -12 -10 d s
 1573 1003 m -1 -1 d s 1162 1003 m 5 3 d s 1167 1006 m 14 8 d s 1181 1014 m 1 X s 1585 1014 m -12 -11 d s 1182 1014 m 14 8 d s 1196 1022 m 6 3 d s 1587 1016 m -2 -2 d s 1596 1025 m -9 -9 d s 1202 1025 m 8 5 d s 1210 1030 m 14 6 d s 1601 1030 m -5 -5
 d s 1608 1036 m -7 -6 d s 1224 1036 m 1 1 d s 1225 1037 m 14 8 d s 1239 1045 m 6 3 d s 1616 1045 m -8 -9 d s 1618 1048 m -2 -3 d s 1245 1048 m 9 4 d s 1254 1052 m 13 7 d s 1628 1059 m -10 -11 d s 1267 1059 m 1 X s 1268 1059 m 15 8 d s 1283 1067 m 7
 3 d s 1630 1062 m -2 -3 d s 1637 1070 m -7 -8 d s 1290 1070 m 7 4 d s 1297 1074 m 14 6 d s 1311 1080 m 2 1 d s 1644 1080 m -7 -10 d s 1645 1081 m -1 -1 d s 1313 1081 m 13 7 d s 1326 1088 m 12 5 d s 1653 1093 m -8 -12 d s 1338 1093 m 2 1 d s 1340
 1094 m 15 7 d s 1355 1101 m 8 3 d s 1659 1102 m -6 -9 d s 1660 1104 m -1 -2 d s 1363 1104 m 6 3 d s 1369 1107 m 15 6 d s 1384 1113 m 5 2 d s 1666 1115 m -6 -11 d s 1389 1115 m 9 4 d s 1398 1119 m 15 6 d s 1413 1125 m 4 1 d s 1670 1126 m -4 -11 d s
 1417 1126 m 10 4 d s 1427 1130 m 15 6 d s 1442 1136 m 5 1 d s 1672 1137 m -2 -11 d s 1447 1137 m 9 4 d s 1456 1141 m 15 5 d s 1471 1146 m 9 3 d s 1671 1149 m 1 -12 d s 1480 1149 m 5 2 d s 1485 1151 m 15 4 d s 1500 1155 m 14 4 d s 1514 1159 m 3 1 d
 s 1666 1160 m 5 -11 d s 1517 1160 m 12 3 d s 1529 1163 m 14 4 d s 1543 1167 m 15 3 d s 1558 1170 m 7 1 d s 1651 1171 m 8 -5 d s 1659 1166 m 7 -6 d s 1565 1171 m 7 1 d s 1572 1172 m 15 3 d s 1587 1175 m 14 1 d s 1601 1176 m 15 1 d s 1616 1177 m 14
 -1 d s 1630 1176 m 14 -3 d s 1644 1173 m 7 -2 d s 1 0.4 0 c 1485 1056 m 5 -8 d -12 Y -4 -11 d -1 -1 d -5 -10 d -8 -11 d -1 -2 d -8 -9 d -7 -7 d -3 -5 d -11 -11 d -12 -11 d -3 -2 d -10 -9 d -4 -4 d -9 -7 d -6 -5 d -8 -7 d -6 -5 d -8 -6 d -7 -5 d -8
 -6 d -6 -5 d -9 -6 d -6 -4 d -10 -7 d -4 -3 d -13 -9 d -2 -1 d -14 -9 d -1 -1 d -13 -8 d -5 -3 d -10 -7 d -8 -4 d -6 -4 d -13 -8 d -2 -1 d -14 -8 d -3 -2 d -12 -6 d -9 -5 d -5 -3 d -15 -8 d -1 X -13 -7 d -8 -4 d -7 -4 d -14 -7 d -2 -1 d -13 -6 d
 -12 -5 d -2 -1 d -15 -6 d -8 -4 d -6 -3 d -15 -5 d -8 -3 d -6 -3 d -15 -5 d -10 -3 d -4 -2 d -15 -4 d -14 -4 d -7 -2 d -8 -1 d -14 -3 d -14 -1 d -15 X -14 3 d -6 2 d -7 12 d 11 Y 4 11 d 6 11 d 3 3 d 5 8 d 9 11 d 1 Y 10 11 d 5 4 d 6 7 d 8 7 d 4 4 d
 10 9 d 3 2 d 12 11 d 1 1 d 13 11 d 1 X 14 11 d 14 11 d 1 X 14 10 d 2 2 d 12 8 d 4 3 d 11 7 d 5 4 d 9 6 d 8 5 d 7 4 d 11 7 d 3 2 d 15 9 d 1 Y 14 8 d 5 3 d 10 6 d 10 5 d 4 3 d 15 8 d 1 X 13 7 d 8 4 d 7 4 d 14 7 d 1 1 d 14 7 d 9 4 d 5 2 d 15 7 d 4 2 d
 10 5 d 14 6 d 2 X 13 6 d 14 5 d 1 X 14 6 d 14 5 d 4 1 d 11 3 d 14 4 d 14 4 d 1 X 14 3 d 15 2 d 14 1 d 15 -2 d 11 -4 d 3 -3 d f 0.501961 0 0 c 921 709 m -6 2 d s 935 706 m -14 3 d s 950 706 m -15 X s 964 707 m -14 -1 d s 978 710 m -14 -3 d s 986 711
 m -8 -1 d s 915 711 m -7 12 d s 993 713 m -7 -2 d s 1007 717 m -14 -4 d s 1022 721 m -15 -4 d s 1026 723 m -4 -2 d s 908 723 m 11 Y s 1036 726 m -10 -3 d s 1051 731 m -15 -5 d s 1057 734 m -6 -3 d s 908 734 m 4 11 d s 1065 737 m -8 -3 d s 1080 742
 m -15 -5 d s 1086 745 m -6 -3 d s 912 745 m 6 11 d s 1094 749 m -8 -4 d s 1109 755 m -15 -6 d s 1111 756 m -2 -1 d s 918 756 m 3 3 d s 921 759 m 5 8 d s 1123 761 m -12 -5 d s 1136 767 m -13 -6 d s 926 767 m 9 11 d s 935 778 m 1 Y s 1138 768 m -2 -1
 d s 1152 775 m -14 -7 d s 1159 779 m -7 -4 d s 935 779 m 10 11 d s 1167 783 m -8 -4 d s 1180 790 m -13 -7 d s 945 790 m 5 4 d s 950 794 m 6 7 d s 1181 790 m -1 X s 1196 798 m -15 -8 d s 1201 801 m -5 -3 d s 956 801 m 8 7 d s 964 808 m 4 4 d s 1210
 806 m -9 -5 d s 1222 812 m -12 -6 d s 968 812 m 10 9 d s 978 821 m 3 2 d s 1225 814 m -3 -2 d s 1239 822 m -14 -8 d s 1241 823 m -2 -1 d s 981 823 m 12 11 d s 993 834 m 1 1 d s 1254 831 m -13 -8 d s 1260 835 m -6 -4 d s 994 835 m 13 11 d s 1007 846
 m 1 X s 1268 839 m -8 -4 d s 1278 846 m -10 -7 d s 1008 846 m 14 11 d s 1022 857 m s 1283 849 m -5 -3 d s 1296 857 m -13 -8 d s 1022 857 m 14 11 d s 1036 868 m 1 X s 1297 858 m -1 -1 d s 1311 867 m -14 -9 d s 1313 868 m -2 -1 d s 1037 868 m 14 10 d
 s 1051 878 m 2 2 d s 1326 877 m -13 -9 d s 1330 880 m -4 -3 d s 1053 880 m 12 8 d s 1065 888 m 4 3 d s 1340 887 m -10 -7 d s 1346 891 m -6 -4 d s 1069 891 m 11 7 d s 1080 898 m 5 4 d s 1355 897 m -9 -6 d s 1361 902 m -6 -5 d s 1085 902 m 9 6 d s
 1094 908 m 8 5 d s 1369 908 m -8 -6 d s 1376 913 m -7 -5 d s 1102 913 m 7 4 d s 1109 917 m 11 7 d s 1384 919 m -8 -6 d s 1390 924 m -6 -5 d s 1120 924 m 3 2 d s 1123 926 m 15 9 d s 1138 935 m 1 Y s 1398 931 m -8 -7 d s 1404 936 m -6 -5 d s 1138 936
 m 14 8 d s 1152 944 m 5 3 d s 1413 943 m -9 -7 d s 1417 947 m -4 -4 d s 1157 947 m 10 6 d s 1167 953 m 10 5 d s 1427 956 m -10 -9 d s 1430 958 m -3 -2 d s 1177 958 m 4 3 d s 1181 961 m 15 8 d s 1196 969 m 1 X s 1442 969 m -12 -11 d s 1197 969 m 13
 7 d s 1210 976 m 8 4 d s 1442 969 m s 1453 980 m -11 -11 d s 1218 980 m 7 4 d s 1225 984 m 14 7 d s 1239 991 m 1 1 d s 1456 985 m -3 -5 d s 1463 992 m -7 -7 d s 1240 992 m 14 7 d s 1254 999 m 9 4 d s 1471 1001 m -8 -9 d s 1472 1003 m -1 -2 d s 1263
 1003 m 5 2 d s 1268 1005 m 15 7 d s 1283 1012 m 4 2 d s 1480 1014 m -8 -11 d s 1287 1014 m 10 5 d s 1297 1019 m 14 6 d s 1311 1025 m 2 X s 1485 1024 m -5 -10 d s 1486 1025 m -1 -1 d s 1313 1025 m 13 6 d s 1326 1031 m 14 5 d s 1340 1036 m 1 X s 1490
 1036 m -4 -11 d s 1341 1036 m 14 6 d s 1355 1042 m 14 5 d s 1369 1047 m 4 1 d s 1490 1048 m -12 Y s 1373 1048 m 11 3 d s 1384 1051 m 14 4 d s 1398 1055 m 14 4 d s 1482 1059 m 3 -3 d s 1485 1056 m 5 -8 d s 1412 1059 m 1 X s 1413 1059 m 14 3 d s 1427
 1062 m 15 2 d s 1442 1064 m 14 1 d s 1456 1065 m 15 -2 d s 1471 1063 m 11 -4 d s 0.6 0.733333 1 c 2154 1446 m -905 Y -16 -3 d -17 -4 d -16 -3 d -17 -3 d -3 -1 d -14 -3 d -16 -4 d -17 -3 d -16 -3 d -17 -4 d -7 -1 d -9 -2 d -17 -4 d -16 -3 d -17 -4 d
 -16 -3 d -12 -2 d -5 -1 d -17 -4 d -16 -4 d -17 -3 d -16 -3 d -16 -3 d -1 -1 d -16 -4 d -17 -3 d -16 -4 d -17 -3 d -16 -3 d -4 -1 d -13 -3 d -17 -4 d -16 -3 d -17 -3 d -16 -3 d -7 -2 d -10 -2 d -16 -4 d -17 -4 d -16 -3 d -17 -3 d -11 -2 d -5 -1 d
 -17 -5 d -17 -3 d -16 -3 d -17 -3 d -15 -3 d -1 X -17 -5 d -16 -4 d -17 -3 d -16 -3 d -17 -3 d -3 X -14 -4 d -16 -5 d -7 9 d -10 6 d -9 12 d -2 18 d -2 18 d -3 5 d -10 13 d -3 19 d -4 6 d -9 12 d -4 18 d -3 5 d -10 13 d -5 19 d -2 2 d -11 16 d -5
 14 d -4 4 d -9 18 d -4 8 d -9 10 d -7 16 d -3 3 d -12 18 d -2 2 d -14 16 d -3 3 d -14 15 d -2 3 d -17 15 d -16 11 d -10 8 d -7 4 d -16 8 d -10 6 d -7 3 d -10 15 d -1 18 d 91 Y 1 19 d 2 18 d 4 18 d 4 15 d 1 3 d 2 18 d 1 19 d 1 18 d 146 Y 1 18 d 18 Y
 1 18 d 1 18 d 3 19 d 4 18 d 2 4 d 2 14 d 1 18 d 1 19 d 1 18 d 117 Y f 0 0 0.666667 c 1360 373 m -7 9 d s 1376 378 m -16 -5 d s 1390 382 m -14 -4 d s 1343 388 m -9 12 d s 1353 382 m -10 6 d s 1393 382 m -3 X s 1410 385 m -17 -3 d s 1426 388 m -16 -3
 d s 1443 391 m -17 -3 d s 1459 395 m -16 -4 d s 1476 400 m -17 -5 d s 1477 400 m -1 X s 1334 400 m -2 18 d s 1492 403 m -15 -3 d s 1509 406 m -17 -3 d s 1525 409 m -16 -3 d s 1542 412 m -17 -3 d s 1559 417 m -17 -5 d s 1564 418 m -5 -1 d s 1332 418
 m -2 18 d s 1575 420 m -11 -2 d s 1592 423 m -17 -3 d s 1608 426 m -16 -3 d s 1625 430 m -17 -4 d s 1641 434 m -16 -4 d s 1651 436 m -10 -2 d s 1327 441 m -10 13 d s 1330 436 m -3 5 d s 1658 438 m -7 -2 d s 1674 441 m -16 -3 d s 1691 444 m -17 -3 d
 s 1707 447 m -16 -3 d s 1724 451 m -17 -4 d s 1737 454 m -13 -3 d s 1317 454 m -3 19 d s 1741 455 m -4 -1 d s 1757 458 m -16 -3 d s 1774 461 m -17 -3 d s 1790 465 m -16 -4 d s 1807 468 m -17 -3 d s 1823 472 m -16 -4 d s 1824 473 m -1 -1 d s 1310
 479 m -9 12 d s 1314 473 m -4 6 d s 1840 476 m -16 -3 d s 1856 479 m -16 -3 d s 1873 482 m -17 -3 d s 1889 486 m -16 -4 d s 1906 490 m -17 -4 d s 1911 491 m -5 -1 d s 1301 491 m -4 18 d s 1923 493 m -12 -2 d s 1939 496 m -16 -3 d s 1956 500 m -17
 -4 d s 1972 503 m -16 -3 d s 1989 507 m -17 -4 d s 1998 509 m -9 -2 d s 1294 514 m -10 13 d s 1297 509 m -3 5 d s 2005 510 m -7 -1 d s 2022 514 m -17 -4 d s 2038 517 m -16 -3 d s 2055 520 m -17 -3 d s 2071 524 m -16 -4 d s 2085 527 m -14 -3 d s
 1284 527 m -5 19 d s 2088 528 m -3 -1 d s 2105 531 m -17 -3 d s 2121 534 m -16 -3 d s 2138 538 m -17 -4 d s 2154 541 m -16 -3 d s 2154 541 m cl s 1277 548 m -11 16 d s 1279 546 m -2 2 d s 1261 578 m -4 4 d s 1266 564 m -5 14 d s 1257 582 m -9 18 d
 s 1244 608 m -9 10 d s 1248 600 m -4 8 d s 1228 634 m -3 3 d s 1235 618 m -7 16 d s 1225 637 m -12 18 d s 1211 657 m -14 16 d s 1213 655 m -2 2 d s 1194 676 m -14 15 d s 1197 673 m -3 3 d s 1161 709 m s 1178 694 m -17 15 d s 1180 691 m -2 3 d s
 1145 720 m -10 8 d s 1161 709 m -16 11 d s 1112 740 m -10 6 d s 1128 732 m -16 8 d s 1135 728 m -7 4 d s 1095 749 m -10 15 d s 1102 746 m -7 3 d s 1085 764 m -1 18 d s 1084 782 m 19 Y s 1084 801 m 18 Y s 1084 819 m 18 Y s 1084 837 m 18 Y s 1084 855
 m 18 Y s 1084 873 m 1 19 d s 1085 892 m 2 18 d s 1087 910 m 4 18 d s 1091 928 m 4 15 d s 1095 943 m 1 3 d s 1096 946 m 2 18 d s 1098 964 m 1 19 d s 1099 983 m 1 18 d s 1100 1001 m 18 Y s 1100 1019 m 18 Y s 1100 1037 m 19 Y s 1100 1056 m 18 Y s 1100
 1074 m 18 Y s 1100 1092 m 18 Y s 1100 1110 m 18 Y s 1100 1128 m 19 Y s 1100 1147 m 1 18 d s 1101 1165 m 18 Y s 1101 1183 m 1 18 d s 1102 1201 m 1 18 d s 1103 1219 m 3 19 d s 1106 1238 m 4 18 d s 1110 1256 m 2 4 d s 1112 1260 m 2 14 d s 1114 1274 m
 1 18 d s 1115 1292 m 1 19 d s 1116 1311 m 1 18 d s 1117 1329 m 18 Y s 1117 1347 m 18 Y s 1117 1365 m 18 Y s 1117 1383 m 19 Y s 1117 1402 m 18 Y s 1117 1420 m 18 Y s 1117 1438 m 8 Y s 0.866667 0.866667 0.866667 c 2091 1446 m -4 Y -1 -11 d -31 Y -1
 -10 d -1 -10 d -2 -10 d -2 -11 d -2 -3 d -1 -7 d -1 -10 d -10 Y -1 -11 d -20 Y -1 -11 d -1 -10 d -1 -10 d -2 -10 d -3 -8 d -3 Y -1 -10 d -1 -10 d -1 -10 d -21 Y -1 -10 d -1 -11 d -2 -10 d -3 -10 d -1 -3 d -1 -7 d -1 -11 d -10 Y -1 -10 d -11 Y -1
 -10 d -1 -10 d -2 -10 d -4 -10 d -1 Y -1 -10 d -1 -10 d -1 -10 d -11 Y -1 -10 d -1 -10 d -2 -11 d -4 -9 d -1 Y -1 -10 d -1 -10 d -1 -11 d -1 -10 d -1 -10 d -1 -10 d -4 -11 d -1 -2 d -1 -8 d -1 -10 d -1 -11 d -1 -10 d -1 -10 d -3 -10 d -3 -9 d -2 Y
 -2 -10 d -1 -10 d -1 -11 d -1 -10 d -3 -10 d -3 -8 d -2 Y -2 -11 d -1 -10 d -1 -10 d -2 -10 d -4 -11 d -1 -1 d -2 -9 d -1 -10 d -1 -11 d -3 -10 d -4 -10 d -2 -10 d -1 -11 d -3 -10 d -3 -10 d -2 -3 d -2 -7 d -1 -11 d -3 -10 d -4 -10 d -1 -2 d -2 -9
 d -2 -10 d -4 -10 d -3 -6 d -1 -4 d -3 -11 d -3 -10 d -4 -6 d -1 -4 d -3 -10 d -5 -11 d -2 -2 d -3 -8 d -4 -10 d -4 -6 d -2 -5 d -5 -10 d -4 -6 d -3 -4 d -6 -10 d -2 -3 d -5 -8 d -6 -7 d -3 -3 d -8 -9 d -2 -1 d -9 -9 d -2 -2 d -9 -6 d -7 -4 d -4 -2
 d -11 -5 d -11 -3 d -2 X -9 -2 d -11 -1 d -22 X -11 2 d -2 1 d -9 2 d -11 3 d -9 5 d -3 1 d -11 8 d -2 1 d -9 8 d -2 3 d -9 9 d 1 Y -8 10 d -3 3 d -5 8 d -5 10 d -1 X -7 10 d -4 9 d -1 1 d -6 11 d -4 10 d -6 10 d -3 11 d -2 3 d -5 7 d -2 10 d -3 10
 d -1 2 d -6 9 d -1 10 d -2 10 d -2 3 d -6 7 d -1 11 d -1 10 d -3 7 d -2 3 d -5 11 d 10 Y -1 10 d -3 7 d -11 2 d -1 1 d -7 11 d -3 4 d -5 6 d -6 9 d -1 1 d -9 10 d -1 2 d -10 9 d -1 1 d -11 9 d -11 7 d -6 3 d -5 3 d -11 4 d -8 4 d -3 1 d -11 3 d -11
 5 d -2 1 d -9 5 d -7 5 d -4 3 d -8 7 d -3 4 d -6 7 d -5 6 d -4 4 d -6 10 d -1 2 d -6 8 d -5 11 d -7 10 d -4 10 d -7 11 d -3 10 d -2 2 d -5 8 d -3 10 d -3 9 d -1 2 d -5 10 d -2 10 d -3 9 d -1 2 d -5 10 d -2 10 d -2 10 d -1 2 d -5 9 d -2 10 d -1 10 d
 -3 10 d -6 11 d -1 10 d -1 10 d -2 11 d -1 1 d -5 9 d -2 10 d 10 Y -1 11 d -3 9 d -1 1 d -5 10 d -1 10 d 11 Y -1 10 d -2 10 d -1 1 d -5 10 d -2 10 d 20 Y -1 11 d -3 8 d -1 2 d -5 10 d -1 11 d 20 Y -1 10 d -2 11 d -1 1 d -5 9 d -2 10 d 31 Y -1 10 d
 -2 11 d -1 1 d -5 9 d -2 10 d 31 Y -1 10 d 10 Y -3 8 d -2 3 d -4 10 d -1 10 d 15 Y f 0.2 0.2 0.2 c 1763 372 m -2 1 d s 1774 370 m -11 2 d s 1785 370 m -11 X s 1796 370 m -11 X s 1807 371 m -11 -1 d s 1816 373 m -9 -2 d s 1741 378 m -9 5 d s 1752
 375 m -11 3 d s 1761 373 m -9 2 d s 1818 373 m -2 X s 1829 376 m -11 -3 d s 1840 381 m -11 -5 d s 1844 383 m -4 -2 d s 1718 392 m -2 1 d s 1729 384 m -11 8 d s 1732 383 m -3 1 d s 1851 387 m -7 -4 d s 1860 393 m -9 -6 d s 1707 401 m -2 3 d s 1716
 393 m -9 8 d s 1862 395 m -2 -2 d s 1871 404 m -9 -9 d s 1696 413 m 1 Y s 1705 404 m -9 9 d s 1873 405 m -2 -1 d s 1881 414 m -8 -9 d s 1696 414 m -8 10 d s 1884 417 m -3 -3 d s 1890 424 m -6 -7 d s 1685 427 m -5 8 d s 1688 424 m -3 3 d s 1895 432
 m -5 -8 d s 1897 435 m -2 -3 d s 1680 435 m -5 10 d s 1903 445 m -6 -10 d s 1674 445 m -7 10 d s 1675 445 m -1 X s 1906 449 m -3 -4 d s 1910 455 m -4 -6 d s 1663 464 m -1 1 d s 1667 455 m -4 9 d s 1915 465 m -5 -10 d s 1662 465 m -6 11 d s 1917 470
 m -2 -5 d s 1921 476 m -4 -6 d s 1652 486 m s 1656 476 m -4 10 d s 1925 486 m -4 -10 d s 1652 486 m -6 10 d s 1928 494 m -3 -8 d s 1930 496 m -2 -2 d s 1646 496 m -3 11 d s 1935 507 m -5 -11 d s 1641 510 m -5 7 d s 1643 507 m -2 3 d s 1938 517 m -3
 -10 d s 1636 517 m -2 10 d s 1939 521 m -1 -4 d s 1943 527 m -4 -6 d s 1634 527 m -3 10 d s 1946 537 m -3 -10 d s 1630 539 m -6 9 d s 1631 537 m -1 2 d s 1949 548 m -3 -11 d s 1624 548 m -1 10 d s 1950 552 m -1 -4 d s 1953 558 m -3 -6 d s 1623 558
 m -2 10 d s 1957 568 m -4 -10 d s 1619 571 m -6 7 d s 1621 568 m -2 3 d s 1959 578 m -2 -10 d s 1613 578 m -1 11 d s 1961 587 m -2 -9 d s 1962 589 m -1 -2 d s 1612 589 m -1 10 d s 1966 599 m -4 -10 d s 1608 606 m -2 3 d s 1611 599 m -3 7 d s 1969
 609 m -3 -10 d s 1606 609 m -5 11 d s 1970 620 m -1 -11 d s 1601 620 m 10 Y s 1972 627 m -2 -7 d s 1974 630 m -2 -3 d s 1601 630 m -1 10 d s 1977 640 m -3 -10 d s 1586 649 m -1 1 d s 1597 647 m -11 2 d s 1600 640 m -3 7 d s 1980 650 m -3 -10 d s
 1585 650 m -7 11 d s 1981 661 m -1 -11 d s 1575 665 m -5 6 d s 1578 661 m -3 4 d s 1983 671 m -2 -10 d s 1564 680 m -1 1 d s 1570 671 m -6 9 d s 1983 671 m s 1987 681 m -4 -10 d s 1563 681 m -9 10 d s 1990 691 m -3 -10 d s 1553 693 m -10 9 d s 1554
 691 m -1 2 d s 1991 702 m -1 -11 d s 1542 703 m -11 9 d s 1543 702 m -1 1 d s 1992 712 m -1 -10 d s 1520 719 m -6 3 d s 1531 712 m -11 7 d s 1531 712 m s 1994 721 m -2 -9 d s 1995 722 m -1 -1 d s 1498 729 m -8 4 d s 1509 725 m -11 4 d s 1514 722 m
 -5 3 d s 1999 733 m -4 -11 d s 1465 742 m -2 1 d s 1476 737 m -11 5 d s 1487 734 m -11 3 d s 1490 733 m -3 1 d s 2001 743 m -2 -10 d s 1454 748 m -7 5 d s 1463 743 m -9 5 d s 2002 753 m -1 -10 d s 1443 756 m -8 7 d s 1447 753 m -4 3 d s 2003 763 m
 -1 -10 d s 1432 767 m -6 7 d s 1435 763 m -3 4 d s 2005 774 m -2 -11 d s 1421 780 m -4 4 d s 1426 774 m -5 6 d s 2005 776 m -2 Y s 2008 784 m -3 -8 d s 1417 784 m -6 10 d s 2011 794 m -3 -10 d s 1410 796 m -6 8 d s 1411 794 m -1 2 d s 2012 804 m -1
 -10 d s 1404 804 m -5 11 d s 2013 815 m -1 -11 d s 1399 815 m -7 10 d s 1399 815 m s 2014 825 m -1 -10 d s 1392 825 m -4 10 d s 2016 835 m -2 -10 d s 1388 835 m -7 11 d s 1388 835 m s 2016 837 m -2 Y s 2019 846 m -3 -9 d s 1381 846 m -3 10 d s 2022
 856 m -3 -10 d s 1376 858 m -5 8 d s 1378 856 m -2 2 d s 2023 866 m -1 -10 d s 1371 866 m -3 10 d s 2024 876 m -1 -10 d s 1365 885 m -1 2 d s 1368 876 m -3 9 d s 2025 887 m -1 -11 d s 1364 887 m -5 10 d s 2026 897 m -1 -10 d s 1359 897 m -2 10 d s
 2027 905 m -1 -8 d s 2028 907 m -1 -2 d s 1354 916 m -1 2 d s 1357 907 m -3 9 d s 2032 918 m -4 -11 d s 1353 918 m -5 10 d s 2033 928 m -1 -10 d s 1348 928 m -2 10 d s 2034 938 m -1 -10 d s 1346 938 m -2 10 d s 2035 948 m -1 -10 d s 1343 950 m -5 9
 d s 1344 948 m -1 2 d s 2036 959 m -1 -11 d s 1338 959 m -2 10 d s 2037 969 m -1 -10 d s 1336 969 m -1 10 d s 2038 979 m -1 -10 d s 1332 989 m s 1335 979 m -3 10 d s 2038 980 m -1 Y s 2042 989 m -4 -9 d s 1332 989 m -6 11 d s 2044 1000 m -2 -11 d s
 1326 1000 m -1 10 d s 2045 1010 m -1 -10 d s 1325 1010 m -1 10 d s 2046 1020 m -1 -10 d s 1324 1020 m -2 11 d s 2046 1031 m -11 Y s 1321 1032 m -5 9 d s 1322 1031 m -1 1 d s 2047 1041 m -1 -10 d s 1316 1041 m -2 10 d s 2048 1051 m -1 -10 d s 1314
 1051 m 10 Y s 2049 1061 m -1 -10 d s 1314 1061 m -1 11 d s 2049 1062 m -1 Y s 2053 1072 m -4 -10 d s 1310 1081 m -1 1 d s 1313 1072 m -3 9 d s 2055 1082 m -2 -10 d s 1309 1082 m -5 10 d s 2056 1092 m -1 -10 d s 1304 1092 m -1 10 d s 2057 1102 m -1
 -10 d s 1303 1102 m 11 Y s 2057 1113 m -11 Y s 1303 1113 m -1 10 d s 2058 1123 m -1 -10 d s 1302 1123 m -2 10 d s 2058 1133 m -10 Y s 1299 1134 m -5 10 d s 1300 1133 m -1 1 d s 2059 1144 m -1 -11 d s 1294 1144 m -2 10 d s 2060 1151 m -1 -7 d s 2061
 1154 m -1 -3 d s 1292 1154 m 10 Y s 2064 1164 m -3 -10 d s 1292 1164 m 10 Y s 2066 1174 m -2 -10 d s 1292 1174 m -1 11 d s 2067 1185 m -1 -11 d s 1288 1193 m -1 2 d s 1291 1185 m -3 8 d s 2068 1195 m -1 -10 d s 1287 1195 m -5 10 d s 2068 1205 m -10
 Y s 1282 1205 m -1 11 d s 2068 1216 m -11 Y s 1281 1216 m 10 Y s 2069 1226 m -1 -10 d s 1281 1226 m 10 Y s 2070 1236 m -1 -10 d s 1281 1236 m -1 10 d s 2071 1246 m -1 -10 d s 1280 1246 m -2 11 d s 2071 1249 m -3 Y s 2074 1257 m -3 -8 d s 1277 1258
 m -5 9 d s 1278 1257 m -1 1 d s 2076 1267 m -2 -10 d s 1272 1267 m -2 10 d s 2077 1277 m -1 -10 d s 1270 1277 m 10 Y s 2078 1287 m -1 -10 d s 1270 1287 m 11 Y s 2079 1298 m -1 -11 d s 1270 1298 m 10 Y s 2079 1308 m -10 Y s 1270 1308 m -1 10 d s
 2079 1318 m -10 Y s 1269 1318 m -2 11 d s 2080 1329 m -1 -11 d s 1266 1330 m -5 9 d s 1267 1329 m -1 1 d s 2080 1339 m -10 Y s 1261 1339 m -2 10 d s 2081 1349 m -1 -10 d s 1259 1349 m 10 Y s 2082 1356 m -1 -7 d s 2084 1359 m -2 -3 d s 1259 1359 m
 11 Y s 2086 1370 m -2 -11 d s 1259 1370 m 10 Y s 2088 1380 m -2 -10 d s 1259 1380 m -1 10 d s 2089 1390 m -1 -10 d s 1258 1390 m 10 Y s 2090 1400 m -1 -10 d s 1255 1408 m -2 3 d s 1258 1400 m -3 8 d s 2090 1411 m -11 Y s 1253 1411 m -4 10 d s 2090
 1421 m -10 Y s 1249 1421 m -1 10 d s 2090 1431 m -10 Y s 1248 1431 m 11 Y s 2091 1442 m -1 -11 d s 1248 1442 m 4 Y s 2091 1446 m -4 Y s 0.8 1 0.6 c 1371 1446 m -720 Y -1 -18 d -56 Y -1 -19 d -19 Y -1 -18 d -1 -19 d -19 Y -1 -18 d -1 -19 d -1 -19 d
 -1 -18 d -2 -19 d -1 -19 d -2 -18 d -2 -19 d -2 -19 d -1 Y -1 -17 d -1 -19 d -19 Y -1 -19 d -1 -18 d -19 Y -1 -19 d -37 Y -1 -19 d -18 Y -264 X 1261 Y f 0.0666667 0.266667 0 c 1084 185 m s 1348 185 m s 1084 185 m 18 Y s 1348 203 m -18 Y s 1084 203
 m 19 Y s 1349 222 m -1 -19 d s 1084 222 m 19 Y s 1349 241 m -19 Y s 1084 241 m 18 Y s 1349 259 m -18 Y s 1084 259 m 19 Y s 1350 278 m -1 -19 d s 1084 278 m 19 Y s 1350 297 m -19 Y s 1084 297 m 18 Y s 1351 315 m -1 -18 d s 1084 315 m 19 Y s 1352 334
 m -1 -19 d s 1084 334 m 19 Y s 1352 353 m -19 Y s 1084 353 m 19 Y s 1353 372 m -1 -19 d s 1084 372 m 18 Y s 1354 389 m -1 -17 d s 1354 390 m -1 Y s 1084 390 m 19 Y s 1356 409 m -2 -19 d s 1084 409 m 19 Y s 1358 428 m -2 -19 d s 1084 428 m 18 Y s
 1360 446 m -2 -18 d s 1084 446 m 19 Y s 1361 465 m -1 -19 d s 1084 465 m 19 Y s 1363 484 m -2 -19 d s 1084 484 m 18 Y s 1364 502 m -1 -18 d s 1084 502 m 19 Y s 1365 521 m -1 -19 d s 1084 521 m 19 Y s 1366 540 m -1 -19 d s 1084 540 m 18 Y s 1367 558
 m -1 -18 d s 1084 558 m 19 Y s 1367 577 m -19 Y s 1084 577 m 19 Y s 1368 596 m -1 -19 d s 1084 596 m 18 Y s 1369 614 m -1 -18 d s 1084 614 m 19 Y s 1369 633 m -19 Y s 1084 633 m 19 Y s 1370 652 m -1 -19 d s 1084 652 m 18 Y s 1370 670 m -18 Y s 1084
 670 m 19 Y s 1370 689 m -19 Y s 1084 689 m 19 Y s 1370 708 m -19 Y s 1084 708 m 18 Y s 1371 726 m -1 -18 d s 1084 726 m 19 Y s 1371 745 m -19 Y s 1084 745 m 19 Y s 1371 764 m -19 Y s 1084 764 m 19 Y s 1371 783 m -19 Y s 1084 783 m 18 Y s 1371 801 m
 -18 Y s 1084 801 m 19 Y s 1371 820 m -19 Y s 1084 820 m 19 Y s 1371 839 m -19 Y s 1084 839 m 18 Y s 1371 857 m -18 Y s 1084 857 m 19 Y s 1371 876 m -19 Y s 1084 876 m 19 Y s 1371 895 m -19 Y s 1084 895 m 18 Y s 1371 913 m -18 Y s 1084 913 m 19 Y s
 1371 932 m -19 Y s 1084 932 m 19 Y s 1371 951 m -19 Y s 1084 951 m 18 Y s 1371 969 m -18 Y s 1084 969 m 19 Y s 1371 988 m -19 Y s 1084 988 m 19 Y s 1371 1007 m -19 Y s 1084 1007 m 18 Y s 1371 1025 m -18 Y s 1084 1025 m 19 Y s 1371 1044 m -19 Y s
 1084 1044 m 19 Y s 1371 1063 m -19 Y s 1084 1063 m 18 Y s 1371 1081 m -18 Y s 1084 1081 m 19 Y s 1371 1100 m -19 Y s 1084 1100 m 19 Y s 1371 1119 m -19 Y s 1084 1119 m 19 Y s 1371 1138 m -19 Y s 1084 1138 m 18 Y s 1371 1156 m -18 Y s 1084 1156 m 19
 Y s 1371 1175 m -19 Y s 1084 1175 m 19 Y s 1371 1194 m -19 Y s 1084 1194 m 18 Y s 1371 1212 m -18 Y s 1084 1212 m 19 Y s 1371 1231 m -19 Y s 1084 1231 m 19 Y s 1371 1250 m -19 Y s 1084 1250 m 18 Y s 1371 1268 m -18 Y s 1084 1268 m 19 Y s 1371 1287
 m -19 Y s 1084 1287 m 19 Y s 1371 1306 m -19 Y s 1084 1306 m 18 Y s 1371 1324 m -18 Y s 1084 1324 m 19 Y s 1371 1343 m -19 Y s 1084 1343 m 19 Y s 1371 1362 m -19 Y s 1084 1362 m 18 Y s 1371 1380 m -18 Y s 1084 1380 m 19 Y s 1371 1399 m -19 Y s 1084
 1399 m 19 Y s 1371 1418 m -19 Y s 1084 1418 m 18 Y s 1371 1436 m -18 Y s 1084 1436 m 10 Y s 1371 1446 m -10 Y s black 0.666667 0.666667 0.666667 c black 0.666667 0.666667 0.666667 c 1089 767 m 14 -6 d 13 -6 d 11 -7 d 10 -7 d 9 -6 d 8 -7 d 8 -6 d 7
 -7 d 7 -6 d 6 -6 d 6 -7 d 5 -6 d 5 -6 d 5 -5 d 4 -6 d 5 -6 d 4 -5 d 3 -6 d 4 -5 d 4 -5 d 3 -5 d 3 -5 d 3 -5 d 3 -5 d 3 -5 d 3 -5 d 2 -5 d 3 -4 d 2 -5 d 2 -4 d 3 -4 d 2 -5 d 2 -4 d 2 -4 d 2 -4 d 2 -4 d 2 -4 d 2 -3 d 2 -4 d 2 -4 d 2 -3 d 2 -4 d 1 -3
 d 2 -4 d 2 -3 d 1 -3 d 2 -3 d 1 -4 d 2 -3 d 1 -3 d 2 -3 d 1 -3 d 2 -3 d 1 -3 d 1 -3 d 1 -2 d 2 -3 d 1 -3 d 1 -3 d 1 -2 d 1 -3 d 1 -3 d 2 -2 d 1 -3 d 1 -2 d 1 -3 d 1 -2 d 1 -2 d -3 Y 1 -2 d 1 -2 d 1 -3 d 1 -2 d 1 -2 d -2 Y 1 -3 d 1 -2 d 1 -2 d -2 Y
 1 -2 d 1 -2 d -2 Y 1 -2 d -2 Y 1 -2 d -2 Y 1 -2 d -2 Y 1 -2 d -2 Y 1 -2 d -3 Y 1 -2 d -5 Y 1 -2 d -2 Y 5 -35 d 2 Y -1 X 7 Y -1 X 8 Y -1 X 7 Y -1 X 7 Y -1 X 4 Y 5 -35 d -1 2 d 5 Y -1 2 d 4 Y -1 2 d 1 Y -1 2 d 2 Y -1 2 d 2 Y -1 2 d 2 Y -1 2 d 2 Y -1
 2 d -1 2 d 2 Y -1 2 d -1 2 d 3 Y -1 2 d -1 2 d -1 2 d -1 2 d 3 Y -1 2 d -1 2 d -1 3 d -1 2 d -1 3 d -1 2 d -1 3 d -1 2 d -1 3 d -1 2 d -2 3 d -1 3 d -1 2 d -1 3 d -1 3 d -2 3 d -1 2 d -1 3 d -2 3 d -1 3 d -2 3 d -1 3 d -2 3 d -1 4 d -2 3 d -1 3 d
 -2 3 d -2 4 d -2 3 d -1 4 d -2 3 d -2 4 d -2 4 d -2 3 d -2 4 d -2 4 d -2 4 d -2 4 d -2 4 d -3 4 d -2 5 d -2 4 d -3 4 d -2 5 d -3 5 d -2 5 d -3 4 d -3 5 d -3 5 d -4 5 d -3 5 d -4 5 d -3 6 d -4 5 d -4 6 d -5 5 d -4 6 d -5 6 d -5 6 d -6 6 d -5 6 d -7
 6 d -6 7 d -7 6 d -8 6 d -8 7 d -10 7 d -10 6 d -11 7 d -13 6 d -14 6 d -2 36 d -10 Y 1 X -16 Y 1 X -10 Y f black 0.666667 0.666667 0.666667 c black 1089 767 m 14 -6 d 13 -6 d 11 -7 d 10 -7 d 9 -6 d 8 -7 d 8 -6 d 7 -7 d 7 -6 d 6 -6 d 6 -7 d 5 -6 d
 5 -6 d 5 -5 d 4 -6 d 5 -6 d 4 -5 d 3 -6 d 4 -5 d 4 -5 d 3 -5 d 3 -5 d 3 -5 d 3 -5 d 3 -5 d 3 -5 d 2 -5 d 3 -4 d 2 -5 d 2 -4 d 3 -4 d 2 -5 d 2 -4 d 2 -4 d 2 -4 d 2 -4 d 2 -4 d 2 -3 d 2 -4 d 2 -4 d 2 -3 d 2 -4 d 1 -3 d 2 -4 d 2 -3 d 1 -3 d 2 -3 d 1
 -4 d 2 -3 d 1 -3 d 2 -3 d 1 -3 d 2 -3 d 1 -3 d 1 -3 d 1 -2 d 2 -3 d 1 -3 d 1 -3 d 1 -2 d 1 -3 d 1 -3 d 2 -2 d 1 -3 d 1 -2 d 1 -3 d 1 -2 d 1 -2 d -3 Y 1 -2 d 1 -2 d 1 -3 d 1 -2 d 1 -2 d -2 Y 1 -3 d 1 -2 d 1 -2 d -2 Y 1 -2 d 1 -2 d -2 Y 1 -2 d -2 Y 1
 -2 d -2 Y 1 -2 d -2 Y 1 -2 d -2 Y 1 -2 d -3 Y 1 -2 d -5 Y 1 -2 d -2 Y 5 -35 d 2 Y -1 X 7 Y -1 X 8 Y -1 X 7 Y -1 X 7 Y -1 X 4 Y 5 -35 d -1 2 d 5 Y -1 2 d 4 Y -1 2 d 1 Y -1 2 d 2 Y -1 2 d 2 Y -1 2 d 2 Y -1 2 d 2 Y -1 2 d -1 2 d 2 Y -1 2 d -1 2 d 3 Y
 -1 2 d -1 2 d -1 2 d -1 2 d 3 Y -1 2 d -1 2 d -1 3 d -1 2 d -1 3 d -1 2 d -1 3 d -1 2 d -1 3 d -1 2 d -2 3 d -1 3 d -1 2 d -1 3 d -1 3 d -2 3 d -1 2 d -1 3 d -2 3 d -1 3 d -2 3 d -1 3 d -2 3 d -1 4 d -2 3 d -1 3 d -2 3 d -2 4 d -2 3 d -1 4 d -2 3 d
 -2 4 d -2 4 d -2 3 d -2 4 d -2 4 d -2 4 d -2 4 d -2 4 d -3 4 d -2 5 d -2 4 d -3 4 d -2 5 d -3 5 d -2 5 d -3 4 d -3 5 d -3 5 d -4 5 d -3 5 d -4 5 d -3 6 d -4 5 d -4 6 d -5 5 d -4 6 d -5 6 d -5 6 d -6 6 d -5 6 d -7 6 d -6 7 d -7 6 d -8 6 d -8 7 d -10
 7 d -10 6 d -11 7 d -13 6 d -14 6 d -2 36 d -10 Y 1 X -16 Y 1 X -10 Y s 1090 749 m 14 -6 d 13 -6 d 11 -7 d 10 -6 d 9 -7 d 9 -7 d 7 -6 d 8 -7 d 6 -6 d 6 -6 d 6 -6 d 5 -6 d 5 -6 d 5 -6 d 5 -6 d 4 -6 d 4 -5 d 4 -6 d 4 -5 d 3 -5 d 4 -5 d 3 -5 d 3 -5 d
 3 -5 d 3 -5 d 2 -5 d 3 -4 d 2 -5 d 3 -4 d 2 -5 d 3 -4 d 2 -4 d 2 -4 d 2 -5 d 2 -4 d 2 -3 d 2 -4 d 2 -4 d 2 -4 d 2 -3 d 2 -4 d 2 -3 d 1 -4 d 2 -3 d 2 -3 d 1 -4 d 2 -3 d 1 -3 d 2 -3 d 1 -3 d 2 -3 d 1 -3 d 2 -3 d 1 -3 d 1 -3 d 2 -3 d 1 -3 d 1 -2 d 1
 -3 d 1 -3 d 1 -2 d 2 -3 d 1 -3 d 1 -2 d 1 -3 d 1 -2 d 1 -2 d 1 -3 d 1 -2 d 1 -3 d -2 Y 1 -2 d 1 -2 d 1 -3 d 1 -2 d -2 Y 1 -2 d 1 -2 d -2 Y 1 -3 d 1 -2 d -2 Y 1 -2 d 1 -2 d -2 Y 1 -2 d -2 Y 1 -1 d -4 Y 1 -2 d -2 Y 1 -2 d -3 Y 1 -2 d -5 Y s 1233 606
 m -1 1 d 10 Y -1 1 d 10 Y -1 1 d 10 Y -1 1 d 2 Y s 0.666667 0.666667 0.666667 c black 1089 767 m 14 -6 d 13 -6 d 11 -7 d 10 -7 d 9 -6 d 8 -7 d 8 -6 d 7 -7 d 7 -6 d 6 -6 d 6 -7 d 5 -6 d 5 -6 d 5 -5 d 4 -6 d 5 -6 d 4 -5 d 3 -6 d 4 -5 d 4 -5 d 3 -5 d
 3 -5 d 3 -5 d 3 -5 d 3 -5 d 3 -5 d 2 -5 d 3 -4 d 2 -5 d 2 -4 d 3 -4 d 2 -5 d 2 -4 d 2 -4 d 2 -4 d 2 -4 d 2 -4 d 2 -3 d 2 -4 d 2 -4 d 2 -3 d 2 -4 d 1 -3 d 2 -4 d 2 -3 d 1 -3 d 2 -3 d 1 -4 d 2 -3 d 1 -3 d 2 -3 d 1 -3 d 2 -3 d 1 -3 d 1 -3 d 1 -2 d 2
 -3 d 1 -3 d 1 -3 d 1 -2 d 1 -3 d 1 -3 d 2 -2 d 1 -3 d 1 -2 d 1 -3 d 1 -2 d 1 -2 d -3 Y 1 -2 d 1 -2 d 1 -3 d 1 -2 d 1 -2 d -2 Y 1 -3 d 1 -2 d 1 -2 d -2 Y 1 -2 d 1 -2 d -2 Y 1 -2 d -2 Y 1 -2 d -2 Y 1 -2 d -2 Y 1 -2 d -2 Y 1 -2 d -3 Y 1 -2 d -5 Y 1 -2
 d -2 Y 5 -35 d 2 Y -1 X 7 Y -1 X 8 Y -1 X 7 Y -1 X 7 Y -1 X 4 Y 5 -35 d -1 2 d 5 Y -1 2 d 4 Y -1 2 d 1 Y -1 2 d 2 Y -1 2 d 2 Y -1 2 d 2 Y -1 2 d 2 Y -1 2 d -1 2 d 2 Y -1 2 d -1 2 d 3 Y -1 2 d -1 2 d -1 2 d -1 2 d 3 Y -1 2 d -1 2 d -1 3 d -1 2 d -1
 3 d -1 2 d -1 3 d -1 2 d -1 3 d -1 2 d -2 3 d -1 3 d -1 2 d -1 3 d -1 3 d -2 3 d -1 2 d -1 3 d -2 3 d -1 3 d -2 3 d -1 3 d -2 3 d -1 4 d -2 3 d -1 3 d -2 3 d -2 4 d -2 3 d -1 4 d -2 3 d -2 4 d -2 4 d -2 3 d -2 4 d -2 4 d -2 4 d -2 4 d -2 4 d -3 4 d
 -2 5 d -2 4 d -3 4 d -2 5 d -3 5 d -2 5 d -3 4 d -3 5 d -3 5 d -4 5 d -3 5 d -4 5 d -3 6 d -4 5 d -4 6 d -5 5 d -4 6 d -5 6 d -5 6 d -6 6 d -5 6 d -7 6 d -6 7 d -7 6 d -8 6 d -8 7 d -10 7 d -10 6 d -11 7 d -13 6 d -14 6 d -2 36 d -10 Y 1 X -16 Y 1
 X -10 Y s 1090 749 m 14 -6 d 13 -6 d 11 -7 d 10 -6 d 9 -7 d 9 -7 d 7 -6 d 8 -7 d 6 -6 d 6 -6 d 6 -6 d 5 -6 d 5 -6 d 5 -6 d 5 -6 d 4 -6 d 4 -5 d 4 -6 d 4 -5 d 3 -5 d 4 -5 d 3 -5 d 3 -5 d 3 -5 d 3 -5 d 2 -5 d 3 -4 d 2 -5 d 3 -4 d 2 -5 d 3 -4 d 2 -4 d
 2 -4 d 2 -5 d 2 -4 d 2 -3 d 2 -4 d 2 -4 d 2 -4 d 2 -3 d 2 -4 d 2 -3 d 1 -4 d 2 -3 d 2 -3 d 1 -4 d 2 -3 d 1 -3 d 2 -3 d 1 -3 d 2 -3 d 1 -3 d 2 -3 d 1 -3 d 1 -3 d 2 -3 d 1 -3 d 1 -2 d 1 -3 d 1 -3 d 1 -2 d 2 -3 d 1 -3 d 1 -2 d 1 -3 d 1 -2 d 1 -2 d 1
 -3 d 1 -2 d 1 -3 d -2 Y 1 -2 d 1 -2 d 1 -3 d 1 -2 d -2 Y 1 -2 d 1 -2 d -2 Y 1 -3 d 1 -2 d -2 Y 1 -2 d 1 -2 d -2 Y 1 -2 d -2 Y 1 -1 d -4 Y 1 -2 d -2 Y 1 -2 d -3 Y 1 -2 d -5 Y s 1233 606 m -1 1 d 10 Y -1 1 d 10 Y -1 1 d 10 Y -1 1 d 2 Y s
 gsave  2268 1538 0 0 C 1160 560 t 0 r /Helvetica-Bold findfont 48.8732 sf 0 0 m (SM) show NC gr  0 0 0.666667 c 1360 373 m -7 9 d s 1376 378 m -16 -5 d s 1390 382 m -14 -4 d s 1343 388 m -9 12 d s 1353 382 m -10 6 d s 1393 382 m -3 X s 1410 385 m
 -17 -3 d s 1426 388 m -16 -3 d s 1443 391 m -17 -3 d s 1459 395 m -16 -4 d s 1476 400 m -17 -5 d s 1477 400 m -1 X s 1334 400 m -2 18 d s 1492 403 m -15 -3 d s 1509 406 m -17 -3 d s 1525 409 m -16 -3 d s 1542 412 m -17 -3 d s 1559 417 m -17 -5 d s
 1564 418 m -5 -1 d s 1332 418 m -2 18 d s 1575 420 m -11 -2 d s 1592 423 m -17 -3 d s 1608 426 m -16 -3 d s 1625 430 m -17 -4 d s 1641 434 m -16 -4 d s 1651 436 m -10 -2 d s 1327 441 m -10 13 d s 1330 436 m -3 5 d s 1658 438 m -7 -2 d s 1674 441 m
 -16 -3 d s 1691 444 m -17 -3 d s 1707 447 m -16 -3 d s 1724 451 m -17 -4 d s 1737 454 m -13 -3 d s 1317 454 m -3 19 d s 1741 455 m -4 -1 d s 1757 458 m -16 -3 d s 1774 461 m -17 -3 d s 1790 465 m -16 -4 d s 1807 468 m -17 -3 d s 1823 472 m -16 -4 d
 s 1824 473 m -1 -1 d s 1310 479 m -9 12 d s 1314 473 m -4 6 d s 1840 476 m -16 -3 d s 1856 479 m -16 -3 d s 1873 482 m -17 -3 d s 1889 486 m -16 -4 d s 1906 490 m -17 -4 d s 1911 491 m -5 -1 d s 1301 491 m -4 18 d s 1923 493 m -12 -2 d s 1939 496 m
 -16 -3 d s 1956 500 m -17 -4 d s 1972 503 m -16 -3 d s 1989 507 m -17 -4 d s 1998 509 m -9 -2 d s 1294 514 m -10 13 d s 1297 509 m -3 5 d s 2005 510 m -7 -1 d s 2022 514 m -17 -4 d s 2038 517 m -16 -3 d s 2055 520 m -17 -3 d s 2071 524 m -16 -4 d s
 2085 527 m -14 -3 d s 1284 527 m -5 19 d s 2088 528 m -3 -1 d s 2105 531 m -17 -3 d s 2121 534 m -16 -3 d s 2138 538 m -17 -4 d s 2154 541 m -16 -3 d s 2154 541 m cl s 1277 548 m -11 16 d s 1279 546 m -2 2 d s 1261 578 m -4 4 d s 1266 564 m -5 14 d
 s 1257 582 m -9 18 d s 1244 608 m -9 10 d s 1248 600 m -4 8 d s 1228 634 m -3 3 d s 1235 618 m -7 16 d s 1225 637 m -12 18 d s 1211 657 m -14 16 d s 1213 655 m -2 2 d s 1194 676 m -14 15 d s 1197 673 m -3 3 d s 1161 709 m s 1178 694 m -17 15 d s
 1180 691 m -2 3 d s 1145 720 m -10 8 d s 1161 709 m -16 11 d s 1112 740 m -10 6 d s 1128 732 m -16 8 d s 1135 728 m -7 4 d s 1095 749 m -10 15 d s 1102 746 m -7 3 d s 1085 764 m -1 18 d s 1084 782 m 19 Y s 1084 801 m 18 Y s 1084 819 m 18 Y s 1084
 837 m 18 Y s 1084 855 m 18 Y s 1084 873 m 1 19 d s 1085 892 m 2 18 d s 1087 910 m 4 18 d s 1091 928 m 4 15 d s 1095 943 m 1 3 d s 1096 946 m 2 18 d s 1098 964 m 1 19 d s 1099 983 m 1 18 d s 1100 1001 m 18 Y s 1100 1019 m 18 Y s 1100 1037 m 19 Y s
 1100 1056 m 18 Y s 1100 1074 m 18 Y s 1100 1092 m 18 Y s 1100 1110 m 18 Y s 1100 1128 m 19 Y s 1100 1147 m 1 18 d s 1101 1165 m 18 Y s 1101 1183 m 1 18 d s 1102 1201 m 1 18 d s 1103 1219 m 3 19 d s 1106 1238 m 4 18 d s 1110 1256 m 2 4 d s 1112 1260
 m 2 14 d s 1114 1274 m 1 18 d s 1115 1292 m 1 19 d s 1116 1311 m 1 18 d s 1117 1329 m 18 Y s 1117 1347 m 18 Y s 1117 1365 m 18 Y s 1117 1383 m 19 Y s 1117 1402 m 18 Y s 1117 1420 m 18 Y s 1117 1438 m 8 Y s 0.2 0.2 0.2 c 1763 372 m -2 1 d s 1774 370
 m -11 2 d s 1785 370 m -11 X s 1796 370 m -11 X s 1807 371 m -11 -1 d s 1816 373 m -9 -2 d s 1741 378 m -9 5 d s 1752 375 m -11 3 d s 1761 373 m -9 2 d s 1818 373 m -2 X s 1829 376 m -11 -3 d s 1840 381 m -11 -5 d s 1844 383 m -4 -2 d s 1718 392 m
 -2 1 d s 1729 384 m -11 8 d s 1732 383 m -3 1 d s 1851 387 m -7 -4 d s 1860 393 m -9 -6 d s 1707 401 m -2 3 d s 1716 393 m -9 8 d s 1862 395 m -2 -2 d s 1871 404 m -9 -9 d s 1696 413 m 1 Y s 1705 404 m -9 9 d s 1873 405 m -2 -1 d s 1881 414 m -8 -9
 d s 1696 414 m -8 10 d s 1884 417 m -3 -3 d s 1890 424 m -6 -7 d s 1685 427 m -5 8 d s 1688 424 m -3 3 d s 1895 432 m -5 -8 d s 1897 435 m -2 -3 d s 1680 435 m -5 10 d s 1903 445 m -6 -10 d s 1674 445 m -7 10 d s 1675 445 m -1 X s 1906 449 m -3 -4
 d s 1910 455 m -4 -6 d s 1663 464 m -1 1 d s 1667 455 m -4 9 d s 1915 465 m -5 -10 d s 1662 465 m -6 11 d s 1917 470 m -2 -5 d s 1921 476 m -4 -6 d s 1652 486 m s 1656 476 m -4 10 d s 1925 486 m -4 -10 d s 1652 486 m -6 10 d s 1928 494 m -3 -8 d s
 1930 496 m -2 -2 d s 1646 496 m -3 11 d s 1935 507 m -5 -11 d s 1641 510 m -5 7 d s 1643 507 m -2 3 d s 1938 517 m -3 -10 d s 1636 517 m -2 10 d s 1939 521 m -1 -4 d s 1943 527 m -4 -6 d s 1634 527 m -3 10 d s 1946 537 m -3 -10 d s 1630 539 m -6 9
 d s 1631 537 m -1 2 d s 1949 548 m -3 -11 d s 1624 548 m -1 10 d s 1950 552 m -1 -4 d s 1953 558 m -3 -6 d s 1623 558 m -2 10 d s 1957 568 m -4 -10 d s 1619 571 m -6 7 d s 1621 568 m -2 3 d s 1959 578 m -2 -10 d s 1613 578 m -1 11 d s 1961 587 m -2
 -9 d s 1962 589 m -1 -2 d s 1612 589 m -1 10 d s 1966 599 m -4 -10 d s 1608 606 m -2 3 d s 1611 599 m -3 7 d s 1969 609 m -3 -10 d s 1606 609 m -5 11 d s 1970 620 m -1 -11 d s 1601 620 m 10 Y s 1972 627 m -2 -7 d s 1974 630 m -2 -3 d s 1601 630 m
 -1 10 d s 1977 640 m -3 -10 d s 1586 649 m -1 1 d s 1597 647 m -11 2 d s 1600 640 m -3 7 d s 1980 650 m -3 -10 d s 1585 650 m -7 11 d s 1981 661 m -1 -11 d s 1575 665 m -5 6 d s 1578 661 m -3 4 d s 1983 671 m -2 -10 d s 1564 680 m -1 1 d s 1570 671
 m -6 9 d s 1983 671 m s 1987 681 m -4 -10 d s 1563 681 m -9 10 d s 1990 691 m -3 -10 d s 1553 693 m -10 9 d s 1554 691 m -1 2 d s 1991 702 m -1 -11 d s 1542 703 m -11 9 d s 1543 702 m -1 1 d s 1992 712 m -1 -10 d s 1520 719 m -6 3 d s 1531 712 m
 -11 7 d s 1531 712 m s 1994 721 m -2 -9 d s 1995 722 m -1 -1 d s 1498 729 m -8 4 d s 1509 725 m -11 4 d s 1514 722 m -5 3 d s 1999 733 m -4 -11 d s 1465 742 m -2 1 d s 1476 737 m -11 5 d s 1487 734 m -11 3 d s 1490 733 m -3 1 d s 2001 743 m -2 -10
 d s 1454 748 m -7 5 d s 1463 743 m -9 5 d s 2002 753 m -1 -10 d s 1443 756 m -8 7 d s 1447 753 m -4 3 d s 2003 763 m -1 -10 d s 1432 767 m -6 7 d s 1435 763 m -3 4 d s 2005 774 m -2 -11 d s 1421 780 m -4 4 d s 1426 774 m -5 6 d s 2005 776 m -2 Y s
 2008 784 m -3 -8 d s 1417 784 m -6 10 d s 2011 794 m -3 -10 d s 1410 796 m -6 8 d s 1411 794 m -1 2 d s 2012 804 m -1 -10 d s 1404 804 m -5 11 d s 2013 815 m -1 -11 d s 1399 815 m -7 10 d s 1399 815 m s 2014 825 m -1 -10 d s 1392 825 m -4 10 d s
 2016 835 m -2 -10 d s 1388 835 m -7 11 d s 1388 835 m s 2016 837 m -2 Y s 2019 846 m -3 -9 d s 1381 846 m -3 10 d s 2022 856 m -3 -10 d s 1376 858 m -5 8 d s 1378 856 m -2 2 d s 2023 866 m -1 -10 d s 1371 866 m -3 10 d s 2024 876 m -1 -10 d s 1365
 885 m -1 2 d s 1368 876 m -3 9 d s 2025 887 m -1 -11 d s 1364 887 m -5 10 d s 2026 897 m -1 -10 d s 1359 897 m -2 10 d s 2027 905 m -1 -8 d s 2028 907 m -1 -2 d s 1354 916 m -1 2 d s 1357 907 m -3 9 d s 2032 918 m -4 -11 d s 1353 918 m -5 10 d s
 2033 928 m -1 -10 d s 1348 928 m -2 10 d s 2034 938 m -1 -10 d s 1346 938 m -2 10 d s 2035 948 m -1 -10 d s 1343 950 m -5 9 d s 1344 948 m -1 2 d s 2036 959 m -1 -11 d s 1338 959 m -2 10 d s 2037 969 m -1 -10 d s 1336 969 m -1 10 d s 2038 979 m -1
 -10 d s 1332 989 m s 1335 979 m -3 10 d s 2038 980 m -1 Y s 2042 989 m -4 -9 d s 1332 989 m -6 11 d s 2044 1000 m -2 -11 d s 1326 1000 m -1 10 d s 2045 1010 m -1 -10 d s 1325 1010 m -1 10 d s 2046 1020 m -1 -10 d s 1324 1020 m -2 11 d s 2046 1031 m
 -11 Y s 1321 1032 m -5 9 d s 1322 1031 m -1 1 d s 2047 1041 m -1 -10 d s 1316 1041 m -2 10 d s 2048 1051 m -1 -10 d s 1314 1051 m 10 Y s 2049 1061 m -1 -10 d s 1314 1061 m -1 11 d s 2049 1062 m -1 Y s 2053 1072 m -4 -10 d s 1310 1081 m -1 1 d s
 1313 1072 m -3 9 d s 2055 1082 m -2 -10 d s 1309 1082 m -5 10 d s 2056 1092 m -1 -10 d s 1304 1092 m -1 10 d s 2057 1102 m -1 -10 d s 1303 1102 m 11 Y s 2057 1113 m -11 Y s 1303 1113 m -1 10 d s 2058 1123 m -1 -10 d s 1302 1123 m -2 10 d s 2058
 1133 m -10 Y s 1299 1134 m -5 10 d s 1300 1133 m -1 1 d s 2059 1144 m -1 -11 d s 1294 1144 m -2 10 d s 2060 1151 m -1 -7 d s 2061 1154 m -1 -3 d s 1292 1154 m 10 Y s 2064 1164 m -3 -10 d s 1292 1164 m 10 Y s 2066 1174 m -2 -10 d s 1292 1174 m -1 11
 d s 2067 1185 m -1 -11 d s 1288 1193 m -1 2 d s 1291 1185 m -3 8 d s 2068 1195 m -1 -10 d s 1287 1195 m -5 10 d s 2068 1205 m -10 Y s 1282 1205 m -1 11 d s 2068 1216 m -11 Y s 1281 1216 m 10 Y s 2069 1226 m -1 -10 d s 1281 1226 m 10 Y s 2070 1236 m
 -1 -10 d s 1281 1236 m -1 10 d s 2071 1246 m -1 -10 d s 1280 1246 m -2 11 d s 2071 1249 m -3 Y s 2074 1257 m -3 -8 d s 1277 1258 m -5 9 d s 1278 1257 m -1 1 d s 2076 1267 m -2 -10 d s 1272 1267 m -2 10 d s 2077 1277 m -1 -10 d s 1270 1277 m 10 Y s
 2078 1287 m -1 -10 d s 1270 1287 m 11 Y s 2079 1298 m -1 -11 d s 1270 1298 m 10 Y s 2079 1308 m -10 Y s 1270 1308 m -1 10 d s 2079 1318 m -10 Y s 1269 1318 m -2 11 d s 2080 1329 m -1 -11 d s 1266 1330 m -5 9 d s 1267 1329 m -1 1 d s 2080 1339 m -10
 Y s 1261 1339 m -2 10 d s 2081 1349 m -1 -10 d s 1259 1349 m 10 Y s 2082 1356 m -1 -7 d s 2084 1359 m -2 -3 d s 1259 1359 m 11 Y s 2086 1370 m -2 -11 d s 1259 1370 m 10 Y s 2088 1380 m -2 -10 d s 1259 1380 m -1 10 d s 2089 1390 m -1 -10 d s 1258
 1390 m 10 Y s 2090 1400 m -1 -10 d s 1255 1408 m -2 3 d s 1258 1400 m -3 8 d s 2090 1411 m -11 Y s 1253 1411 m -4 10 d s 2090 1421 m -10 Y s 1249 1421 m -1 10 d s 2090 1431 m -10 Y s 1248 1431 m 11 Y s 2091 1442 m -1 -11 d s 1248 1442 m 4 Y s 2091
 1446 m -4 Y s 0.0666667 0.266667 0 c 1084 185 m s 1348 185 m s 1084 185 m 18 Y s 1348 203 m -18 Y s 1084 203 m 19 Y s 1349 222 m -1 -19 d s 1084 222 m 19 Y s 1349 241 m -19 Y s 1084 241 m 18 Y s 1349 259 m -18 Y s 1084 259 m 19 Y s 1350 278 m -1
 -19 d s 1084 278 m 19 Y s 1350 297 m -19 Y s 1084 297 m 18 Y s 1351 315 m -1 -18 d s 1084 315 m 19 Y s 1352 334 m -1 -19 d s 1084 334 m 19 Y s 1352 353 m -19 Y s 1084 353 m 19 Y s 1353 372 m -1 -19 d s 1084 372 m 18 Y s 1354 389 m -1 -17 d s 1354
 390 m -1 Y s 1084 390 m 19 Y s 1356 409 m -2 -19 d s 1084 409 m 19 Y s 1358 428 m -2 -19 d s 1084 428 m 18 Y s 1360 446 m -2 -18 d s 1084 446 m 19 Y s 1361 465 m -1 -19 d s 1084 465 m 19 Y s 1363 484 m -2 -19 d s 1084 484 m 18 Y s 1364 502 m -1 -18
 d s 1084 502 m 19 Y s 1365 521 m -1 -19 d s 1084 521 m 19 Y s 1366 540 m -1 -19 d s 1084 540 m 18 Y s 1367 558 m -1 -18 d s 1084 558 m 19 Y s 1367 577 m -19 Y s 1084 577 m 19 Y s 1368 596 m -1 -19 d s 1084 596 m 18 Y s 1369 614 m -1 -18 d s 1084
 614 m 19 Y s 1369 633 m -19 Y s 1084 633 m 19 Y s 1370 652 m -1 -19 d s 1084 652 m 18 Y s 1370 670 m -18 Y s 1084 670 m 19 Y s 1370 689 m -19 Y s 1084 689 m 19 Y s 1370 708 m -19 Y s 1084 708 m 18 Y s 1371 726 m -1 -18 d s 1084 726 m 19 Y s 1371
 745 m -19 Y s 1084 745 m 19 Y s 1371 764 m -19 Y s 1084 764 m 19 Y s 1371 783 m -19 Y s 1084 783 m 18 Y s 1371 801 m -18 Y s 1084 801 m 19 Y s 1371 820 m -19 Y s 1084 820 m 19 Y s 1371 839 m -19 Y s 1084 839 m 18 Y s 1371 857 m -18 Y s 1084 857 m
 19 Y s 1371 876 m -19 Y s 1084 876 m 19 Y s 1371 895 m -19 Y s 1084 895 m 18 Y s 1371 913 m -18 Y s 1084 913 m 19 Y s 1371 932 m -19 Y s 1084 932 m 19 Y s 1371 951 m -19 Y s 1084 951 m 18 Y s 1371 969 m -18 Y s 1084 969 m 19 Y s 1371 988 m -19 Y s
 1084 988 m 19 Y s 1371 1007 m -19 Y s 1084 1007 m 18 Y s 1371 1025 m -18 Y s 1084 1025 m 19 Y s 1371 1044 m -19 Y s 1084 1044 m 19 Y s 1371 1063 m -19 Y s 1084 1063 m 18 Y s 1371 1081 m -18 Y s 1084 1081 m 19 Y s 1371 1100 m -19 Y s 1084 1100 m 19
 Y s 1371 1119 m -19 Y s 1084 1119 m 19 Y s 1371 1138 m -19 Y s 1084 1138 m 18 Y s 1371 1156 m -18 Y s 1084 1156 m 19 Y s 1371 1175 m -19 Y s 1084 1175 m 19 Y s 1371 1194 m -19 Y s 1084 1194 m 18 Y s 1371 1212 m -18 Y s 1084 1212 m 19 Y s 1371 1231
 m -19 Y s 1084 1231 m 19 Y s 1371 1250 m -19 Y s 1084 1250 m 18 Y s 1371 1268 m -18 Y s 1084 1268 m 19 Y s 1371 1287 m -19 Y s 1084 1287 m 19 Y s 1371 1306 m -19 Y s 1084 1306 m 18 Y s 1371 1324 m -18 Y s 1084 1324 m 19 Y s 1371 1343 m -19 Y s 1084
 1343 m 19 Y s 1371 1362 m -19 Y s 1084 1362 m 18 Y s 1371 1380 m -18 Y s 1084 1380 m 19 Y s 1371 1399 m -19 Y s 1084 1399 m 19 Y s 1371 1418 m -19 Y s 1084 1418 m 18 Y s 1371 1436 m -18 Y s 1084 1436 m 10 Y s 1371 1446 m -10 Y s
 gsave  2268 1538 0 0 C 1365 257 t 0 r /Helvetica-Bold findfont 48.8732 sf 0 0 m (Littlest Higgs) show NC gr  0 0 0.666667 c
 gsave  2268 1538 0 0 C 1388 398 t 10 r /Helvetica-Bold findfont 48.8732 sf 0 0 m (One Universal Extra Dimension) show NC gr  0.2 0.2 0.2 c
 gsave  2268 1538 0 0 C 2007 886 t 83 r /Helvetica-Bold findfont 48.8732 sf 0 0 m (4th Generation) show NC gr  black[  12 12 ] 0 sd 272 745 m 1862 X s 1099 185 m 1261 Y s 0.501961 0 0 c[  ] 0 sd 645 528 m -9 4 d s 660 525 m -15 3 d s 674 524 m -14 1
 d s 689 524 m -15 X s 703 524 m -14 X s 718 526 m -15 -2 d s 732 528 m -14 -2 d s 747 531 m -15 -3 d s 753 532 m -6 -1 d s 631 534 m -11 9 d s 636 532 m -5 2 d s 761 534 m -8 -2 d s 776 537 m -15 -3 d s 790 540 m -14 -3 d s 800 543 m -10 -3 d s 617
 550 m -3 4 d s 620 543 m -3 7 d s 805 544 m -5 -1 d s 819 548 m -14 -4 d s 834 553 m -15 -5 d s 838 554 m -4 -1 d s 614 554 m -2 12 d s 848 557 m -10 -3 d s 863 562 m -15 -5 d s 872 566 m -9 -4 d s 612 566 m 1 11 d s 877 567 m -5 -1 d s 892 572 m
 -15 -5 d s 904 577 m -12 -5 d s 613 577 m 3 11 d s 906 578 m -2 -1 d s 921 583 m -15 -5 d s 933 588 m -12 -5 d s 616 588 m 1 1 d s 617 589 m 3 10 d s 935 589 m -2 -1 d s 950 594 m -15 -5 d s 961 599 m -11 -5 d s 620 599 m 5 12 d s 964 600 m -3 -1 d
 s 978 606 m -14 -6 d s 988 611 m -10 -5 d s 625 611 m 6 9 d s 631 620 m 1 2 d s 993 613 m -5 -2 d s 1007 619 m -14 -6 d s 1013 622 m -6 -3 d s 632 622 m 7 11 d s 1022 625 m -9 -3 d s 1036 632 m -14 -7 d s 1038 633 m -2 -1 d s 639 633 m 6 9 d s 645
 642 m 2 2 d s 1051 638 m -13 -5 d s 1062 644 m -11 -6 d s 647 644 m 9 11 d s 1065 645 m -3 -1 d s 1080 652 m -15 -7 d s 1086 655 m -6 -3 d s 656 655 m 4 5 d s 660 660 m 5 7 d s 1094 659 m -8 -4 d s 1108 667 m -14 -8 d s 665 667 m 9 10 d s 674 677 m
 1 1 d s 1109 667 m -1 X s 1123 674 m -14 -7 d s 1131 678 m -8 -4 d s 675 678 m 10 11 d s 1138 681 m -7 -3 d s 1152 689 m -14 -8 d s 685 689 m 4 4 d s 689 693 m 6 7 d s 1152 689 m s 1167 696 m -15 -7 d s 1174 700 m -7 -4 d s 695 700 m 8 8 d s 703
 708 m 3 3 d s 1181 704 m -7 -4 d s 1195 711 m -14 -7 d s 706 711 m 12 11 d s 718 722 m 1 Y s 1196 712 m -1 -1 d s 1210 719 m -14 -7 d s 1216 723 m -6 -4 d s 718 723 m 12 11 d s 1225 727 m -9 -4 d s 1236 734 m -11 -7 d s 730 734 m 2 2 d s 732 736 m
 10 9 d s 1239 736 m -3 -2 d s 1254 744 m -15 -8 d s 1255 745 m -1 -1 d s 742 745 m 5 4 d s 747 749 m 7 7 d s 1268 752 m -13 -7 d s 1275 756 m -7 -4 d s 754 756 m 7 6 d s 761 762 m 6 5 d s 1283 760 m -8 -4 d s 1294 767 m -11 -7 d s 767 767 m 9 8 d s
 776 775 m 4 4 d s 1297 769 m -3 -2 d s 1311 778 m -14 -9 d s 1313 779 m -2 -1 d s 780 779 m 10 8 d s 790 787 m 4 3 d s 1326 786 m -13 -7 d s 1332 790 m -6 -4 d s 794 790 m 11 8 d s 805 798 m 3 3 d s 1340 795 m -8 -5 d s 1350 801 m -10 -6 d s 808
 801 m 11 9 d s 819 810 m 3 2 d s 1355 804 m -5 -3 d s 1368 812 m -13 -8 d s 822 812 m 12 9 d s 834 821 m 2 2 d s 1369 813 m -1 -1 d s 1384 823 m -15 -10 d s 1385 823 m -1 X s 836 823 m 12 9 d s 848 832 m 3 3 d s 1398 832 m -13 -9 d s 1403 835 m -5
 -3 d s 851 835 m 12 8 d s 863 843 m 3 3 d s 1413 841 m -10 -6 d s 1420 846 m -7 -5 d s 866 846 m 11 8 d s 877 854 m 4 3 d s 1427 850 m -7 -4 d s 1437 857 m -10 -7 d s 881 857 m 11 8 d s 892 865 m 5 3 d s 1442 860 m -5 -3 d s 1453 868 m -11 -8 d s
 897 868 m 9 7 d s 906 875 m 6 5 d s 1456 870 m -3 -2 d s 1469 880 m -13 -10 d s 912 880 m 9 5 d s 921 885 m 7 6 d s 1471 880 m -2 X s 1485 891 m -14 -11 d s 928 891 m 7 5 d s 935 896 m 10 6 d s 1485 891 m s 1500 901 m -15 -10 d s 1501 902 m -1 -1 d
 s 945 902 m 5 3 d s 950 905 m 11 8 d s 1514 911 m -13 -9 d s 1517 913 m -3 -2 d s 961 913 m 3 2 d s 964 915 m 14 9 d s 978 924 m 1 X s 1529 922 m -12 -9 d s 1532 924 m -3 -2 d s 979 924 m 14 10 d s 993 934 m 2 2 d s 1543 933 m -11 -9 d s 1547 936 m
 -4 -3 d s 995 936 m 12 8 d s 1007 944 m 5 3 d s 1558 944 m -11 -8 d s 1562 947 m -4 -3 d s 1012 947 m 10 6 d s 1022 953 m 8 5 d s 1572 955 m -10 -8 d s 1576 958 m -4 -3 d s 1030 958 m 6 4 d s 1036 962 m 12 7 d s 1587 966 m -11 -8 d s 1590 969 m -3
 -3 d s 1048 969 m 3 2 d s 1051 971 m 14 9 d s 1065 980 m 2 X s 1601 978 m -11 -9 d s 1604 980 m -3 -2 d s 1067 980 m 13 9 d s 1080 989 m 5 3 d s 1616 990 m -12 -10 d s 1617 992 m -1 -2 d s 1085 992 m 9 6 d s 1094 998 m 10 5 d s 1630 1003 m -13 -11
 d s 1630 1003 m s 1104 1003 m 5 3 d s 1109 1006 m 14 8 d s 1123 1014 m 1 X s 1643 1014 m -13 -11 d s 1124 1014 m 14 9 d s 1138 1023 m 4 2 d s 1644 1015 m -1 -1 d s 1656 1025 m -12 -10 d s 1142 1025 m 10 6 d s 1152 1031 m 10 5 d s 1659 1028 m -3 -3
 d s 1669 1036 m -10 -8 d s 1162 1036 m 5 3 d s 1167 1039 m 14 8 d s 1181 1047 m 2 1 d s 1673 1041 m -4 -5 d s 1680 1048 m -7 -7 d s 1183 1048 m 13 7 d s 1196 1055 m 7 4 d s 1688 1055 m -8 -7 d s 1692 1059 m -4 -4 d s 1203 1059 m 7 4 d s 1210 1063 m
 15 7 d s 1702 1070 m -10 -11 d s 1225 1070 m s 1225 1070 m 14 8 d s 1239 1078 m 6 3 d s 1702 1070 m s 1713 1081 m -11 -11 d s 1245 1081 m 9 5 d s 1254 1086 m 14 7 d s 1717 1085 m -4 -4 d s 1724 1093 m -7 -8 d s 1268 1093 m s 1268 1093 m 15 8 d s
 1283 1101 m 7 3 d s 1731 1102 m -7 -9 d s 1733 1104 m -2 -2 d s 1290 1104 m 7 4 d s 1297 1108 m 14 6 d s 1311 1114 m 2 1 d s 1742 1115 m -9 -11 d s 1313 1115 m 13 7 d s 1326 1122 m 10 4 d s 1746 1120 m -4 -5 d s 1751 1126 m -5 -6 d s 1336 1126 m 4
 2 d s 1340 1128 m 15 7 d s 1355 1135 m 5 2 d s 1759 1137 m -8 -11 d s 1360 1137 m 9 5 d s 1369 1142 m 15 6 d s 1384 1148 m 1 1 d s 1760 1140 m -1 -3 d s 1766 1149 m -6 -9 d s 1385 1149 m 13 6 d s 1398 1155 m 13 5 d s 1772 1160 m -6 -11 d s 1411
 1160 m 2 1 d s 1413 1161 m 14 6 d s 1427 1167 m 10 4 d s 1775 1165 m -3 -5 d s 1778 1171 m -3 -6 d s 1437 1171 m 5 2 d s 1442 1173 m 14 6 d s 1456 1179 m 9 3 d s 1782 1182 m -4 -11 d s 1465 1182 m 6 3 d s 1471 1185 m 14 5 d s 1485 1190 m 9 3 d s
 1785 1193 m -3 -11 d s 1494 1193 m 6 3 d s 1500 1196 m 14 5 d s 1514 1201 m 12 4 d s 1786 1205 m -1 -12 d s 1526 1205 m 3 1 d s 1529 1206 m 14 5 d s 1543 1211 m 15 4 d s 1558 1215 m 2 1 d s 1784 1216 m 2 -11 d s 1560 1216 m 12 4 d s 1572 1220 m 15
 4 d s 1587 1224 m 11 3 d s 1777 1227 m 7 -11 d s 1598 1227 m 3 1 d s 1601 1228 m 15 4 d s 1616 1232 m 14 3 d s 1630 1235 m 14 3 d s 1644 1238 m 1 X s 1762 1238 m 13 -8 d s 1775 1230 m 2 -3 d s 1645 1238 m 14 3 d s 1659 1241 m 14 2 d s 1673 1243 m
 15 2 d s 1688 1245 m 14 1 d s 1702 1246 m 15 X s 1717 1246 m 14 X s 1731 1246 m 15 -2 d s 1746 1244 m 14 -5 d s 1760 1239 m 2 -1 d s 747 599 m s 761 595 m -14 4 d s 776 594 m -15 1 d s 790 594 m -14 X s 805 595 m -15 -1 d s 819 597 m -14 -2 d s 834
 599 m -15 -2 d s 834 599 m s 732 609 m -1 2 d s 747 599 m -15 10 d s 848 602 m -14 -3 d s 863 605 m -15 -3 d s 877 609 m -14 -4 d s 882 611 m -5 -2 d s 731 611 m -5 11 d s 892 613 m -10 -2 d s 906 617 m -14 -4 d s 919 622 m -13 -5 d s 726 622 m 11
 Y s 921 622 m -2 X s 935 627 m -14 -5 d s 950 632 m -15 -5 d s 951 633 m -1 -1 d s 726 633 m 2 11 d s 964 637 m -13 -4 d s 978 643 m -14 -6 d s 981 644 m -3 -1 d s 728 644 m 4 11 d s 732 655 m 1 X s 993 649 m -12 -5 d s 1007 655 m -14 -6 d s 1009
 655 m -2 X s 733 655 m 5 12 d s 1022 660 m -13 -5 d s 1035 667 m -13 -7 d s 738 667 m 7 11 d s 1036 667 m -1 X s 1051 673 m -15 -6 d s 1061 678 m -10 -5 d s 745 678 m 2 2 d s 747 680 m 5 9 d s 1065 680 m -4 -2 d s 1080 686 m -15 -6 d s 1085 689 m
 -5 -3 d s 752 689 m 9 11 d s 761 700 m s 1094 693 m -9 -4 d s 1108 700 m -14 -7 d s 761 700 m 9 11 d s 1109 700 m -1 X s 1123 707 m -14 -7 d s 1131 711 m -8 -4 d s 770 711 m 6 6 d s 776 717 m 4 6 d s 1138 714 m -7 -3 d s 1152 722 m -14 -8 d s 1153
 723 m -1 -1 d s 780 723 m 10 10 d s 790 733 m 1 1 d s 1167 729 m -14 -6 d s 1175 734 m -8 -5 d s 791 734 m 11 11 d s 1181 737 m -6 -3 d s 1195 745 m -14 -8 d s 802 745 m 3 3 d s 805 748 m 8 8 d s 1196 745 m -1 X s 1210 753 m -14 -8 d s 1216 756 m
 -6 -3 d s 813 756 m 6 6 d s 819 762 m 6 5 d s 1225 760 m -9 -4 d s 1236 767 m -11 -7 d s 825 767 m 9 8 d s 834 775 m 4 4 d s 1239 769 m -3 -2 d s 1254 777 m -15 -8 d s 1256 779 m -2 -2 d s 838 779 m 10 9 d s 848 788 m 3 2 d s 1268 785 m -12 -6 d s
 1275 790 m -7 -5 d s 851 790 m 12 10 d s 863 800 m 1 1 d s 1283 794 m -8 -4 d s 1294 801 m -11 -7 d s 864 801 m 13 11 d s 877 812 m 1 X s 1297 803 m -3 -2 d s 1311 812 m -14 -9 d s 1312 812 m -1 X s 878 812 m 14 11 d s 892 823 m s 1326 820 m -14 -8
 d s 1331 823 m -5 -3 d s 892 823 m 14 12 d s 1340 829 m -9 -6 d s 1348 835 m -8 -6 d s 906 835 m s 906 835 m 15 11 d s 921 846 m s 1355 839 m -7 -4 d s 1366 846 m -11 -7 d s 921 846 m 14 11 d s 935 857 m 1 X s 1369 848 m -3 -2 d s 1383 857 m -14 -9
 d s 936 857 m 14 10 d s 950 867 m 1 1 d s 1384 858 m -1 -1 d s 1398 868 m -14 -10 d s 1399 868 m -1 X s 951 868 m 13 10 d s 964 878 m 2 2 d s 1413 878 m -14 -10 d s 1416 880 m -3 -2 d s 966 880 m 12 8 d s 978 888 m 4 3 d s 1427 888 m -11 -8 d s
 1432 891 m -5 -3 d s 982 891 m 11 7 d s 993 898 m 6 4 d s 1442 898 m -10 -7 d s 1448 902 m -6 -4 d s 999 902 m 8 6 d s 1007 908 m 8 5 d s 1456 908 m -8 -6 d s 1463 913 m -7 -5 d s 1015 913 m 7 5 d s 1022 918 m 10 6 d s 1471 919 m -8 -6 d s 1478 924
 m -7 -5 d s 1032 924 m 4 3 d s 1036 927 m 14 9 d s 1485 930 m -7 -6 d s 1493 936 m -8 -6 d s 1050 936 m 1 X s 1051 936 m 14 9 d s 1065 945 m 3 2 d s 1500 941 m -7 -5 d s 1507 947 m -7 -6 d s 1068 947 m 12 8 d s 1080 955 m 6 3 d s 1514 953 m -7 -6 d
 s 1521 958 m -7 -5 d s 1086 958 m 8 6 d s 1094 964 m 10 5 d s 1529 964 m -8 -6 d s 1535 969 m -6 -5 d s 1104 969 m 5 3 d s 1109 972 m 14 8 d s 1123 980 m s 1543 977 m -8 -8 d s 1548 980 m -5 -3 d s 1123 980 m 15 9 d s 1138 989 m 4 3 d s 1558 989 m
 -10 -9 d s 1560 992 m -2 -3 d s 1142 992 m 10 6 d s 1152 998 m 10 5 d s 1572 1002 m -12 -10 d s 1573 1003 m -1 -1 d s 1162 1003 m 5 3 d s 1167 1006 m 14 8 d s 1181 1014 m 1 X s 1585 1014 m -12 -11 d s 1182 1014 m 14 8 d s 1196 1022 m 6 3 d s 1587
 1016 m -2 -2 d s 1596 1025 m -9 -9 d s 1202 1025 m 8 5 d s 1210 1030 m 14 6 d s 1601 1030 m -5 -5 d s 1608 1036 m -7 -6 d s 1224 1036 m 1 1 d s 1225 1037 m 14 8 d s 1239 1045 m 6 3 d s 1616 1045 m -8 -9 d s 1618 1048 m -2 -3 d s 1245 1048 m 9 4 d s
 1254 1052 m 13 7 d s 1628 1059 m -10 -11 d s 1267 1059 m 1 X s 1268 1059 m 15 8 d s 1283 1067 m 7 3 d s 1630 1062 m -2 -3 d s 1637 1070 m -7 -8 d s 1290 1070 m 7 4 d s 1297 1074 m 14 6 d s 1311 1080 m 2 1 d s 1644 1080 m -7 -10 d s 1645 1081 m -1
 -1 d s 1313 1081 m 13 7 d s 1326 1088 m 12 5 d s 1653 1093 m -8 -12 d s 1338 1093 m 2 1 d s 1340 1094 m 15 7 d s 1355 1101 m 8 3 d s 1659 1102 m -6 -9 d s 1660 1104 m -1 -2 d s 1363 1104 m 6 3 d s 1369 1107 m 15 6 d s 1384 1113 m 5 2 d s 1666 1115
 m -6 -11 d s 1389 1115 m 9 4 d s 1398 1119 m 15 6 d s 1413 1125 m 4 1 d s 1670 1126 m -4 -11 d s 1417 1126 m 10 4 d s 1427 1130 m 15 6 d s 1442 1136 m 5 1 d s 1672 1137 m -2 -11 d s 1447 1137 m 9 4 d s 1456 1141 m 15 5 d s 1471 1146 m 9 3 d s 1671
 1149 m 1 -12 d s 1480 1149 m 5 2 d s 1485 1151 m 15 4 d s 1500 1155 m 14 4 d s 1514 1159 m 3 1 d s 1666 1160 m 5 -11 d s 1517 1160 m 12 3 d s 1529 1163 m 14 4 d s 1543 1167 m 15 3 d s 1558 1170 m 7 1 d s 1651 1171 m 8 -5 d s 1659 1166 m 7 -6 d s
 1565 1171 m 7 1 d s 1572 1172 m 15 3 d s 1587 1175 m 14 1 d s 1601 1176 m 15 1 d s 1616 1177 m 14 -1 d s 1630 1176 m 14 -3 d s 1644 1173 m 7 -2 d s 921 709 m -6 2 d s 935 706 m -14 3 d s 950 706 m -15 X s 964 707 m -14 -1 d s 978 710 m -14 -3 d s
 986 711 m -8 -1 d s 915 711 m -7 12 d s 993 713 m -7 -2 d s 1007 717 m -14 -4 d s 1022 721 m -15 -4 d s 1026 723 m -4 -2 d s 908 723 m 11 Y s 1036 726 m -10 -3 d s 1051 731 m -15 -5 d s 1057 734 m -6 -3 d s 908 734 m 4 11 d s 1065 737 m -8 -3 d s
 1080 742 m -15 -5 d s 1086 745 m -6 -3 d s 912 745 m 6 11 d s 1094 749 m -8 -4 d s 1109 755 m -15 -6 d s 1111 756 m -2 -1 d s 918 756 m 3 3 d s 921 759 m 5 8 d s 1123 761 m -12 -5 d s 1136 767 m -13 -6 d s 926 767 m 9 11 d s 935 778 m 1 Y s 1138
 768 m -2 -1 d s 1152 775 m -14 -7 d s 1159 779 m -7 -4 d s 935 779 m 10 11 d s 1167 783 m -8 -4 d s 1180 790 m -13 -7 d s 945 790 m 5 4 d s 950 794 m 6 7 d s 1181 790 m -1 X s 1196 798 m -15 -8 d s 1201 801 m -5 -3 d s 956 801 m 8 7 d s 964 808 m 4
 4 d s 1210 806 m -9 -5 d s 1222 812 m -12 -6 d s 968 812 m 10 9 d s 978 821 m 3 2 d s 1225 814 m -3 -2 d s 1239 822 m -14 -8 d s 1241 823 m -2 -1 d s 981 823 m 12 11 d s 993 834 m 1 1 d s 1254 831 m -13 -8 d s 1260 835 m -6 -4 d s 994 835 m 13 11 d
 s 1007 846 m 1 X s 1268 839 m -8 -4 d s 1278 846 m -10 -7 d s 1008 846 m 14 11 d s 1022 857 m s 1283 849 m -5 -3 d s 1296 857 m -13 -8 d s 1022 857 m 14 11 d s 1036 868 m 1 X s 1297 858 m -1 -1 d s 1311 867 m -14 -9 d s 1313 868 m -2 -1 d s 1037
 868 m 14 10 d s 1051 878 m 2 2 d s 1326 877 m -13 -9 d s 1330 880 m -4 -3 d s 1053 880 m 12 8 d s 1065 888 m 4 3 d s 1340 887 m -10 -7 d s 1346 891 m -6 -4 d s 1069 891 m 11 7 d s 1080 898 m 5 4 d s 1355 897 m -9 -6 d s 1361 902 m -6 -5 d s 1085
 902 m 9 6 d s 1094 908 m 8 5 d s 1369 908 m -8 -6 d s 1376 913 m -7 -5 d s 1102 913 m 7 4 d s 1109 917 m 11 7 d s 1384 919 m -8 -6 d s 1390 924 m -6 -5 d s 1120 924 m 3 2 d s 1123 926 m 15 9 d s 1138 935 m 1 Y s 1398 931 m -8 -7 d s 1404 936 m -6
 -5 d s 1138 936 m 14 8 d s 1152 944 m 5 3 d s 1413 943 m -9 -7 d s 1417 947 m -4 -4 d s 1157 947 m 10 6 d s 1167 953 m 10 5 d s 1427 956 m -10 -9 d s 1430 958 m -3 -2 d s 1177 958 m 4 3 d s 1181 961 m 15 8 d s 1196 969 m 1 X s 1442 969 m -12 -11 d
 s 1197 969 m 13 7 d s 1210 976 m 8 4 d s 1442 969 m s 1453 980 m -11 -11 d s 1218 980 m 7 4 d s 1225 984 m 14 7 d s 1239 991 m 1 1 d s 1456 985 m -3 -5 d s 1463 992 m -7 -7 d s 1240 992 m 14 7 d s 1254 999 m 9 4 d s 1471 1001 m -8 -9 d s 1472 1003
 m -1 -2 d s 1263 1003 m 5 2 d s 1268 1005 m 15 7 d s 1283 1012 m 4 2 d s 1480 1014 m -8 -11 d s 1287 1014 m 10 5 d s 1297 1019 m 14 6 d s 1311 1025 m 2 X s 1485 1024 m -5 -10 d s 1486 1025 m -1 -1 d s 1313 1025 m 13 6 d s 1326 1031 m 14 5 d s 1340
 1036 m 1 X s 1490 1036 m -4 -11 d s 1341 1036 m 14 6 d s 1355 1042 m 14 5 d s 1369 1047 m 4 1 d s 1490 1048 m -12 Y s 1373 1048 m 11 3 d s 1384 1051 m 14 4 d s 1398 1055 m 14 4 d s 1482 1059 m 3 -3 d s 1485 1056 m 5 -8 d s 1412 1059 m 1 X s 1413
 1059 m 14 3 d s 1427 1062 m 15 2 d s 1442 1064 m 14 1 d s 1456 1065 m 15 -2 d s 1471 1063 m 11 -4 d s
 gsave  2268 1538 0 0 C 332 313 t 0 r /Helvetica-Bold findfont 48.8732 sf 0 0 m (68%, 95%, 99% CL fit contours) show NC gr 
 gsave  2268 1538 0 0 C 411 251 t 0 r /Helvetica-Bold findfont 48.8732 sf 0 0 m (=120 GeV, U=0\)) show NC gr 
 gsave  2268 1538 0 0 C 388 225 t 0 r /Helvetica-Bold findfont 32.5821 sf 0 0 m (H) show NC gr 
 gsave  2268 1538 0 0 C 332 251 t 0 r /Helvetica-Bold findfont 48.8732 sf 0 0 m (\(M) show NC gr  black
 gsave  2268 1538 0 0 C 332 1280 t 0 r /Helvetica-Bold findfont 39.0986 sf 0 0 m (preliminary) show NC gr  272 185 m 1882 X s
 gsave  2268 1538 0 0 C 2111 13 t 0 r /Helvetica-Bold findfont 65.1643 sf 0 0 m (S) show NC gr  272 223 m -38 Y s 313 204 m -19 Y s 355 204 m -19 Y s 396 204 m -19 Y s 438 204 m -19 Y s 479 223 m -38 Y s 520 204 m -19 Y s 562 204 m -19 Y s 603 204 m
 -19 Y s 644 204 m -19 Y s 686 223 m -38 Y s 727 204 m -19 Y s 769 204 m -19 Y s 810 204 m -19 Y s 851 204 m -19 Y s 893 223 m -38 Y s 934 204 m -19 Y s 975 204 m -19 Y s 1017 204 m -19 Y s 1058 204 m -19 Y s 1099 223 m -38 Y s 1141 204 m -19 Y s
 1182 204 m -19 Y s 1224 204 m -19 Y s 1265 204 m -19 Y s 1306 223 m -38 Y s 1348 204 m -19 Y s 1389 204 m -19 Y s 1430 204 m -19 Y s 1472 204 m -19 Y s 1513 223 m -38 Y s 1555 204 m -19 Y s 1596 204 m -19 Y s 1637 204 m -19 Y s 1679 204 m -19 Y s
 1720 223 m -38 Y s 1761 204 m -19 Y s 1803 204 m -19 Y s 1844 204 m -19 Y s 1885 204 m -19 Y s 1927 223 m -38 Y s 1968 204 m -19 Y s 2010 204 m -19 Y s 2051 204 m -19 Y s 2092 204 m -19 Y s 2134 223 m -38 Y s 2134 223 m -38 Y s
 gsave  2268 1538 0 0 C 218 117 t 0 r /Helvetica-Bold findfont 58.6478 sf 0 0 m (\2550.4) show NC gr 
 gsave  2268 1538 0 0 C 427 117 t 0 r /Helvetica-Bold findfont 58.6478 sf 0 0 m (\2550.3) show NC gr 
 gsave  2268 1538 0 0 C 632 117 t 0 r /Helvetica-Bold findfont 58.6478 sf 0 0 m (\2550.2) show NC gr 
 gsave  2268 1538 0 0 C 841 117 t 0 r /Helvetica-Bold findfont 58.6478 sf 0 0 m (\2550.1) show NC gr 
 gsave  2268 1538 0 0 C 1082 117 t 0 r /Helvetica-Bold findfont 58.6478 sf 0 0 m (0) show NC gr 
 gsave  2268 1538 0 0 C 1264 117 t 0 r /Helvetica-Bold findfont 58.6478 sf 0 0 m (0.1) show NC gr 
 gsave  2268 1538 0 0 C 1469 117 t 0 r /Helvetica-Bold findfont 58.6478 sf 0 0 m (0.2) show NC gr 
 gsave  2268 1538 0 0 C 1675 117 t 0 r /Helvetica-Bold findfont 58.6478 sf 0 0 m (0.3) show NC gr 
 gsave  2268 1538 0 0 C 1883 117 t 0 r /Helvetica-Bold findfont 58.6478 sf 0 0 m (0.4) show NC gr 
 gsave  2268 1538 0 0 C 2089 117 t 0 r /Helvetica-Bold findfont 58.6478 sf 0 0 m (0.5) show NC gr  272 1446 m 1882 X s 272 1407 m 39 Y s 313 1426 m 20 Y s 355 1426 m 20 Y s 396 1426 m 20 Y s 438 1426 m 20 Y s 479 1407 m 39 Y s 520 1426 m 20 Y s 562
 1426 m 20 Y s 603 1426 m 20 Y s 644 1426 m 20 Y s 686 1407 m 39 Y s 727 1426 m 20 Y s 769 1426 m 20 Y s 810 1426 m 20 Y s 851 1426 m 20 Y s 893 1407 m 39 Y s 934 1426 m 20 Y s 975 1426 m 20 Y s 1017 1426 m 20 Y s 1058 1426 m 20 Y s 1099 1407 m 39 Y
 s 1141 1426 m 20 Y s 1182 1426 m 20 Y s 1224 1426 m 20 Y s 1265 1426 m 20 Y s 1306 1407 m 39 Y s 1348 1426 m 20 Y s 1389 1426 m 20 Y s 1430 1426 m 20 Y s 1472 1426 m 20 Y s 1513 1407 m 39 Y s 1555 1426 m 20 Y s 1596 1426 m 20 Y s 1637 1426 m 20 Y s
 1679 1426 m 20 Y s 1720 1407 m 39 Y s 1761 1426 m 20 Y s 1803 1426 m 20 Y s 1844 1426 m 20 Y s 1885 1426 m 20 Y s 1927 1407 m 39 Y s 1968 1426 m 20 Y s 2010 1426 m 20 Y s 2051 1426 m 20 Y s 2092 1426 m 20 Y s 2134 1407 m 39 Y s 2134 1407 m 39 Y s
 272 185 m 1261 Y s
 gsave  2268 1538 0 0 C 91 1408 t 90 r /Helvetica-Bold findfont 65.1643 sf 0 0 m (T) show NC gr  328 185 m -56 X s 300 213 m -28 X s 300 241 m -28 X s 300 269 m -28 X s 300 297 m -28 X s 328 325 m -56 X s 300 353 m -28 X s 300 381 m -28 X s 300 409
 m -28 X s 300 437 m -28 X s 328 465 m -56 X s 300 493 m -28 X s 300 521 m -28 X s 300 549 m -28 X s 300 577 m -28 X s 328 605 m -56 X s 300 633 m -28 X s 300 661 m -28 X s 300 689 m -28 X s 300 717 m -28 X s 328 745 m -56 X s 300 773 m -28 X s 300
 801 m -28 X s 300 829 m -28 X s 300 857 m -28 X s 328 885 m -56 X s 300 913 m -28 X s 300 941 m -28 X s 300 969 m -28 X s 300 997 m -28 X s 328 1025 m -56 X s 300 1053 m -28 X s 300 1081 m -28 X s 300 1109 m -28 X s 300 1137 m -28 X s 328 1165 m
 -56 X s 300 1193 m -28 X s 300 1221 m -28 X s 300 1249 m -28 X s 300 1277 m -28 X s 328 1305 m -56 X s 300 1334 m -28 X s 300 1362 m -28 X s 300 1390 m -28 X s 300 1418 m -28 X s 328 1446 m -56 X s
 gsave  2268 1538 0 0 C 143 163 t 0 r /Helvetica-Bold findfont 58.6478 sf 0 0 m (\2550.4) show NC gr 
 gsave  2268 1538 0 0 C 143 303 t 0 r /Helvetica-Bold findfont 58.6478 sf 0 0 m (\2550.3) show NC gr 
 gsave  2268 1538 0 0 C 143 443 t 0 r /Helvetica-Bold findfont 58.6478 sf 0 0 m (\2550.2) show NC gr 
 gsave  2268 1538 0 0 C 150 583 t 0 r /Helvetica-Bold findfont 58.6478 sf 0 0 m (\2550.1) show NC gr 
 gsave  2268 1538 0 0 C 212 723 t 0 r /Helvetica-Bold findfont 58.6478 sf 0 0 m (0) show NC gr 
 gsave  2268 1538 0 0 C 169 863 t 0 r /Helvetica-Bold findfont 58.6478 sf 0 0 m (0.1) show NC gr 
 gsave  2268 1538 0 0 C 163 1004 t 0 r /Helvetica-Bold findfont 58.6478 sf 0 0 m (0.2) show NC gr 
 gsave  2268 1538 0 0 C 163 1144 t 0 r /Helvetica-Bold findfont 58.6478 sf 0 0 m (0.3) show NC gr 
 gsave  2268 1538 0 0 C 163 1284 t 0 r /Helvetica-Bold findfont 58.6478 sf 0 0 m (0.4) show NC gr 
 gsave  2268 1538 0 0 C 163 1424 t 0 r /Helvetica-Bold findfont 58.6478 sf 0 0 m (0.5) show NC gr  2154 185 m 1261 Y s 2099 185 m 55 X s 2126 213 m 28 X s 2126 241 m 28 X s 2126 269 m 28 X s 2126 297 m 28 X s 2099 325 m 55 X s 2126 353 m 28 X s 2126
 381 m 28 X s 2126 409 m 28 X s 2126 437 m 28 X s 2099 465 m 55 X s 2126 493 m 28 X s 2126 521 m 28 X s 2126 549 m 28 X s 2126 577 m 28 X s 2099 605 m 55 X s 2126 633 m 28 X s 2126 661 m 28 X s 2126 689 m 28 X s 2126 717 m 28 X s 2099 745 m 55 X s
 2126 773 m 28 X s 2126 801 m 28 X s 2126 829 m 28 X s 2126 857 m 28 X s 2099 885 m 55 X s 2126 913 m 28 X s 2126 941 m 28 X s 2126 969 m 28 X s 2126 997 m 28 X s 2099 1025 m 55 X s 2126 1053 m 28 X s 2126 1081 m 28 X s 2126 1109 m 28 X s 2126 1137
 m 28 X s 2099 1165 m 55 X s 2126 1193 m 28 X s 2126 1221 m 28 X s 2126 1249 m 28 X s 2126 1277 m 28 X s 2099 1305 m 55 X s 2126 1334 m 28 X s 2126 1362 m 28 X s 2126 1390 m 28 X s 2126 1418 m 28 X s 2099 1446 m 55 X s 0.4 0.2 0 c 74 74 325 1326 bf
 1 1 1 c
 gsave  74 74 325 1326 C 360 1336 t 0 r  -26 0 t /Helvetica findfont 71.1233 sf 0 0 m (G) show NC gr  black 325 1326 m 74 Y s 325 1400 m 74 X s 399 1400 m -74 Y s 399 1326 m -74 X s 0.878431 0.933333 0.933333 c 171 74 399 1326 bf black
 gsave  171 74 399 1326 C 485 1336 t 0 r  -68 0 t /Helvetica findfont 71.1233 sf 0 0 m (fitter) show NC gr  399 1326 m 74 Y s 399 1400 m 171 X s 570 1400 m -74 Y s 570 1326 m -171 X s 1 1 1 c 65 74 570 1326 bf 0.4 0.2 0 c
 gsave  65 74 570 1326 C 601 1336 t 0 r  -21 0 t /Helvetica findfont 30.6838 sf 0 0 m (SM) show NC gr 
 gsave  65 74 570 1326 C 601 1370 t 0 r  -10 0 t /Helvetica findfont 30.6838 sf 0 0 m (B) show NC gr  black 570 1326 m 74 Y s 570 1400 m 65 X s 635 1400 m -74 Y s 635 1326 m -65 X s 1 1 1 c 39 74 635 1326 bf black
 gsave  39 74 635 1326 C 645 1363 t 270 r  -32 0 t /Helvetica findfont 21.1676 sf 0 0 m (Aug 10) show NC gr  635 1326 m 74 Y s
 gr  gr 
showpage
end
%%EOF
